2021-03-03 11:31:22,385 INFO  47147 /home/david/.virtualenvs/eryocollector/lib/python3.8/site-packages/basic_logtools/filelog.py filelog.py filelog save Inicial conteo de ronda r.iso8601('2021-03-03T14:31:20.627314+00:00')
2021-03-03 11:31:24,386 INFO  47147 /home/david/.virtualenvs/eryocollector/lib/python3.8/site-packages/basic_logtools/filelog.py filelog.py filelog save Inicial conteo de ronda r.iso8601('2021-03-03T14:31:22.386009+00:00')
2021-03-03 11:31:26,386 INFO  47147 /home/david/.virtualenvs/eryocollector/lib/python3.8/site-packages/basic_logtools/filelog.py filelog.py filelog save Inicial conteo de ronda r.iso8601('2021-03-03T14:31:24.387158+00:00')
2021-03-03 11:31:28,398 INFO  47147 /home/david/.virtualenvs/eryocollector/lib/python3.8/site-packages/basic_logtools/filelog.py filelog.py filelog save Inicial conteo de ronda r.iso8601('2021-03-03T14:31:26.386901+00:00')
2021-03-03 11:31:30,403 INFO  47147 /home/david/.virtualenvs/eryocollector/lib/python3.8/site-packages/basic_logtools/filelog.py filelog.py filelog save Inicial conteo de ronda r.iso8601('2021-03-03T14:31:28.399416+00:00')
2021-03-03 11:31:32,403 INFO  47147 /home/david/.virtualenvs/eryocollector/lib/python3.8/site-packages/basic_logtools/filelog.py filelog.py filelog save Inicial conteo de ronda r.iso8601('2021-03-03T14:31:30.403921+00:00')
2021-03-03 11:31:34,404 INFO  47147 /home/david/.virtualenvs/eryocollector/lib/python3.8/site-packages/basic_logtools/filelog.py filelog.py filelog save Inicial conteo de ronda r.iso8601('2021-03-03T14:31:32.403503+00:00')
2021-03-03 11:31:36,417 INFO  47147 /home/david/.virtualenvs/eryocollector/lib/python3.8/site-packages/basic_logtools/filelog.py filelog.py filelog save Inicial conteo de ronda r.iso8601('2021-03-03T14:31:34.404319+00:00')
2021-03-03 11:31:38,414 INFO  47147 /home/david/.virtualenvs/eryocollector/lib/python3.8/site-packages/basic_logtools/filelog.py filelog.py filelog save Inicial conteo de ronda r.iso8601('2021-03-03T14:31:36.417432+00:00')
2021-03-03 11:31:40,413 INFO  47147 /home/david/.virtualenvs/eryocollector/lib/python3.8/site-packages/basic_logtools/filelog.py filelog.py filelog save Inicial conteo de ronda r.iso8601('2021-03-03T14:31:38.415405+00:00')
2021-03-03 11:31:42,414 INFO  47147 /home/david/.virtualenvs/eryocollector/lib/python3.8/site-packages/basic_logtools/filelog.py filelog.py filelog save Inicial conteo de ronda r.iso8601('2021-03-03T14:31:40.413664+00:00')
2021-03-03 11:31:42,425 INFO  47147 /home/david/.virtualenvs/eryocollector/lib/python3.8/site-packages/basic_logtools/filelog.py filelog.py filelog save Inicial conteo de ronda r.iso8601('2021-03-03T14:31:42.414311+00:00')
2021-03-03 11:31:44,423 INFO  47147 /home/david/.virtualenvs/eryocollector/lib/python3.8/site-packages/basic_logtools/filelog.py filelog.py filelog save Inicial conteo de ronda r.iso8601('2021-03-03T14:31:42.425691+00:00')
2021-03-03 11:31:46,436 INFO  47147 /home/david/.virtualenvs/eryocollector/lib/python3.8/site-packages/basic_logtools/filelog.py filelog.py filelog save Inicial conteo de ronda r.iso8601('2021-03-03T14:31:44.424043+00:00')
2021-03-03 11:31:48,423 INFO  47147 /home/david/.virtualenvs/eryocollector/lib/python3.8/site-packages/basic_logtools/filelog.py filelog.py filelog save Inicial conteo de ronda r.iso8601('2021-03-03T14:31:46.437391+00:00')
2021-03-03 11:31:48,432 INFO  47147 /home/david/.virtualenvs/eryocollector/lib/python3.8/site-packages/basic_logtools/filelog.py filelog.py filelog save Inicial conteo de ronda r.iso8601('2021-03-03T14:31:48.423309+00:00')
2021-03-03 11:31:50,432 INFO  47147 /home/david/.virtualenvs/eryocollector/lib/python3.8/site-packages/basic_logtools/filelog.py filelog.py filelog save Inicial conteo de ronda r.iso8601('2021-03-03T14:31:48.432663+00:00')
2021-03-03 11:31:50,445 INFO  47147 /home/david/.virtualenvs/eryocollector/lib/python3.8/site-packages/basic_logtools/filelog.py filelog.py filelog save Inicial conteo de ronda r.iso8601('2021-03-03T14:31:50.432594+00:00')
2021-03-03 11:31:52,440 INFO  47147 /home/david/.virtualenvs/eryocollector/lib/python3.8/site-packages/basic_logtools/filelog.py filelog.py filelog save Inicial conteo de ronda r.iso8601('2021-03-03T14:31:50.445991+00:00')
2021-03-03 11:31:54,449 INFO  47147 /home/david/.virtualenvs/eryocollector/lib/python3.8/site-packages/basic_logtools/filelog.py filelog.py filelog save Inicial conteo de ronda r.iso8601('2021-03-03T14:31:52.440983+00:00')
2021-03-03 11:31:56,443 INFO  47147 /home/david/.virtualenvs/eryocollector/lib/python3.8/site-packages/basic_logtools/filelog.py filelog.py filelog save Inicial conteo de ronda r.iso8601('2021-03-03T14:31:54.449768+00:00')
2021-03-03 11:31:56,454 INFO  47147 /home/david/.virtualenvs/eryocollector/lib/python3.8/site-packages/basic_logtools/filelog.py filelog.py filelog save Inicial conteo de ronda r.iso8601('2021-03-03T14:31:56.443698+00:00')
2021-03-03 11:31:58,450 INFO  47147 /home/david/.virtualenvs/eryocollector/lib/python3.8/site-packages/basic_logtools/filelog.py filelog.py filelog save Inicial conteo de ronda r.iso8601('2021-03-03T14:31:56.454450+00:00')
2021-03-03 11:31:58,459 INFO  47147 /home/david/.virtualenvs/eryocollector/lib/python3.8/site-packages/basic_logtools/filelog.py filelog.py filelog save Inicial conteo de ronda r.iso8601('2021-03-03T14:31:58.450366+00:00')
2021-03-03 11:32:00,453 INFO  47147 /home/david/.virtualenvs/eryocollector/lib/python3.8/site-packages/basic_logtools/filelog.py filelog.py filelog save Inicial conteo de ronda r.iso8601('2021-03-03T14:31:58.459696+00:00')
2021-03-03 11:32:02,463 INFO  47147 /home/david/.virtualenvs/eryocollector/lib/python3.8/site-packages/basic_logtools/filelog.py filelog.py filelog save Inicial conteo de ronda r.iso8601('2021-03-03T14:32:00.454152+00:00')
2021-03-03 11:32:04,459 INFO  47147 /home/david/.virtualenvs/eryocollector/lib/python3.8/site-packages/basic_logtools/filelog.py filelog.py filelog save Inicial conteo de ronda r.iso8601('2021-03-03T14:32:02.463764+00:00')
2021-03-03 11:32:04,466 INFO  47147 /home/david/.virtualenvs/eryocollector/lib/python3.8/site-packages/basic_logtools/filelog.py filelog.py filelog save Inicial conteo de ronda r.iso8601('2021-03-03T14:32:04.459341+00:00')
2021-03-03 11:32:06,461 INFO  47147 /home/david/.virtualenvs/eryocollector/lib/python3.8/site-packages/basic_logtools/filelog.py filelog.py filelog save Inicial conteo de ronda r.iso8601('2021-03-03T14:32:04.467086+00:00')
2021-03-03 11:32:06,473 INFO  47147 /home/david/.virtualenvs/eryocollector/lib/python3.8/site-packages/basic_logtools/filelog.py filelog.py filelog save Inicial conteo de ronda r.iso8601('2021-03-03T14:32:06.461696+00:00')
2021-03-03 11:32:08,492 INFO  47147 /home/david/.virtualenvs/eryocollector/lib/python3.8/site-packages/basic_logtools/filelog.py filelog.py filelog save Inicial conteo de ronda r.iso8601('2021-03-03T14:32:06.474007+00:00')
2021-03-03 11:32:10,482 INFO  47147 /home/david/.virtualenvs/eryocollector/lib/python3.8/site-packages/basic_logtools/filelog.py filelog.py filelog save Inicial conteo de ronda r.iso8601('2021-03-03T14:32:08.493485+00:00')
2021-03-03 11:32:12,481 INFO  47147 /home/david/.virtualenvs/eryocollector/lib/python3.8/site-packages/basic_logtools/filelog.py filelog.py filelog save Inicial conteo de ronda r.iso8601('2021-03-03T14:32:10.482908+00:00')
2021-03-03 11:32:14,486 INFO  47147 /home/david/.virtualenvs/eryocollector/lib/python3.8/site-packages/basic_logtools/filelog.py filelog.py filelog save Inicial conteo de ronda r.iso8601('2021-03-03T14:32:12.481911+00:00')
2021-03-03 11:32:14,501 INFO  47147 /home/david/.virtualenvs/eryocollector/lib/python3.8/site-packages/basic_logtools/filelog.py filelog.py filelog save Inicial conteo de ronda r.iso8601('2021-03-03T14:32:14.487040+00:00')
2021-03-03 11:32:16,492 INFO  47147 /home/david/.virtualenvs/eryocollector/lib/python3.8/site-packages/basic_logtools/filelog.py filelog.py filelog save Inicial conteo de ronda r.iso8601('2021-03-03T14:32:14.501495+00:00')
2021-03-03 11:32:18,508 INFO  47147 /home/david/.virtualenvs/eryocollector/lib/python3.8/site-packages/basic_logtools/filelog.py filelog.py filelog save Inicial conteo de ronda r.iso8601('2021-03-03T14:32:16.492694+00:00')
2021-03-03 11:32:20,497 INFO  47147 /home/david/.virtualenvs/eryocollector/lib/python3.8/site-packages/basic_logtools/filelog.py filelog.py filelog save Inicial conteo de ronda r.iso8601('2021-03-03T14:32:18.509581+00:00')
2021-03-03 11:32:20,507 INFO  47147 /home/david/.virtualenvs/eryocollector/lib/python3.8/site-packages/basic_logtools/filelog.py filelog.py filelog save Inicial conteo de ronda r.iso8601('2021-03-03T14:32:20.497789+00:00')
2021-03-03 11:32:22,503 INFO  47147 /home/david/.virtualenvs/eryocollector/lib/python3.8/site-packages/basic_logtools/filelog.py filelog.py filelog save Inicial conteo de ronda r.iso8601('2021-03-03T14:32:20.507701+00:00')
2021-03-03 11:32:22,513 INFO  47147 /home/david/.virtualenvs/eryocollector/lib/python3.8/site-packages/basic_logtools/filelog.py filelog.py filelog save Inicial conteo de ronda r.iso8601('2021-03-03T14:32:22.503359+00:00')
2021-03-03 11:32:24,507 INFO  47147 /home/david/.virtualenvs/eryocollector/lib/python3.8/site-packages/basic_logtools/filelog.py filelog.py filelog save Inicial conteo de ronda r.iso8601('2021-03-03T14:32:22.514068+00:00')
2021-03-03 11:32:24,518 INFO  47147 /home/david/.virtualenvs/eryocollector/lib/python3.8/site-packages/basic_logtools/filelog.py filelog.py filelog save Inicial conteo de ronda r.iso8601('2021-03-03T14:32:24.507642+00:00')
2021-03-03 11:32:26,515 INFO  47147 /home/david/.virtualenvs/eryocollector/lib/python3.8/site-packages/basic_logtools/filelog.py filelog.py filelog save Inicial conteo de ronda r.iso8601('2021-03-03T14:32:24.518949+00:00')
2021-03-03 11:32:28,529 INFO  47147 /home/david/.virtualenvs/eryocollector/lib/python3.8/site-packages/basic_logtools/filelog.py filelog.py filelog save Inicial conteo de ronda r.iso8601('2021-03-03T14:32:26.515371+00:00')
