2021-02-24 16:44:31,668 INFO  37549 /home/david/.virtualenvs/eryocollector/lib/python3.8/site-packages/basic_logtools/filelog.py filelog.py filelog save Inicial conteo de ronda r.iso8601('2021-02-24T19:44:29.665108+00:00')
2021-02-24 16:44:33,675 INFO  37549 /home/david/.virtualenvs/eryocollector/lib/python3.8/site-packages/basic_logtools/filelog.py filelog.py filelog save Inicial conteo de ronda r.iso8601('2021-02-24T19:44:31.674840+00:00')
2021-02-24 16:44:35,676 INFO  37549 /home/david/.virtualenvs/eryocollector/lib/python3.8/site-packages/basic_logtools/filelog.py filelog.py filelog save Inicial conteo de ronda r.iso8601('2021-02-24T19:44:33.676392+00:00')
2021-02-24 16:44:37,680 INFO  37549 /home/david/.virtualenvs/eryocollector/lib/python3.8/site-packages/basic_logtools/filelog.py filelog.py filelog save Inicial conteo de ronda r.iso8601('2021-02-24T19:44:35.677312+00:00')
2021-02-24 16:44:39,688 INFO  37549 /home/david/.virtualenvs/eryocollector/lib/python3.8/site-packages/basic_logtools/filelog.py filelog.py filelog save Inicial conteo de ronda r.iso8601('2021-02-24T19:44:37.682280+00:00')
2021-02-24 16:44:41,701 INFO  37549 /home/david/.virtualenvs/eryocollector/lib/python3.8/site-packages/basic_logtools/filelog.py filelog.py filelog save Inicial conteo de ronda r.iso8601('2021-02-24T19:44:39.689398+00:00')
2021-02-24 16:44:43,697 INFO  37549 /home/david/.virtualenvs/eryocollector/lib/python3.8/site-packages/basic_logtools/filelog.py filelog.py filelog save Inicial conteo de ronda r.iso8601('2021-02-24T19:44:41.703084+00:00')
2021-02-24 16:44:45,700 INFO  37549 /home/david/.virtualenvs/eryocollector/lib/python3.8/site-packages/basic_logtools/filelog.py filelog.py filelog save Inicial conteo de ronda r.iso8601('2021-02-24T19:44:43.698073+00:00')
2021-02-24 16:44:47,707 INFO  37549 /home/david/.virtualenvs/eryocollector/lib/python3.8/site-packages/basic_logtools/filelog.py filelog.py filelog save Inicial conteo de ronda r.iso8601('2021-02-24T19:44:45.701816+00:00')
2021-02-24 16:44:49,716 INFO  37549 /home/david/.virtualenvs/eryocollector/lib/python3.8/site-packages/basic_logtools/filelog.py filelog.py filelog save Inicial conteo de ronda r.iso8601('2021-02-24T19:44:47.708920+00:00')
2021-02-24 16:44:51,717 INFO  37549 /home/david/.virtualenvs/eryocollector/lib/python3.8/site-packages/basic_logtools/filelog.py filelog.py filelog save Inicial conteo de ronda r.iso8601('2021-02-24T19:44:49.717722+00:00')
2021-02-24 16:44:53,719 INFO  37549 /home/david/.virtualenvs/eryocollector/lib/python3.8/site-packages/basic_logtools/filelog.py filelog.py filelog save Inicial conteo de ronda r.iso8601('2021-02-24T19:44:51.719014+00:00')
2021-02-24 16:44:55,724 INFO  37549 /home/david/.virtualenvs/eryocollector/lib/python3.8/site-packages/basic_logtools/filelog.py filelog.py filelog save Inicial conteo de ronda r.iso8601('2021-02-24T19:44:53.720901+00:00')
2021-02-24 16:44:57,732 INFO  37549 /home/david/.virtualenvs/eryocollector/lib/python3.8/site-packages/basic_logtools/filelog.py filelog.py filelog save Inicial conteo de ronda r.iso8601('2021-02-24T19:44:55.725749+00:00')
2021-02-24 16:44:59,735 INFO  37549 /home/david/.virtualenvs/eryocollector/lib/python3.8/site-packages/basic_logtools/filelog.py filelog.py filelog save Inicial conteo de ronda r.iso8601('2021-02-24T19:44:57.733149+00:00')
2021-02-24 16:45:01,740 INFO  37549 /home/david/.virtualenvs/eryocollector/lib/python3.8/site-packages/basic_logtools/filelog.py filelog.py filelog save Inicial conteo de ronda r.iso8601('2021-02-24T19:44:59.736776+00:00')
2021-02-24 16:45:03,747 INFO  37549 /home/david/.virtualenvs/eryocollector/lib/python3.8/site-packages/basic_logtools/filelog.py filelog.py filelog save Inicial conteo de ronda r.iso8601('2021-02-24T19:45:01.741370+00:00')
2021-02-24 16:45:05,748 INFO  37549 /home/david/.virtualenvs/eryocollector/lib/python3.8/site-packages/basic_logtools/filelog.py filelog.py filelog save Inicial conteo de ronda r.iso8601('2021-02-24T19:45:03.748401+00:00')
2021-02-24 16:45:07,759 INFO  37549 /home/david/.virtualenvs/eryocollector/lib/python3.8/site-packages/basic_logtools/filelog.py filelog.py filelog save Inicial conteo de ronda r.iso8601('2021-02-24T19:45:05.749482+00:00')
2021-02-24 16:45:09,758 INFO  37549 /home/david/.virtualenvs/eryocollector/lib/python3.8/site-packages/basic_logtools/filelog.py filelog.py filelog save Inicial conteo de ronda r.iso8601('2021-02-24T19:45:07.760017+00:00')
2021-02-24 16:45:11,767 INFO  37549 /home/david/.virtualenvs/eryocollector/lib/python3.8/site-packages/basic_logtools/filelog.py filelog.py filelog save Inicial conteo de ronda r.iso8601('2021-02-24T19:45:09.760030+00:00')
2021-02-24 16:45:13,772 INFO  37549 /home/david/.virtualenvs/eryocollector/lib/python3.8/site-packages/basic_logtools/filelog.py filelog.py filelog save Inicial conteo de ronda r.iso8601('2021-02-24T19:45:11.768328+00:00')
2021-02-24 16:45:15,776 INFO  37549 /home/david/.virtualenvs/eryocollector/lib/python3.8/site-packages/basic_logtools/filelog.py filelog.py filelog save Inicial conteo de ronda r.iso8601('2021-02-24T19:45:13.773192+00:00')
2021-02-24 16:45:17,780 INFO  37549 /home/david/.virtualenvs/eryocollector/lib/python3.8/site-packages/basic_logtools/filelog.py filelog.py filelog save Inicial conteo de ronda r.iso8601('2021-02-24T19:45:15.777426+00:00')
2021-02-24 16:45:19,787 INFO  37549 /home/david/.virtualenvs/eryocollector/lib/python3.8/site-packages/basic_logtools/filelog.py filelog.py filelog save Inicial conteo de ronda r.iso8601('2021-02-24T19:45:17.781285+00:00')
2021-02-24 16:45:21,789 INFO  37549 /home/david/.virtualenvs/eryocollector/lib/python3.8/site-packages/basic_logtools/filelog.py filelog.py filelog save Inicial conteo de ronda r.iso8601('2021-02-24T19:45:19.788069+00:00')
2021-02-24 16:45:23,805 INFO  37549 /home/david/.virtualenvs/eryocollector/lib/python3.8/site-packages/basic_logtools/filelog.py filelog.py filelog save Inicial conteo de ronda r.iso8601('2021-02-24T19:45:21.790350+00:00')
2021-02-24 16:45:25,800 INFO  37549 /home/david/.virtualenvs/eryocollector/lib/python3.8/site-packages/basic_logtools/filelog.py filelog.py filelog save Inicial conteo de ronda r.iso8601('2021-02-24T19:45:23.805915+00:00')
2021-02-24 16:45:27,802 INFO  37549 /home/david/.virtualenvs/eryocollector/lib/python3.8/site-packages/basic_logtools/filelog.py filelog.py filelog save Inicial conteo de ronda r.iso8601('2021-02-24T19:45:25.801721+00:00')
2021-02-24 16:45:29,804 INFO  37549 /home/david/.virtualenvs/eryocollector/lib/python3.8/site-packages/basic_logtools/filelog.py filelog.py filelog save Inicial conteo de ronda r.iso8601('2021-02-24T19:45:27.803393+00:00')
2021-02-24 16:45:29,824 INFO  37549 /home/david/.virtualenvs/eryocollector/lib/python3.8/site-packages/basic_logtools/filelog.py filelog.py filelog save Inicial conteo de ronda r.iso8601('2021-02-24T19:45:29.805244+00:00')
2021-02-24 16:45:31,818 INFO  37549 /home/david/.virtualenvs/eryocollector/lib/python3.8/site-packages/basic_logtools/filelog.py filelog.py filelog save Inicial conteo de ronda r.iso8601('2021-02-24T19:45:29.825210+00:00')
2021-02-24 16:45:33,821 INFO  37549 /home/david/.virtualenvs/eryocollector/lib/python3.8/site-packages/basic_logtools/filelog.py filelog.py filelog save Inicial conteo de ronda r.iso8601('2021-02-24T19:45:31.819149+00:00')
2021-02-24 16:45:35,826 INFO  37549 /home/david/.virtualenvs/eryocollector/lib/python3.8/site-packages/basic_logtools/filelog.py filelog.py filelog save Inicial conteo de ronda r.iso8601('2021-02-24T19:45:33.822665+00:00')
2021-02-24 16:45:35,831 INFO  37549 /home/david/.virtualenvs/eryocollector/lib/python3.8/site-packages/basic_logtools/filelog.py filelog.py filelog save Inicial conteo de ronda r.iso8601('2021-02-24T19:45:35.827572+00:00')
2021-02-24 16:45:37,835 INFO  37549 /home/david/.virtualenvs/eryocollector/lib/python3.8/site-packages/basic_logtools/filelog.py filelog.py filelog save Inicial conteo de ronda r.iso8601('2021-02-24T19:45:35.832110+00:00')
2021-02-24 16:45:39,839 INFO  37549 /home/david/.virtualenvs/eryocollector/lib/python3.8/site-packages/basic_logtools/filelog.py filelog.py filelog save Inicial conteo de ronda r.iso8601('2021-02-24T19:45:37.836390+00:00')
2021-02-24 16:45:41,847 INFO  37549 /home/david/.virtualenvs/eryocollector/lib/python3.8/site-packages/basic_logtools/filelog.py filelog.py filelog save Inicial conteo de ronda r.iso8601('2021-02-24T19:45:39.840606+00:00')
2021-02-24 16:45:43,848 INFO  37549 /home/david/.virtualenvs/eryocollector/lib/python3.8/site-packages/basic_logtools/filelog.py filelog.py filelog save Inicial conteo de ronda r.iso8601('2021-02-24T19:45:41.849219+00:00')
2021-02-24 16:45:45,852 INFO  37549 /home/david/.virtualenvs/eryocollector/lib/python3.8/site-packages/basic_logtools/filelog.py filelog.py filelog save Inicial conteo de ronda r.iso8601('2021-02-24T19:45:43.849483+00:00')
2021-02-24 16:45:47,856 INFO  37549 /home/david/.virtualenvs/eryocollector/lib/python3.8/site-packages/basic_logtools/filelog.py filelog.py filelog save Inicial conteo de ronda r.iso8601('2021-02-24T19:45:45.853211+00:00')
2021-02-24 16:45:49,860 INFO  37549 /home/david/.virtualenvs/eryocollector/lib/python3.8/site-packages/basic_logtools/filelog.py filelog.py filelog save Inicial conteo de ronda r.iso8601('2021-02-24T19:45:47.857741+00:00')
2021-02-24 16:45:51,864 INFO  37549 /home/david/.virtualenvs/eryocollector/lib/python3.8/site-packages/basic_logtools/filelog.py filelog.py filelog save Inicial conteo de ronda r.iso8601('2021-02-24T19:45:49.861817+00:00')
2021-02-24 16:45:53,868 INFO  37549 /home/david/.virtualenvs/eryocollector/lib/python3.8/site-packages/basic_logtools/filelog.py filelog.py filelog save Inicial conteo de ronda r.iso8601('2021-02-24T19:45:51.865280+00:00')
2021-02-24 16:45:55,879 INFO  37549 /home/david/.virtualenvs/eryocollector/lib/python3.8/site-packages/basic_logtools/filelog.py filelog.py filelog save Inicial conteo de ronda r.iso8601('2021-02-24T19:45:53.869842+00:00')
