2021-02-23 19:23:11,066 INFO  75046 /home/david/.virtualenvs/eryocollector/lib/python3.8/site-packages/basic_logtools/filelog.py filelog.py filelog save Inicial conteo de ronda r.iso8601('2021-02-23T22:23:11.058279+00:00')
2021-02-23 19:23:11,067 INFO  75046 /home/david/.virtualenvs/eryocollector/lib/python3.8/site-packages/basic_logtools/filelog.py filelog.py filelog save Inicial conteo de ronda r.iso8601('2021-02-23T22:23:11.058577+00:00')
2021-02-23 19:23:11,068 INFO  75046 /home/david/.virtualenvs/eryocollector/lib/python3.8/site-packages/basic_logtools/filelog.py filelog.py filelog save Inicial conteo de ronda r.iso8601('2021-02-23T22:23:11.059709+00:00')
2021-02-23 19:23:11,068 INFO  75046 /home/david/.virtualenvs/eryocollector/lib/python3.8/site-packages/basic_logtools/filelog.py filelog.py filelog save Inicial conteo de ronda r.iso8601('2021-02-23T22:23:11.059136+00:00')
2021-02-23 19:23:11,439 INFO  75046 /home/david/.virtualenvs/eryocollector/lib/python3.8/site-packages/basic_logtools/filelog.py filelog.py filelog save Inicial conteo de ronda r.iso8601('2021-02-23T22:23:11.436926+00:00')
2021-02-23 19:23:11,439 INFO  75046 /home/david/.virtualenvs/eryocollector/lib/python3.8/site-packages/basic_logtools/filelog.py filelog.py filelog save Inicial conteo de ronda r.iso8601('2021-02-23T22:23:11.436336+00:00')
2021-02-23 19:23:11,470 INFO  75046 /home/david/.virtualenvs/eryocollector/lib/python3.8/site-packages/basic_logtools/filelog.py filelog.py filelog save Inicial conteo de ronda r.iso8601('2021-02-23T22:23:11.466796+00:00')
2021-02-23 19:23:11,471 INFO  75046 /home/david/.virtualenvs/eryocollector/lib/python3.8/site-packages/basic_logtools/filelog.py filelog.py filelog save Inicial conteo de ronda r.iso8601('2021-02-23T22:23:11.467273+00:00')
2021-02-23 19:23:11,471 INFO  75046 /home/david/.virtualenvs/eryocollector/lib/python3.8/site-packages/basic_logtools/filelog.py filelog.py filelog save Inicial conteo de ronda r.iso8601('2021-02-23T22:23:11.467532+00:00')
2021-02-23 19:23:11,471 INFO  75046 /home/david/.virtualenvs/eryocollector/lib/python3.8/site-packages/basic_logtools/filelog.py filelog.py filelog save Inicial conteo de ronda r.iso8601('2021-02-23T22:23:11.468164+00:00')
2021-02-23 19:23:11,936 INFO  75046 /home/david/.virtualenvs/eryocollector/lib/python3.8/site-packages/basic_logtools/filelog.py filelog.py filelog save Inicial conteo de ronda r.iso8601('2021-02-23T22:23:11.929527+00:00')
2021-02-23 19:23:11,937 INFO  75046 /home/david/.virtualenvs/eryocollector/lib/python3.8/site-packages/basic_logtools/filelog.py filelog.py filelog save Inicial conteo de ronda r.iso8601('2021-02-23T22:23:11.929872+00:00')
2021-02-23 19:23:11,937 INFO  75046 /home/david/.virtualenvs/eryocollector/lib/python3.8/site-packages/basic_logtools/filelog.py filelog.py filelog save Inicial conteo de ronda r.iso8601('2021-02-23T22:23:11.930405+00:00')
2021-02-23 19:23:11,937 INFO  75046 /home/david/.virtualenvs/eryocollector/lib/python3.8/site-packages/basic_logtools/filelog.py filelog.py filelog save Inicial conteo de ronda r.iso8601('2021-02-23T22:23:11.931324+00:00')
2021-02-23 19:23:11,940 INFO  75046 /home/david/.virtualenvs/eryocollector/lib/python3.8/site-packages/basic_logtools/filelog.py filelog.py filelog save Inicial conteo de ronda r.iso8601('2021-02-23T22:23:11.931632+00:00')
2021-02-23 19:23:11,941 INFO  75046 /home/david/.virtualenvs/eryocollector/lib/python3.8/site-packages/basic_logtools/filelog.py filelog.py filelog save Inicial conteo de ronda r.iso8601('2021-02-23T22:23:11.932124+00:00')
2021-02-23 19:23:11,941 INFO  75046 /home/david/.virtualenvs/eryocollector/lib/python3.8/site-packages/basic_logtools/filelog.py filelog.py filelog save Inicial conteo de ronda r.iso8601('2021-02-23T22:23:11.932786+00:00')
2021-02-23 19:23:11,941 INFO  75046 /home/david/.virtualenvs/eryocollector/lib/python3.8/site-packages/basic_logtools/filelog.py filelog.py filelog save Inicial conteo de ronda r.iso8601('2021-02-23T22:23:11.933334+00:00')
2021-02-23 19:23:11,943 INFO  75046 /home/david/.virtualenvs/eryocollector/lib/python3.8/site-packages/basic_logtools/filelog.py filelog.py filelog save Inicial conteo de ronda r.iso8601('2021-02-23T22:23:11.935273+00:00')
2021-02-23 19:23:11,944 INFO  75046 /home/david/.virtualenvs/eryocollector/lib/python3.8/site-packages/basic_logtools/filelog.py filelog.py filelog save Inicial conteo de ronda r.iso8601('2021-02-23T22:23:11.935833+00:00')
2021-02-23 19:23:11,973 INFO  75046 /home/david/.virtualenvs/eryocollector/lib/python3.8/site-packages/basic_logtools/filelog.py filelog.py filelog save Inicial conteo de ronda r.iso8601('2021-02-23T22:23:11.967527+00:00')
2021-02-23 19:23:11,974 INFO  75046 /home/david/.virtualenvs/eryocollector/lib/python3.8/site-packages/basic_logtools/filelog.py filelog.py filelog save Inicial conteo de ronda r.iso8601('2021-02-23T22:23:11.968099+00:00')
2021-02-23 19:23:11,975 INFO  75046 /home/david/.virtualenvs/eryocollector/lib/python3.8/site-packages/basic_logtools/filelog.py filelog.py filelog save Inicial conteo de ronda r.iso8601('2021-02-23T22:23:11.968574+00:00')
2021-02-23 19:23:11,975 INFO  75046 /home/david/.virtualenvs/eryocollector/lib/python3.8/site-packages/basic_logtools/filelog.py filelog.py filelog save Inicial conteo de ronda r.iso8601('2021-02-23T22:23:11.968852+00:00')
2021-02-23 19:23:11,979 INFO  75046 /home/david/.virtualenvs/eryocollector/lib/python3.8/site-packages/basic_logtools/filelog.py filelog.py filelog save Inicial conteo de ronda r.iso8601('2021-02-23T22:23:11.969531+00:00')
2021-02-23 19:23:11,980 INFO  75046 /home/david/.virtualenvs/eryocollector/lib/python3.8/site-packages/basic_logtools/filelog.py filelog.py filelog save Inicial conteo de ronda r.iso8601('2021-02-23T22:23:11.969989+00:00')
2021-02-23 19:23:11,980 INFO  75046 /home/david/.virtualenvs/eryocollector/lib/python3.8/site-packages/basic_logtools/filelog.py filelog.py filelog save Inicial conteo de ronda r.iso8601('2021-02-23T22:23:11.970539+00:00')
2021-02-23 19:23:11,981 INFO  75046 /home/david/.virtualenvs/eryocollector/lib/python3.8/site-packages/basic_logtools/filelog.py filelog.py filelog save Inicial conteo de ronda r.iso8601('2021-02-23T22:23:11.971266+00:00')
2021-02-23 19:23:11,983 INFO  75046 /home/david/.virtualenvs/eryocollector/lib/python3.8/site-packages/basic_logtools/filelog.py filelog.py filelog save Inicial conteo de ronda r.iso8601('2021-02-23T22:23:11.971908+00:00')
2021-02-23 19:23:11,983 INFO  75046 /home/david/.virtualenvs/eryocollector/lib/python3.8/site-packages/basic_logtools/filelog.py filelog.py filelog save Inicial conteo de ronda r.iso8601('2021-02-23T22:23:11.972481+00:00')
2021-02-23 19:23:11,984 INFO  75046 /home/david/.virtualenvs/eryocollector/lib/python3.8/site-packages/basic_logtools/filelog.py filelog.py filelog save Inicial conteo de ronda r.iso8601('2021-02-23T22:23:11.973054+00:00')
2021-02-23 19:23:11,984 INFO  75046 /home/david/.virtualenvs/eryocollector/lib/python3.8/site-packages/basic_logtools/filelog.py filelog.py filelog save Inicial conteo de ronda r.iso8601('2021-02-23T22:23:11.973662+00:00')
2021-02-23 19:23:11,985 INFO  75046 /home/david/.virtualenvs/eryocollector/lib/python3.8/site-packages/basic_logtools/filelog.py filelog.py filelog save Inicial conteo de ronda r.iso8601('2021-02-23T22:23:11.974285+00:00')
2021-02-23 19:23:12,328 INFO  75046 /home/david/.virtualenvs/eryocollector/lib/python3.8/site-packages/basic_logtools/filelog.py filelog.py filelog save Inicial conteo de ronda r.iso8601('2021-02-23T22:23:12.323737+00:00')
2021-02-23 19:23:12,329 INFO  75046 /home/david/.virtualenvs/eryocollector/lib/python3.8/site-packages/basic_logtools/filelog.py filelog.py filelog save Inicial conteo de ronda r.iso8601('2021-02-23T22:23:12.324061+00:00')
2021-02-23 19:23:12,330 INFO  75046 /home/david/.virtualenvs/eryocollector/lib/python3.8/site-packages/basic_logtools/filelog.py filelog.py filelog save Inicial conteo de ronda r.iso8601('2021-02-23T22:23:12.324786+00:00')
2021-02-23 19:23:12,330 INFO  75046 /home/david/.virtualenvs/eryocollector/lib/python3.8/site-packages/basic_logtools/filelog.py filelog.py filelog save Inicial conteo de ronda r.iso8601('2021-02-23T22:23:12.325326+00:00')
2021-02-23 19:23:12,333 INFO  75046 /home/david/.virtualenvs/eryocollector/lib/python3.8/site-packages/basic_logtools/filelog.py filelog.py filelog save Inicial conteo de ronda r.iso8601('2021-02-23T22:23:12.325832+00:00')
2021-02-23 19:23:12,334 INFO  75046 /home/david/.virtualenvs/eryocollector/lib/python3.8/site-packages/basic_logtools/filelog.py filelog.py filelog save Inicial conteo de ronda r.iso8601('2021-02-23T22:23:12.326505+00:00')
2021-02-23 19:23:12,335 INFO  75046 /home/david/.virtualenvs/eryocollector/lib/python3.8/site-packages/basic_logtools/filelog.py filelog.py filelog save Inicial conteo de ronda r.iso8601('2021-02-23T22:23:12.327082+00:00')
2021-02-23 19:23:12,366 INFO  75046 /home/david/.virtualenvs/eryocollector/lib/python3.8/site-packages/basic_logtools/filelog.py filelog.py filelog save Inicial conteo de ronda r.iso8601('2021-02-23T22:23:12.363387+00:00')
2021-02-23 19:23:12,366 INFO  75046 /home/david/.virtualenvs/eryocollector/lib/python3.8/site-packages/basic_logtools/filelog.py filelog.py filelog save Inicial conteo de ronda r.iso8601('2021-02-23T22:23:12.363654+00:00')
2021-02-23 19:23:12,639 INFO  75046 /home/david/.virtualenvs/eryocollector/lib/python3.8/site-packages/basic_logtools/filelog.py filelog.py filelog save Inicial conteo de ronda r.iso8601('2021-02-23T22:23:12.635520+00:00')
2021-02-23 19:23:12,639 INFO  75046 /home/david/.virtualenvs/eryocollector/lib/python3.8/site-packages/basic_logtools/filelog.py filelog.py filelog save Inicial conteo de ronda r.iso8601('2021-02-23T22:23:12.636092+00:00')
2021-02-23 19:23:12,708 INFO  75046 /home/david/.virtualenvs/eryocollector/lib/python3.8/site-packages/basic_logtools/filelog.py filelog.py filelog save Inicial conteo de ronda r.iso8601('2021-02-23T22:23:12.701109+00:00')
