2021-03-09 09:48:39,424 INFO  80937 /home/david/.virtualenvs/eryocollector/lib/python3.8/site-packages/basic_logtools/filelog.py filelog.py filelog save Inicial conteo de ronda r.iso8601('2021-03-09T12:48:37.893274+00:00')
2021-03-09 09:48:39,426 INFO  80937 /home/david/.virtualenvs/eryocollector/lib/python3.8/site-packages/basic_logtools/filelog.py filelog.py filelog save Inicial conteo de ronda r.iso8601('2021-03-09T12:48:37.206655+00:00')
2021-03-09 09:48:39,429 INFO  80937 /home/david/.virtualenvs/eryocollector/lib/python3.8/site-packages/basic_logtools/filelog.py filelog.py filelog save Inicial conteo de ronda r.iso8601('2021-03-09T12:48:37.583216+00:00')
2021-03-09 09:48:39,431 INFO  80937 /home/david/.virtualenvs/eryocollector/lib/python3.8/site-packages/basic_logtools/filelog.py filelog.py filelog save Inicial conteo de ronda r.iso8601('2021-03-09T12:48:37.916776+00:00')
2021-03-09 09:48:39,432 INFO  80937 /home/david/.virtualenvs/eryocollector/lib/python3.8/site-packages/basic_logtools/filelog.py filelog.py filelog save Inicial conteo de ronda r.iso8601('2021-03-09T12:48:37.927792+00:00')
2021-03-09 09:48:39,434 INFO  80937 /home/david/.virtualenvs/eryocollector/lib/python3.8/site-packages/basic_logtools/filelog.py filelog.py filelog save Inicial conteo de ronda r.iso8601('2021-03-09T12:48:37.938266+00:00')
2021-03-09 09:48:39,437 INFO  80937 /home/david/.virtualenvs/eryocollector/lib/python3.8/site-packages/basic_logtools/filelog.py filelog.py filelog save Inicial conteo de ronda r.iso8601('2021-03-09T12:48:37.948859+00:00')
2021-03-09 09:48:39,437 INFO  80937 /home/david/.virtualenvs/eryocollector/lib/python3.8/site-packages/basic_logtools/filelog.py filelog.py filelog save Inicial conteo de ronda r.iso8601('2021-03-09T12:48:37.623809+00:00')
2021-03-09 09:48:39,439 INFO  80937 /home/david/.virtualenvs/eryocollector/lib/python3.8/site-packages/basic_logtools/filelog.py filelog.py filelog save Inicial conteo de ronda r.iso8601('2021-03-09T12:48:37.613861+00:00')
2021-03-09 09:48:39,440 INFO  80937 /home/david/.virtualenvs/eryocollector/lib/python3.8/site-packages/basic_logtools/filelog.py filelog.py filelog save Inicial conteo de ronda r.iso8601('2021-03-09T12:48:37.959604+00:00')
2021-03-09 09:48:39,442 INFO  80937 /home/david/.virtualenvs/eryocollector/lib/python3.8/site-packages/basic_logtools/filelog.py filelog.py filelog save Inicial conteo de ronda r.iso8601('2021-03-09T12:48:37.899187+00:00')
2021-03-09 09:48:39,442 INFO  80937 /home/david/.virtualenvs/eryocollector/lib/python3.8/site-packages/basic_logtools/filelog.py filelog.py filelog save Inicial conteo de ronda r.iso8601('2021-03-09T12:48:37.970551+00:00')
2021-03-09 09:48:39,443 INFO  80937 /home/david/.virtualenvs/eryocollector/lib/python3.8/site-packages/basic_logtools/filelog.py filelog.py filelog save Inicial conteo de ronda r.iso8601('2021-03-09T12:48:37.867547+00:00')
2021-03-09 09:48:39,443 INFO  80937 /home/david/.virtualenvs/eryocollector/lib/python3.8/site-packages/basic_logtools/filelog.py filelog.py filelog save Inicial conteo de ronda r.iso8601('2021-03-09T12:48:38.271881+00:00')
2021-03-09 09:48:39,446 INFO  80937 /home/david/.virtualenvs/eryocollector/lib/python3.8/site-packages/basic_logtools/filelog.py filelog.py filelog save Inicial conteo de ronda r.iso8601('2021-03-09T12:48:37.910880+00:00')
2021-03-09 09:48:39,447 INFO  80937 /home/david/.virtualenvs/eryocollector/lib/python3.8/site-packages/basic_logtools/filelog.py filelog.py filelog save Inicial conteo de ronda r.iso8601('2021-03-09T12:48:38.303831+00:00')
2021-03-09 09:48:39,447 INFO  80937 /home/david/.virtualenvs/eryocollector/lib/python3.8/site-packages/basic_logtools/filelog.py filelog.py filelog save Inicial conteo de ronda r.iso8601('2021-03-09T12:48:37.922456+00:00')
2021-03-09 09:48:39,447 INFO  80937 /home/david/.virtualenvs/eryocollector/lib/python3.8/site-packages/basic_logtools/filelog.py filelog.py filelog save Inicial conteo de ronda r.iso8601('2021-03-09T12:48:38.347885+00:00')
2021-03-09 09:48:39,451 INFO  80937 /home/david/.virtualenvs/eryocollector/lib/python3.8/site-packages/basic_logtools/filelog.py filelog.py filelog save Inicial conteo de ronda r.iso8601('2021-03-09T12:48:37.933042+00:00')
2021-03-09 09:48:39,452 INFO  80937 /home/david/.virtualenvs/eryocollector/lib/python3.8/site-packages/basic_logtools/filelog.py filelog.py filelog save Inicial conteo de ronda r.iso8601('2021-03-09T12:48:38.364809+00:00')
2021-03-09 09:48:39,453 INFO  80937 /home/david/.virtualenvs/eryocollector/lib/python3.8/site-packages/basic_logtools/filelog.py filelog.py filelog save Inicial conteo de ronda r.iso8601('2021-03-09T12:48:37.943547+00:00')
2021-03-09 09:48:39,453 INFO  80937 /home/david/.virtualenvs/eryocollector/lib/python3.8/site-packages/basic_logtools/filelog.py filelog.py filelog save Inicial conteo de ronda r.iso8601('2021-03-09T12:48:38.377280+00:00')
2021-03-09 09:48:39,456 INFO  80937 /home/david/.virtualenvs/eryocollector/lib/python3.8/site-packages/basic_logtools/filelog.py filelog.py filelog save Inicial conteo de ronda r.iso8601('2021-03-09T12:48:37.965062+00:00')
2021-03-09 09:48:39,457 INFO  80937 /home/david/.virtualenvs/eryocollector/lib/python3.8/site-packages/basic_logtools/filelog.py filelog.py filelog save Inicial conteo de ronda r.iso8601('2021-03-09T12:48:38.388877+00:00')
2021-03-09 09:48:39,458 INFO  80937 /home/david/.virtualenvs/eryocollector/lib/python3.8/site-packages/basic_logtools/filelog.py filelog.py filelog save Inicial conteo de ronda r.iso8601('2021-03-09T12:48:37.976092+00:00')
2021-03-09 09:48:39,460 INFO  80937 /home/david/.virtualenvs/eryocollector/lib/python3.8/site-packages/basic_logtools/filelog.py filelog.py filelog save Inicial conteo de ronda r.iso8601('2021-03-09T12:48:38.279116+00:00')
2021-03-09 09:48:39,461 INFO  80937 /home/david/.virtualenvs/eryocollector/lib/python3.8/site-packages/basic_logtools/filelog.py filelog.py filelog save Inicial conteo de ronda r.iso8601('2021-03-09T12:48:38.412700+00:00')
2021-03-09 09:48:39,463 INFO  80937 /home/david/.virtualenvs/eryocollector/lib/python3.8/site-packages/basic_logtools/filelog.py filelog.py filelog save Inicial conteo de ronda r.iso8601('2021-03-09T12:48:38.357235+00:00')
2021-03-09 09:48:39,467 INFO  80937 /home/david/.virtualenvs/eryocollector/lib/python3.8/site-packages/basic_logtools/filelog.py filelog.py filelog save Inicial conteo de ronda r.iso8601('2021-03-09T12:48:38.371319+00:00')
2021-03-09 09:48:39,470 INFO  80937 /home/david/.virtualenvs/eryocollector/lib/python3.8/site-packages/basic_logtools/filelog.py filelog.py filelog save Inicial conteo de ronda r.iso8601('2021-03-09T12:48:38.936324+00:00')
2021-03-09 09:48:39,475 INFO  80937 /home/david/.virtualenvs/eryocollector/lib/python3.8/site-packages/basic_logtools/filelog.py filelog.py filelog save Inicial conteo de ronda r.iso8601('2021-03-09T12:48:38.420158+00:00')
2021-03-09 09:48:39,476 INFO  80937 /home/david/.virtualenvs/eryocollector/lib/python3.8/site-packages/basic_logtools/filelog.py filelog.py filelog save Inicial conteo de ronda r.iso8601('2021-03-09T12:48:39.028852+00:00')
2021-03-09 09:48:39,480 INFO  80937 /home/david/.virtualenvs/eryocollector/lib/python3.8/site-packages/basic_logtools/filelog.py filelog.py filelog save Inicial conteo de ronda r.iso8601('2021-03-09T12:48:38.887653+00:00')
2021-03-09 09:48:39,481 INFO  80937 /home/david/.virtualenvs/eryocollector/lib/python3.8/site-packages/basic_logtools/filelog.py filelog.py filelog save Inicial conteo de ronda r.iso8601('2021-03-09T12:48:39.056639+00:00')
2021-03-09 09:48:39,483 INFO  80937 /home/david/.virtualenvs/eryocollector/lib/python3.8/site-packages/basic_logtools/filelog.py filelog.py filelog save Inicial conteo de ronda r.iso8601('2021-03-09T12:48:39.070447+00:00')
2021-03-09 09:48:39,489 INFO  80937 /home/david/.virtualenvs/eryocollector/lib/python3.8/site-packages/basic_logtools/filelog.py filelog.py filelog save Inicial conteo de ronda r.iso8601('2021-03-09T12:48:39.022112+00:00')
2021-03-09 09:48:39,489 INFO  80937 /home/david/.virtualenvs/eryocollector/lib/python3.8/site-packages/basic_logtools/filelog.py filelog.py filelog save Inicial conteo de ronda r.iso8601('2021-03-09T12:48:39.036069+00:00')
2021-03-09 09:48:39,492 INFO  80937 /home/david/.virtualenvs/eryocollector/lib/python3.8/site-packages/basic_logtools/filelog.py filelog.py filelog save Inicial conteo de ronda r.iso8601('2021-03-09T12:48:39.049763+00:00')
2021-03-09 09:48:39,492 INFO  80937 /home/david/.virtualenvs/eryocollector/lib/python3.8/site-packages/basic_logtools/filelog.py filelog.py filelog save Inicial conteo de ronda r.iso8601('2021-03-09T12:48:39.063499+00:00')
2021-03-09 09:48:39,495 INFO  80937 /home/david/.virtualenvs/eryocollector/lib/python3.8/site-packages/basic_logtools/filelog.py filelog.py filelog save Inicial conteo de ronda r.iso8601('2021-03-09T12:48:39.077365+00:00')
2021-03-09 09:48:39,497 INFO  80937 /home/david/.virtualenvs/eryocollector/lib/python3.8/site-packages/basic_logtools/filelog.py filelog.py filelog save Inicial conteo de ronda r.iso8601('2021-03-09T12:48:39.105899+00:00')
2021-03-09 09:48:44,509 INFO  80937 /home/david/.virtualenvs/eryocollector/lib/python3.8/site-packages/basic_logtools/filelog.py filelog.py filelog save Inicial conteo de ronda r.iso8601('2021-03-09T12:48:39.710368+00:00')
2021-03-09 09:48:44,512 INFO  80937 /home/david/.virtualenvs/eryocollector/lib/python3.8/site-packages/basic_logtools/filelog.py filelog.py filelog save Inicial conteo de ronda r.iso8601('2021-03-09T12:48:39.708131+00:00')
2021-03-09 09:48:44,512 INFO  80937 /home/david/.virtualenvs/eryocollector/lib/python3.8/site-packages/basic_logtools/filelog.py filelog.py filelog save Inicial conteo de ronda r.iso8601('2021-03-09T12:48:39.709304+00:00')
2021-03-09 09:48:44,513 INFO  80937 /home/david/.virtualenvs/eryocollector/lib/python3.8/site-packages/basic_logtools/filelog.py filelog.py filelog save Inicial conteo de ronda r.iso8601('2021-03-09T12:48:39.711657+00:00')
