2021-03-09 09:50:26,710 INFO  80967 /home/david/.virtualenvs/eryocollector/lib/python3.8/site-packages/basic_logtools/filelog.py filelog.py filelog save Inicial conteo de ronda r.iso8601('2021-03-09T12:50:25.752778+00:00')
2021-03-09 09:50:26,716 INFO  80967 /home/david/.virtualenvs/eryocollector/lib/python3.8/site-packages/basic_logtools/filelog.py filelog.py filelog save Inicial conteo de ronda r.iso8601('2021-03-09T12:50:25.753774+00:00')
2021-03-09 09:50:26,716 INFO  80967 /home/david/.virtualenvs/eryocollector/lib/python3.8/site-packages/basic_logtools/filelog.py filelog.py filelog save Inicial conteo de ronda r.iso8601('2021-03-09T12:50:25.753235+00:00')
2021-03-09 09:50:26,716 INFO  80967 /home/david/.virtualenvs/eryocollector/lib/python3.8/site-packages/basic_logtools/filelog.py filelog.py filelog save Inicial conteo de ronda r.iso8601('2021-03-09T12:50:25.752274+00:00')
2021-03-09 09:50:26,720 INFO  80967 /home/david/.virtualenvs/eryocollector/lib/python3.8/site-packages/basic_logtools/filelog.py filelog.py filelog save Inicial conteo de ronda r.iso8601('2021-03-09T12:50:25.755140+00:00')
2021-03-09 09:50:26,721 INFO  80967 /home/david/.virtualenvs/eryocollector/lib/python3.8/site-packages/basic_logtools/filelog.py filelog.py filelog save Inicial conteo de ronda r.iso8601('2021-03-09T12:50:25.754400+00:00')
2021-03-09 09:50:26,721 INFO  80967 /home/david/.virtualenvs/eryocollector/lib/python3.8/site-packages/basic_logtools/filelog.py filelog.py filelog save Inicial conteo de ronda r.iso8601('2021-03-09T12:50:25.756048+00:00')
2021-03-09 09:50:26,721 INFO  80967 /home/david/.virtualenvs/eryocollector/lib/python3.8/site-packages/basic_logtools/filelog.py filelog.py filelog save Inicial conteo de ronda r.iso8601('2021-03-09T12:50:25.757099+00:00')
2021-03-09 09:50:26,724 INFO  80967 /home/david/.virtualenvs/eryocollector/lib/python3.8/site-packages/basic_logtools/filelog.py filelog.py filelog save Inicial conteo de ronda r.iso8601('2021-03-09T12:50:25.785120+00:00')
2021-03-09 09:50:26,725 INFO  80967 /home/david/.virtualenvs/eryocollector/lib/python3.8/site-packages/basic_logtools/filelog.py filelog.py filelog save Inicial conteo de ronda r.iso8601('2021-03-09T12:50:25.791210+00:00')
2021-03-09 09:50:26,726 INFO  80967 /home/david/.virtualenvs/eryocollector/lib/python3.8/site-packages/basic_logtools/filelog.py filelog.py filelog save Inicial conteo de ronda r.iso8601('2021-03-09T12:50:25.758241+00:00')
2021-03-09 09:50:26,726 INFO  80967 /home/david/.virtualenvs/eryocollector/lib/python3.8/site-packages/basic_logtools/filelog.py filelog.py filelog save Inicial conteo de ronda r.iso8601('2021-03-09T12:50:25.788217+00:00')
2021-03-09 09:50:26,730 INFO  80967 /home/david/.virtualenvs/eryocollector/lib/python3.8/site-packages/basic_logtools/filelog.py filelog.py filelog save Inicial conteo de ronda r.iso8601('2021-03-09T12:50:25.796039+00:00')
2021-03-09 09:50:26,731 INFO  80967 /home/david/.virtualenvs/eryocollector/lib/python3.8/site-packages/basic_logtools/filelog.py filelog.py filelog save Inicial conteo de ronda r.iso8601('2021-03-09T12:50:25.797900+00:00')
2021-03-09 09:50:26,731 INFO  80967 /home/david/.virtualenvs/eryocollector/lib/python3.8/site-packages/basic_logtools/filelog.py filelog.py filelog save Inicial conteo de ronda r.iso8601('2021-03-09T12:50:25.794386+00:00')
2021-03-09 09:50:26,732 INFO  80967 /home/david/.virtualenvs/eryocollector/lib/python3.8/site-packages/basic_logtools/filelog.py filelog.py filelog save Inicial conteo de ronda r.iso8601('2021-03-09T12:50:25.797108+00:00')
2021-03-09 09:50:26,734 INFO  80967 /home/david/.virtualenvs/eryocollector/lib/python3.8/site-packages/basic_logtools/filelog.py filelog.py filelog save Inicial conteo de ronda r.iso8601('2021-03-09T12:50:26.167020+00:00')
2021-03-09 09:50:26,734 INFO  80967 /home/david/.virtualenvs/eryocollector/lib/python3.8/site-packages/basic_logtools/filelog.py filelog.py filelog save Inicial conteo de ronda r.iso8601('2021-03-09T12:50:25.798908+00:00')
2021-03-09 09:50:26,735 INFO  80967 /home/david/.virtualenvs/eryocollector/lib/python3.8/site-packages/basic_logtools/filelog.py filelog.py filelog save Inicial conteo de ronda r.iso8601('2021-03-09T12:50:26.161750+00:00')
2021-03-09 09:50:26,736 INFO  80967 /home/david/.virtualenvs/eryocollector/lib/python3.8/site-packages/basic_logtools/filelog.py filelog.py filelog save Inicial conteo de ronda r.iso8601('2021-03-09T12:50:26.164645+00:00')
2021-03-09 09:50:26,738 INFO  80967 /home/david/.virtualenvs/eryocollector/lib/python3.8/site-packages/basic_logtools/filelog.py filelog.py filelog save Inicial conteo de ronda r.iso8601('2021-03-09T12:50:26.170683+00:00')
2021-03-09 09:50:26,739 INFO  80967 /home/david/.virtualenvs/eryocollector/lib/python3.8/site-packages/basic_logtools/filelog.py filelog.py filelog save Inicial conteo de ronda r.iso8601('2021-03-09T12:50:26.168764+00:00')
2021-03-09 09:50:26,740 INFO  80967 /home/david/.virtualenvs/eryocollector/lib/python3.8/site-packages/basic_logtools/filelog.py filelog.py filelog save Inicial conteo de ronda r.iso8601('2021-03-09T12:50:26.167879+00:00')
2021-03-09 09:50:26,740 INFO  80967 /home/david/.virtualenvs/eryocollector/lib/python3.8/site-packages/basic_logtools/filelog.py filelog.py filelog save Inicial conteo de ronda r.iso8601('2021-03-09T12:50:26.169687+00:00')
2021-03-09 09:50:26,742 INFO  80967 /home/david/.virtualenvs/eryocollector/lib/python3.8/site-packages/basic_logtools/filelog.py filelog.py filelog save Inicial conteo de ronda r.iso8601('2021-03-09T12:50:26.196322+00:00')
2021-03-09 09:50:26,743 INFO  80967 /home/david/.virtualenvs/eryocollector/lib/python3.8/site-packages/basic_logtools/filelog.py filelog.py filelog save Inicial conteo de ronda r.iso8601('2021-03-09T12:50:26.172675+00:00')
2021-03-09 09:50:26,746 INFO  80967 /home/david/.virtualenvs/eryocollector/lib/python3.8/site-packages/basic_logtools/filelog.py filelog.py filelog save Inicial conteo de ronda r.iso8601('2021-03-09T12:50:26.171661+00:00')
2021-03-09 09:50:26,746 INFO  80967 /home/david/.virtualenvs/eryocollector/lib/python3.8/site-packages/basic_logtools/filelog.py filelog.py filelog save Inicial conteo de ronda r.iso8601('2021-03-09T12:50:26.194688+00:00')
2021-03-09 09:50:26,747 INFO  80967 /home/david/.virtualenvs/eryocollector/lib/python3.8/site-packages/basic_logtools/filelog.py filelog.py filelog save Inicial conteo de ronda r.iso8601('2021-03-09T12:50:26.472870+00:00')
2021-03-09 09:50:26,749 INFO  80967 /home/david/.virtualenvs/eryocollector/lib/python3.8/site-packages/basic_logtools/filelog.py filelog.py filelog save Inicial conteo de ronda r.iso8601('2021-03-09T12:50:26.469063+00:00')
2021-03-09 09:50:26,750 INFO  80967 /home/david/.virtualenvs/eryocollector/lib/python3.8/site-packages/basic_logtools/filelog.py filelog.py filelog save Inicial conteo de ronda r.iso8601('2021-03-09T12:50:26.197844+00:00')
2021-03-09 09:50:26,750 INFO  80967 /home/david/.virtualenvs/eryocollector/lib/python3.8/site-packages/basic_logtools/filelog.py filelog.py filelog save Inicial conteo de ronda r.iso8601('2021-03-09T12:50:26.470998+00:00')
2021-03-09 09:50:26,751 INFO  80967 /home/david/.virtualenvs/eryocollector/lib/python3.8/site-packages/basic_logtools/filelog.py filelog.py filelog save Inicial conteo de ronda r.iso8601('2021-03-09T12:50:26.480475+00:00')
2021-03-09 09:50:26,753 INFO  80967 /home/david/.virtualenvs/eryocollector/lib/python3.8/site-packages/basic_logtools/filelog.py filelog.py filelog save Inicial conteo de ronda r.iso8601('2021-03-09T12:50:26.476724+00:00')
2021-03-09 09:50:26,754 INFO  80967 /home/david/.virtualenvs/eryocollector/lib/python3.8/site-packages/basic_logtools/filelog.py filelog.py filelog save Inicial conteo de ronda r.iso8601('2021-03-09T12:50:26.478582+00:00')
2021-03-09 09:50:26,754 INFO  80967 /home/david/.virtualenvs/eryocollector/lib/python3.8/site-packages/basic_logtools/filelog.py filelog.py filelog save Inicial conteo de ronda r.iso8601('2021-03-09T12:50:26.474770+00:00')
2021-03-09 09:50:26,755 INFO  80967 /home/david/.virtualenvs/eryocollector/lib/python3.8/site-packages/basic_logtools/filelog.py filelog.py filelog save Inicial conteo de ronda r.iso8601('2021-03-09T12:50:26.520160+00:00')
2021-03-09 09:50:26,756 INFO  80967 /home/david/.virtualenvs/eryocollector/lib/python3.8/site-packages/basic_logtools/filelog.py filelog.py filelog save Inicial conteo de ronda r.iso8601('2021-03-09T12:50:26.516553+00:00')
2021-03-09 09:50:26,757 INFO  80967 /home/david/.virtualenvs/eryocollector/lib/python3.8/site-packages/basic_logtools/filelog.py filelog.py filelog save Inicial conteo de ronda r.iso8601('2021-03-09T12:50:26.518125+00:00')
2021-03-09 09:50:26,761 INFO  80967 /home/david/.virtualenvs/eryocollector/lib/python3.8/site-packages/basic_logtools/filelog.py filelog.py filelog save Inicial conteo de ronda r.iso8601('2021-03-09T12:50:26.521980+00:00')
2021-03-09 09:50:27,775 INFO  80967 /home/david/.virtualenvs/eryocollector/lib/python3.8/site-packages/basic_logtools/filelog.py filelog.py filelog save Inicial conteo de ronda r.iso8601('2021-03-09T12:50:26.882435+00:00')
2021-03-09 09:50:27,778 INFO  80967 /home/david/.virtualenvs/eryocollector/lib/python3.8/site-packages/basic_logtools/filelog.py filelog.py filelog save Inicial conteo de ronda r.iso8601('2021-03-09T12:50:26.882676+00:00')
2021-03-09 09:50:27,780 INFO  80967 /home/david/.virtualenvs/eryocollector/lib/python3.8/site-packages/basic_logtools/filelog.py filelog.py filelog save Inicial conteo de ronda r.iso8601('2021-03-09T12:50:26.927057+00:00')
2021-03-09 09:50:27,782 INFO  80967 /home/david/.virtualenvs/eryocollector/lib/python3.8/site-packages/basic_logtools/filelog.py filelog.py filelog save Inicial conteo de ronda r.iso8601('2021-03-09T12:50:26.926454+00:00')
2021-03-09 09:50:27,785 INFO  80967 /home/david/.virtualenvs/eryocollector/lib/python3.8/site-packages/basic_logtools/filelog.py filelog.py filelog save Inicial conteo de ronda r.iso8601('2021-03-09T12:50:26.927661+00:00')
