2021-03-09 09:50:24,609 INFO  80967 /home/david/.virtualenvs/eryocollector/lib/python3.8/site-packages/basic_logtools/filelog.py filelog.py filelog save Inicial conteo de ronda r.iso8601('2021-03-09T12:50:24.250357+00:00')
2021-03-09 09:50:24,610 INFO  80967 /home/david/.virtualenvs/eryocollector/lib/python3.8/site-packages/basic_logtools/filelog.py filelog.py filelog save Inicial conteo de ronda r.iso8601('2021-03-09T12:50:24.256913+00:00')
2021-03-09 09:50:24,613 INFO  80967 /home/david/.virtualenvs/eryocollector/lib/python3.8/site-packages/basic_logtools/filelog.py filelog.py filelog save Inicial conteo de ronda r.iso8601('2021-03-09T12:50:24.563832+00:00')
2021-03-09 09:50:24,613 INFO  80967 /home/david/.virtualenvs/eryocollector/lib/python3.8/site-packages/basic_logtools/filelog.py filelog.py filelog save Inicial conteo de ronda r.iso8601('2021-03-09T12:50:24.561784+00:00')
2021-03-09 09:50:24,614 INFO  80967 /home/david/.virtualenvs/eryocollector/lib/python3.8/site-packages/basic_logtools/filelog.py filelog.py filelog save Inicial conteo de ronda r.iso8601('2021-03-09T12:50:24.255549+00:00')
2021-03-09 09:50:24,615 INFO  80967 /home/david/.virtualenvs/eryocollector/lib/python3.8/site-packages/basic_logtools/filelog.py filelog.py filelog save Inicial conteo de ronda r.iso8601('2021-03-09T12:50:24.558888+00:00')
2021-03-09 09:50:24,618 INFO  80967 /home/david/.virtualenvs/eryocollector/lib/python3.8/site-packages/basic_logtools/filelog.py filelog.py filelog save Inicial conteo de ronda r.iso8601('2021-03-09T12:50:24.574379+00:00')
2021-03-09 09:50:24,619 INFO  80967 /home/david/.virtualenvs/eryocollector/lib/python3.8/site-packages/basic_logtools/filelog.py filelog.py filelog save Inicial conteo de ronda r.iso8601('2021-03-09T12:50:24.571654+00:00')
2021-03-09 09:50:24,619 INFO  80967 /home/david/.virtualenvs/eryocollector/lib/python3.8/site-packages/basic_logtools/filelog.py filelog.py filelog save Inicial conteo de ronda r.iso8601('2021-03-09T12:50:24.555910+00:00')
2021-03-09 09:50:24,620 INFO  80967 /home/david/.virtualenvs/eryocollector/lib/python3.8/site-packages/basic_logtools/filelog.py filelog.py filelog save Inicial conteo de ronda r.iso8601('2021-03-09T12:50:24.569501+00:00')
2021-03-09 09:50:24,622 INFO  80967 /home/david/.virtualenvs/eryocollector/lib/python3.8/site-packages/basic_logtools/filelog.py filelog.py filelog save Inicial conteo de ronda r.iso8601('2021-03-09T12:50:24.566530+00:00')
2021-03-09 09:50:24,623 INFO  80967 /home/david/.virtualenvs/eryocollector/lib/python3.8/site-packages/basic_logtools/filelog.py filelog.py filelog save Inicial conteo de ronda r.iso8601('2021-03-09T12:50:24.584728+00:00')
2021-03-09 09:50:24,623 INFO  80967 /home/david/.virtualenvs/eryocollector/lib/python3.8/site-packages/basic_logtools/filelog.py filelog.py filelog save Inicial conteo de ronda r.iso8601('2021-03-09T12:50:24.581811+00:00')
2021-03-09 09:50:24,624 INFO  80967 /home/david/.virtualenvs/eryocollector/lib/python3.8/site-packages/basic_logtools/filelog.py filelog.py filelog save Inicial conteo de ronda r.iso8601('2021-03-09T12:50:24.579420+00:00')
2021-03-09 09:50:24,624 INFO  80967 /home/david/.virtualenvs/eryocollector/lib/python3.8/site-packages/basic_logtools/filelog.py filelog.py filelog save Inicial conteo de ronda r.iso8601('2021-03-09T12:50:24.577271+00:00')
2021-03-09 09:50:25,643 INFO  80967 /home/david/.virtualenvs/eryocollector/lib/python3.8/site-packages/basic_logtools/filelog.py filelog.py filelog save Inicial conteo de ronda r.iso8601('2021-03-09T12:50:25.038933+00:00')
2021-03-09 09:50:25,647 INFO  80967 /home/david/.virtualenvs/eryocollector/lib/python3.8/site-packages/basic_logtools/filelog.py filelog.py filelog save Inicial conteo de ronda r.iso8601('2021-03-09T12:50:25.035565+00:00')
2021-03-09 09:50:25,648 INFO  80967 /home/david/.virtualenvs/eryocollector/lib/python3.8/site-packages/basic_logtools/filelog.py filelog.py filelog save Inicial conteo de ronda r.iso8601('2021-03-09T12:50:25.036613+00:00')
2021-03-09 09:50:25,651 INFO  80967 /home/david/.virtualenvs/eryocollector/lib/python3.8/site-packages/basic_logtools/filelog.py filelog.py filelog save Inicial conteo de ronda r.iso8601('2021-03-09T12:50:25.037652+00:00')
2021-03-09 09:50:25,655 INFO  80967 /home/david/.virtualenvs/eryocollector/lib/python3.8/site-packages/basic_logtools/filelog.py filelog.py filelog save Inicial conteo de ronda r.iso8601('2021-03-09T12:50:25.065028+00:00')
2021-03-09 09:50:25,656 INFO  80967 /home/david/.virtualenvs/eryocollector/lib/python3.8/site-packages/basic_logtools/filelog.py filelog.py filelog save Inicial conteo de ronda r.iso8601('2021-03-09T12:50:25.040775+00:00')
2021-03-09 09:50:25,656 INFO  80967 /home/david/.virtualenvs/eryocollector/lib/python3.8/site-packages/basic_logtools/filelog.py filelog.py filelog save Inicial conteo de ronda r.iso8601('2021-03-09T12:50:25.040367+00:00')
2021-03-09 09:50:25,658 INFO  80967 /home/david/.virtualenvs/eryocollector/lib/python3.8/site-packages/basic_logtools/filelog.py filelog.py filelog save Inicial conteo de ronda r.iso8601('2021-03-09T12:50:25.041114+00:00')
2021-03-09 09:50:25,659 INFO  80967 /home/david/.virtualenvs/eryocollector/lib/python3.8/site-packages/basic_logtools/filelog.py filelog.py filelog save Inicial conteo de ronda r.iso8601('2021-03-09T12:50:25.067993+00:00')
2021-03-09 09:50:25,660 INFO  80967 /home/david/.virtualenvs/eryocollector/lib/python3.8/site-packages/basic_logtools/filelog.py filelog.py filelog save Inicial conteo de ronda r.iso8601('2021-03-09T12:50:25.065787+00:00')
2021-03-09 09:50:25,661 INFO  80967 /home/david/.virtualenvs/eryocollector/lib/python3.8/site-packages/basic_logtools/filelog.py filelog.py filelog save Inicial conteo de ronda r.iso8601('2021-03-09T12:50:25.066473+00:00')
2021-03-09 09:50:25,661 INFO  80967 /home/david/.virtualenvs/eryocollector/lib/python3.8/site-packages/basic_logtools/filelog.py filelog.py filelog save Inicial conteo de ronda r.iso8601('2021-03-09T12:50:25.067203+00:00')
2021-03-09 09:50:25,664 INFO  80967 /home/david/.virtualenvs/eryocollector/lib/python3.8/site-packages/basic_logtools/filelog.py filelog.py filelog save Inicial conteo de ronda r.iso8601('2021-03-09T12:50:25.342556+00:00')
2021-03-09 09:50:25,665 INFO  80967 /home/david/.virtualenvs/eryocollector/lib/python3.8/site-packages/basic_logtools/filelog.py filelog.py filelog save Inicial conteo de ronda r.iso8601('2021-03-09T12:50:25.353588+00:00')
2021-03-09 09:50:25,666 INFO  80967 /home/david/.virtualenvs/eryocollector/lib/python3.8/site-packages/basic_logtools/filelog.py filelog.py filelog save Inicial conteo de ronda r.iso8601('2021-03-09T12:50:25.349811+00:00')
2021-03-09 09:50:25,666 INFO  80967 /home/david/.virtualenvs/eryocollector/lib/python3.8/site-packages/basic_logtools/filelog.py filelog.py filelog save Inicial conteo de ronda r.iso8601('2021-03-09T12:50:25.346218+00:00')
2021-03-09 09:50:25,669 INFO  80967 /home/david/.virtualenvs/eryocollector/lib/python3.8/site-packages/basic_logtools/filelog.py filelog.py filelog save Inicial conteo de ronda r.iso8601('2021-03-09T12:50:25.373165+00:00')
2021-03-09 09:50:25,670 INFO  80967 /home/david/.virtualenvs/eryocollector/lib/python3.8/site-packages/basic_logtools/filelog.py filelog.py filelog save Inicial conteo de ronda r.iso8601('2021-03-09T12:50:25.357791+00:00')
2021-03-09 09:50:25,673 INFO  80967 /home/david/.virtualenvs/eryocollector/lib/python3.8/site-packages/basic_logtools/filelog.py filelog.py filelog save Inicial conteo de ronda r.iso8601('2021-03-09T12:50:25.367913+00:00')
2021-03-09 09:50:25,673 INFO  80967 /home/david/.virtualenvs/eryocollector/lib/python3.8/site-packages/basic_logtools/filelog.py filelog.py filelog save Inicial conteo de ronda r.iso8601('2021-03-09T12:50:25.362068+00:00')
2021-03-09 09:50:25,677 INFO  80967 /home/david/.virtualenvs/eryocollector/lib/python3.8/site-packages/basic_logtools/filelog.py filelog.py filelog save Inicial conteo de ronda r.iso8601('2021-03-09T12:50:25.388142+00:00')
2021-03-09 09:50:25,677 INFO  80967 /home/david/.virtualenvs/eryocollector/lib/python3.8/site-packages/basic_logtools/filelog.py filelog.py filelog save Inicial conteo de ronda r.iso8601('2021-03-09T12:50:25.378032+00:00')
2021-03-09 09:50:25,679 INFO  80967 /home/david/.virtualenvs/eryocollector/lib/python3.8/site-packages/basic_logtools/filelog.py filelog.py filelog save Inicial conteo de ronda r.iso8601('2021-03-09T12:50:25.385154+00:00')
2021-03-09 09:50:25,679 INFO  80967 /home/david/.virtualenvs/eryocollector/lib/python3.8/site-packages/basic_logtools/filelog.py filelog.py filelog save Inicial conteo de ronda r.iso8601('2021-03-09T12:50:25.381934+00:00')
2021-03-09 09:50:25,681 INFO  80967 /home/david/.virtualenvs/eryocollector/lib/python3.8/site-packages/basic_logtools/filelog.py filelog.py filelog save Inicial conteo de ronda r.iso8601('2021-03-09T12:50:25.390511+00:00')
2021-03-09 09:50:25,682 INFO  80967 /home/david/.virtualenvs/eryocollector/lib/python3.8/site-packages/basic_logtools/filelog.py filelog.py filelog save Inicial conteo de ronda r.iso8601('2021-03-09T12:50:25.394832+00:00')
2021-03-09 09:50:25,684 INFO  80967 /home/david/.virtualenvs/eryocollector/lib/python3.8/site-packages/basic_logtools/filelog.py filelog.py filelog save Inicial conteo de ronda r.iso8601('2021-03-09T12:50:25.392799+00:00')
2021-03-09 09:50:25,685 INFO  80967 /home/david/.virtualenvs/eryocollector/lib/python3.8/site-packages/basic_logtools/filelog.py filelog.py filelog save Inicial conteo de ronda r.iso8601('2021-03-09T12:50:25.398848+00:00')
2021-03-09 09:50:25,686 INFO  80967 /home/david/.virtualenvs/eryocollector/lib/python3.8/site-packages/basic_logtools/filelog.py filelog.py filelog save Inicial conteo de ronda r.iso8601('2021-03-09T12:50:25.402804+00:00')
2021-03-09 09:50:25,687 INFO  80967 /home/david/.virtualenvs/eryocollector/lib/python3.8/site-packages/basic_logtools/filelog.py filelog.py filelog save Inicial conteo de ronda r.iso8601('2021-03-09T12:50:25.400743+00:00')
