2021-03-09 09:48:18,129 INFO  80937 /home/david/.virtualenvs/eryocollector/lib/python3.8/site-packages/basic_logtools/filelog.py filelog.py filelog save Inicial conteo de ronda r.iso8601('2021-03-09T12:48:14.376446+00:00')
2021-03-09 09:48:18,130 INFO  80937 /home/david/.virtualenvs/eryocollector/lib/python3.8/site-packages/basic_logtools/filelog.py filelog.py filelog save Inicial conteo de ronda r.iso8601('2021-03-09T12:48:14.740692+00:00')
2021-03-09 09:48:18,132 INFO  80937 /home/david/.virtualenvs/eryocollector/lib/python3.8/site-packages/basic_logtools/filelog.py filelog.py filelog save Inicial conteo de ronda r.iso8601('2021-03-09T12:48:14.759345+00:00')
2021-03-09 09:48:18,133 INFO  80937 /home/david/.virtualenvs/eryocollector/lib/python3.8/site-packages/basic_logtools/filelog.py filelog.py filelog save Inicial conteo de ronda r.iso8601('2021-03-09T12:48:14.756802+00:00')
2021-03-09 09:48:18,134 INFO  80937 /home/david/.virtualenvs/eryocollector/lib/python3.8/site-packages/basic_logtools/filelog.py filelog.py filelog save Inicial conteo de ronda r.iso8601('2021-03-09T12:48:14.761876+00:00')
2021-03-09 09:48:18,135 INFO  80937 /home/david/.virtualenvs/eryocollector/lib/python3.8/site-packages/basic_logtools/filelog.py filelog.py filelog save Inicial conteo de ronda r.iso8601('2021-03-09T12:48:14.751350+00:00')
2021-03-09 09:48:18,138 INFO  80937 /home/david/.virtualenvs/eryocollector/lib/python3.8/site-packages/basic_logtools/filelog.py filelog.py filelog save Inicial conteo de ronda r.iso8601('2021-03-09T12:48:14.771216+00:00')
2021-03-09 09:48:18,138 INFO  80937 /home/david/.virtualenvs/eryocollector/lib/python3.8/site-packages/basic_logtools/filelog.py filelog.py filelog save Inicial conteo de ronda r.iso8601('2021-03-09T12:48:14.764820+00:00')
2021-03-09 09:48:18,139 INFO  80937 /home/david/.virtualenvs/eryocollector/lib/python3.8/site-packages/basic_logtools/filelog.py filelog.py filelog save Inicial conteo de ronda r.iso8601('2021-03-09T12:48:14.769128+00:00')
2021-03-09 09:48:18,140 INFO  80937 /home/david/.virtualenvs/eryocollector/lib/python3.8/site-packages/basic_logtools/filelog.py filelog.py filelog save Inicial conteo de ronda r.iso8601('2021-03-09T12:48:14.767065+00:00')
2021-03-09 09:48:18,142 INFO  80937 /home/david/.virtualenvs/eryocollector/lib/python3.8/site-packages/basic_logtools/filelog.py filelog.py filelog save Inicial conteo de ronda r.iso8601('2021-03-09T12:48:15.035585+00:00')
2021-03-09 09:48:18,143 INFO  80937 /home/david/.virtualenvs/eryocollector/lib/python3.8/site-packages/basic_logtools/filelog.py filelog.py filelog save Inicial conteo de ronda r.iso8601('2021-03-09T12:48:14.773413+00:00')
2021-03-09 09:48:18,147 INFO  80937 /home/david/.virtualenvs/eryocollector/lib/python3.8/site-packages/basic_logtools/filelog.py filelog.py filelog save Inicial conteo de ronda r.iso8601('2021-03-09T12:48:15.026911+00:00')
2021-03-09 09:48:18,147 INFO  80937 /home/david/.virtualenvs/eryocollector/lib/python3.8/site-packages/basic_logtools/filelog.py filelog.py filelog save Inicial conteo de ronda r.iso8601('2021-03-09T12:48:15.033301+00:00')
2021-03-09 09:48:18,149 INFO  80937 /home/david/.virtualenvs/eryocollector/lib/python3.8/site-packages/basic_logtools/filelog.py filelog.py filelog save Inicial conteo de ronda r.iso8601('2021-03-09T12:48:15.037966+00:00')
2021-03-09 09:48:18,149 INFO  80937 /home/david/.virtualenvs/eryocollector/lib/python3.8/site-packages/basic_logtools/filelog.py filelog.py filelog save Inicial conteo de ronda r.iso8601('2021-03-09T12:48:15.046944+00:00')
2021-03-09 09:48:18,153 INFO  80937 /home/david/.virtualenvs/eryocollector/lib/python3.8/site-packages/basic_logtools/filelog.py filelog.py filelog save Inicial conteo de ronda r.iso8601('2021-03-09T12:48:15.043953+00:00')
2021-03-09 09:48:18,154 INFO  80937 /home/david/.virtualenvs/eryocollector/lib/python3.8/site-packages/basic_logtools/filelog.py filelog.py filelog save Inicial conteo de ronda r.iso8601('2021-03-09T12:48:15.054844+00:00')
2021-03-09 09:48:18,157 INFO  80937 /home/david/.virtualenvs/eryocollector/lib/python3.8/site-packages/basic_logtools/filelog.py filelog.py filelog save Inicial conteo de ronda r.iso8601('2021-03-09T12:48:15.041051+00:00')
2021-03-09 09:48:18,160 INFO  80937 /home/david/.virtualenvs/eryocollector/lib/python3.8/site-packages/basic_logtools/filelog.py filelog.py filelog save Inicial conteo de ronda r.iso8601('2021-03-09T12:48:15.062628+00:00')
2021-03-09 09:48:18,161 INFO  80937 /home/david/.virtualenvs/eryocollector/lib/python3.8/site-packages/basic_logtools/filelog.py filelog.py filelog save Inicial conteo de ronda r.iso8601('2021-03-09T12:48:15.060054+00:00')
2021-03-09 09:48:18,162 INFO  80937 /home/david/.virtualenvs/eryocollector/lib/python3.8/site-packages/basic_logtools/filelog.py filelog.py filelog save Inicial conteo de ronda r.iso8601('2021-03-09T12:48:15.057488+00:00')
2021-03-09 09:48:18,163 INFO  80937 /home/david/.virtualenvs/eryocollector/lib/python3.8/site-packages/basic_logtools/filelog.py filelog.py filelog save Inicial conteo de ronda r.iso8601('2021-03-09T12:48:15.073186+00:00')
2021-03-09 09:48:18,168 INFO  80937 /home/david/.virtualenvs/eryocollector/lib/python3.8/site-packages/basic_logtools/filelog.py filelog.py filelog save Inicial conteo de ronda r.iso8601('2021-03-09T12:48:15.070524+00:00')
2021-03-09 09:48:18,169 INFO  80937 /home/david/.virtualenvs/eryocollector/lib/python3.8/site-packages/basic_logtools/filelog.py filelog.py filelog save Inicial conteo de ronda r.iso8601('2021-03-09T12:48:15.065194+00:00')
2021-03-09 09:48:18,170 INFO  80937 /home/david/.virtualenvs/eryocollector/lib/python3.8/site-packages/basic_logtools/filelog.py filelog.py filelog save Inicial conteo de ronda r.iso8601('2021-03-09T12:48:15.067865+00:00')
2021-03-09 09:48:18,170 INFO  80937 /home/david/.virtualenvs/eryocollector/lib/python3.8/site-packages/basic_logtools/filelog.py filelog.py filelog save Inicial conteo de ronda r.iso8601('2021-03-09T12:48:15.538231+00:00')
2021-03-09 09:48:18,173 INFO  80937 /home/david/.virtualenvs/eryocollector/lib/python3.8/site-packages/basic_logtools/filelog.py filelog.py filelog save Inicial conteo de ronda r.iso8601('2021-03-09T12:48:15.076099+00:00')
2021-03-09 09:48:18,177 INFO  80937 /home/david/.virtualenvs/eryocollector/lib/python3.8/site-packages/basic_logtools/filelog.py filelog.py filelog save Inicial conteo de ronda r.iso8601('2021-03-09T12:48:15.554165+00:00')
2021-03-09 09:48:18,178 INFO  80937 /home/david/.virtualenvs/eryocollector/lib/python3.8/site-packages/basic_logtools/filelog.py filelog.py filelog save Inicial conteo de ronda r.iso8601('2021-03-09T12:48:15.081417+00:00')
2021-03-09 09:48:18,192 INFO  80937 /home/david/.virtualenvs/eryocollector/lib/python3.8/site-packages/basic_logtools/filelog.py filelog.py filelog save Inicial conteo de ronda r.iso8601('2021-03-09T12:48:15.551273+00:00')
2021-03-09 09:48:18,193 INFO  80937 /home/david/.virtualenvs/eryocollector/lib/python3.8/site-packages/basic_logtools/filelog.py filelog.py filelog save Inicial conteo de ronda r.iso8601('2021-03-09T12:48:15.545520+00:00')
2021-03-09 09:48:18,193 INFO  80937 /home/david/.virtualenvs/eryocollector/lib/python3.8/site-packages/basic_logtools/filelog.py filelog.py filelog save Inicial conteo de ronda r.iso8601('2021-03-09T12:48:15.548380+00:00')
2021-03-09 09:48:18,244 INFO  80937 /home/david/.virtualenvs/eryocollector/lib/python3.8/site-packages/basic_logtools/filelog.py filelog.py filelog save Inicial conteo de ronda r.iso8601('2021-03-09T12:48:16.363481+00:00')
2021-03-09 09:48:18,249 INFO  80937 /home/david/.virtualenvs/eryocollector/lib/python3.8/site-packages/basic_logtools/filelog.py filelog.py filelog save Inicial conteo de ronda r.iso8601('2021-03-09T12:48:16.333877+00:00')
2021-03-09 09:48:18,249 INFO  80937 /home/david/.virtualenvs/eryocollector/lib/python3.8/site-packages/basic_logtools/filelog.py filelog.py filelog save Inicial conteo de ronda r.iso8601('2021-03-09T12:48:16.766723+00:00')
2021-03-09 09:48:18,250 INFO  80937 /home/david/.virtualenvs/eryocollector/lib/python3.8/site-packages/basic_logtools/filelog.py filelog.py filelog save Inicial conteo de ronda r.iso8601('2021-03-09T12:48:16.329524+00:00')
2021-03-09 09:48:18,256 INFO  80937 /home/david/.virtualenvs/eryocollector/lib/python3.8/site-packages/basic_logtools/filelog.py filelog.py filelog save Inicial conteo de ronda r.iso8601('2021-03-09T12:48:16.349672+00:00')
2021-03-09 09:48:18,260 INFO  80937 /home/david/.virtualenvs/eryocollector/lib/python3.8/site-packages/basic_logtools/filelog.py filelog.py filelog save Inicial conteo de ronda r.iso8601('2021-03-09T12:48:17.086050+00:00')
2021-03-09 09:48:18,260 INFO  80937 /home/david/.virtualenvs/eryocollector/lib/python3.8/site-packages/basic_logtools/filelog.py filelog.py filelog save Inicial conteo de ronda r.iso8601('2021-03-09T12:48:16.367876+00:00')
2021-03-09 09:48:18,263 INFO  80937 /home/david/.virtualenvs/eryocollector/lib/python3.8/site-packages/basic_logtools/filelog.py filelog.py filelog save Inicial conteo de ronda r.iso8601('2021-03-09T12:48:17.112133+00:00')
2021-03-09 09:48:18,267 INFO  80937 /home/david/.virtualenvs/eryocollector/lib/python3.8/site-packages/basic_logtools/filelog.py filelog.py filelog save Inicial conteo de ronda r.iso8601('2021-03-09T12:48:17.105918+00:00')
2021-03-09 09:48:18,267 INFO  80937 /home/david/.virtualenvs/eryocollector/lib/python3.8/site-packages/basic_logtools/filelog.py filelog.py filelog save Inicial conteo de ronda r.iso8601('2021-03-09T12:48:17.133161+00:00')
2021-03-09 09:48:18,271 INFO  80937 /home/david/.virtualenvs/eryocollector/lib/python3.8/site-packages/basic_logtools/filelog.py filelog.py filelog save Inicial conteo de ronda r.iso8601('2021-03-09T12:48:17.127882+00:00')
2021-03-09 09:48:18,272 INFO  80937 /home/david/.virtualenvs/eryocollector/lib/python3.8/site-packages/basic_logtools/filelog.py filelog.py filelog save Inicial conteo de ronda r.iso8601('2021-03-09T12:48:17.154755+00:00')
