2021-03-03 11:36:29,102 INFO  47147 /home/david/.virtualenvs/eryocollector/lib/python3.8/site-packages/basic_logtools/filelog.py filelog.py filelog save Inicial conteo de ronda r.iso8601('2021-03-03T14:36:27.088194+00:00')
2021-03-03 11:36:31,095 INFO  47147 /home/david/.virtualenvs/eryocollector/lib/python3.8/site-packages/basic_logtools/filelog.py filelog.py filelog save Inicial conteo de ronda r.iso8601('2021-03-03T14:36:29.105569+00:00')
2021-03-03 11:36:33,093 INFO  47147 /home/david/.virtualenvs/eryocollector/lib/python3.8/site-packages/basic_logtools/filelog.py filelog.py filelog save Inicial conteo de ronda r.iso8601('2021-03-03T14:36:31.096348+00:00')
2021-03-03 11:36:35,115 INFO  47147 /home/david/.virtualenvs/eryocollector/lib/python3.8/site-packages/basic_logtools/filelog.py filelog.py filelog save Inicial conteo de ronda r.iso8601('2021-03-03T14:36:33.094640+00:00')
2021-03-03 11:36:37,124 INFO  47147 /home/david/.virtualenvs/eryocollector/lib/python3.8/site-packages/basic_logtools/filelog.py filelog.py filelog save Inicial conteo de ronda r.iso8601('2021-03-03T14:36:35.116527+00:00')
2021-03-03 11:36:39,107 INFO  47147 /home/david/.virtualenvs/eryocollector/lib/python3.8/site-packages/basic_logtools/filelog.py filelog.py filelog save Inicial conteo de ronda r.iso8601('2021-03-03T14:36:37.125398+00:00')
2021-03-03 11:36:41,122 INFO  47147 /home/david/.virtualenvs/eryocollector/lib/python3.8/site-packages/basic_logtools/filelog.py filelog.py filelog save Inicial conteo de ronda r.iso8601('2021-03-03T14:36:39.108117+00:00')
2021-03-03 11:36:43,139 INFO  47147 /home/david/.virtualenvs/eryocollector/lib/python3.8/site-packages/basic_logtools/filelog.py filelog.py filelog save Inicial conteo de ronda r.iso8601('2021-03-03T14:36:41.124071+00:00')
2021-03-03 11:36:45,150 INFO  47147 /home/david/.virtualenvs/eryocollector/lib/python3.8/site-packages/basic_logtools/filelog.py filelog.py filelog save Inicial conteo de ronda r.iso8601('2021-03-03T14:36:43.141175+00:00')
2021-03-03 11:36:47,142 INFO  47147 /home/david/.virtualenvs/eryocollector/lib/python3.8/site-packages/basic_logtools/filelog.py filelog.py filelog save Inicial conteo de ronda r.iso8601('2021-03-03T14:36:45.151250+00:00')
2021-03-03 11:36:49,152 INFO  47147 /home/david/.virtualenvs/eryocollector/lib/python3.8/site-packages/basic_logtools/filelog.py filelog.py filelog save Inicial conteo de ronda r.iso8601('2021-03-03T14:36:47.143548+00:00')
2021-03-03 11:36:51,169 INFO  47147 /home/david/.virtualenvs/eryocollector/lib/python3.8/site-packages/basic_logtools/filelog.py filelog.py filelog save Inicial conteo de ronda r.iso8601('2021-03-03T14:36:49.153427+00:00')
2021-03-03 11:36:53,174 INFO  47147 /home/david/.virtualenvs/eryocollector/lib/python3.8/site-packages/basic_logtools/filelog.py filelog.py filelog save Inicial conteo de ronda r.iso8601('2021-03-03T14:36:51.170430+00:00')
2021-03-03 11:36:55,158 INFO  47147 /home/david/.virtualenvs/eryocollector/lib/python3.8/site-packages/basic_logtools/filelog.py filelog.py filelog save Inicial conteo de ronda r.iso8601('2021-03-03T14:36:53.175897+00:00')
2021-03-03 11:36:57,188 INFO  47147 /home/david/.virtualenvs/eryocollector/lib/python3.8/site-packages/basic_logtools/filelog.py filelog.py filelog save Inicial conteo de ronda r.iso8601('2021-03-03T14:36:55.158914+00:00')
2021-03-03 11:36:59,202 INFO  47147 /home/david/.virtualenvs/eryocollector/lib/python3.8/site-packages/basic_logtools/filelog.py filelog.py filelog save Inicial conteo de ronda r.iso8601('2021-03-03T14:36:57.189629+00:00')
2021-03-03 11:37:01,200 INFO  47147 /home/david/.virtualenvs/eryocollector/lib/python3.8/site-packages/basic_logtools/filelog.py filelog.py filelog save Inicial conteo de ronda r.iso8601('2021-03-03T14:36:59.204270+00:00')
2021-03-03 11:37:03,177 INFO  47147 /home/david/.virtualenvs/eryocollector/lib/python3.8/site-packages/basic_logtools/filelog.py filelog.py filelog save Inicial conteo de ronda r.iso8601('2021-03-03T14:37:01.201789+00:00')
2021-03-03 11:37:03,213 INFO  47147 /home/david/.virtualenvs/eryocollector/lib/python3.8/site-packages/basic_logtools/filelog.py filelog.py filelog save Inicial conteo de ronda r.iso8601('2021-03-03T14:37:03.178349+00:00')
2021-03-03 11:37:05,226 INFO  47147 /home/david/.virtualenvs/eryocollector/lib/python3.8/site-packages/basic_logtools/filelog.py filelog.py filelog save Inicial conteo de ronda r.iso8601('2021-03-03T14:37:03.214497+00:00')
2021-03-03 11:37:07,208 INFO  47147 /home/david/.virtualenvs/eryocollector/lib/python3.8/site-packages/basic_logtools/filelog.py filelog.py filelog save Inicial conteo de ronda r.iso8601('2021-03-03T14:37:05.227766+00:00')
2021-03-03 11:37:09,194 INFO  47147 /home/david/.virtualenvs/eryocollector/lib/python3.8/site-packages/basic_logtools/filelog.py filelog.py filelog save Inicial conteo de ronda r.iso8601('2021-03-03T14:37:07.208833+00:00')
2021-03-03 11:37:09,225 INFO  47147 /home/david/.virtualenvs/eryocollector/lib/python3.8/site-packages/basic_logtools/filelog.py filelog.py filelog save Inicial conteo de ronda r.iso8601('2021-03-03T14:37:09.194947+00:00')
2021-03-03 11:37:09,230 INFO  47147 /home/david/.virtualenvs/eryocollector/lib/python3.8/site-packages/basic_logtools/filelog.py filelog.py filelog save Inicial conteo de ronda r.iso8601('2021-03-03T14:37:09.225378+00:00')
2021-03-03 11:37:11,213 INFO  47147 /home/david/.virtualenvs/eryocollector/lib/python3.8/site-packages/basic_logtools/filelog.py filelog.py filelog save Inicial conteo de ronda r.iso8601('2021-03-03T14:37:09.231145+00:00')
2021-03-03 11:37:13,206 INFO  47147 /home/david/.virtualenvs/eryocollector/lib/python3.8/site-packages/basic_logtools/filelog.py filelog.py filelog save Inicial conteo de ronda r.iso8601('2021-03-03T14:37:11.213984+00:00')
2021-03-03 11:37:13,235 INFO  47147 /home/david/.virtualenvs/eryocollector/lib/python3.8/site-packages/basic_logtools/filelog.py filelog.py filelog save Inicial conteo de ronda r.iso8601('2021-03-03T14:37:13.206375+00:00')
2021-03-03 11:37:15,241 INFO  47147 /home/david/.virtualenvs/eryocollector/lib/python3.8/site-packages/basic_logtools/filelog.py filelog.py filelog save Inicial conteo de ronda r.iso8601('2021-03-03T14:37:13.235733+00:00')
2021-03-03 11:37:17,231 INFO  47147 /home/david/.virtualenvs/eryocollector/lib/python3.8/site-packages/basic_logtools/filelog.py filelog.py filelog save Inicial conteo de ronda r.iso8601('2021-03-03T14:37:15.242379+00:00')
2021-03-03 11:37:19,224 INFO  47147 /home/david/.virtualenvs/eryocollector/lib/python3.8/site-packages/basic_logtools/filelog.py filelog.py filelog save Inicial conteo de ronda r.iso8601('2021-03-03T14:37:17.231579+00:00')
2021-03-03 11:37:19,241 INFO  47147 /home/david/.virtualenvs/eryocollector/lib/python3.8/site-packages/basic_logtools/filelog.py filelog.py filelog save Inicial conteo de ronda r.iso8601('2021-03-03T14:37:19.225133+00:00')
2021-03-03 11:37:19,246 INFO  47147 /home/david/.virtualenvs/eryocollector/lib/python3.8/site-packages/basic_logtools/filelog.py filelog.py filelog save Inicial conteo de ronda r.iso8601('2021-03-03T14:37:19.241356+00:00')
2021-03-03 11:37:21,248 INFO  47147 /home/david/.virtualenvs/eryocollector/lib/python3.8/site-packages/basic_logtools/filelog.py filelog.py filelog save Inicial conteo de ronda r.iso8601('2021-03-03T14:37:19.246949+00:00')
2021-03-03 11:37:23,243 INFO  47147 /home/david/.virtualenvs/eryocollector/lib/python3.8/site-packages/basic_logtools/filelog.py filelog.py filelog save Inicial conteo de ronda r.iso8601('2021-03-03T14:37:21.249178+00:00')
2021-03-03 11:37:25,260 INFO  47147 /home/david/.virtualenvs/eryocollector/lib/python3.8/site-packages/basic_logtools/filelog.py filelog.py filelog save Inicial conteo de ronda r.iso8601('2021-03-03T14:37:23.244244+00:00')
2021-03-03 11:37:27,267 INFO  47147 /home/david/.virtualenvs/eryocollector/lib/python3.8/site-packages/basic_logtools/filelog.py filelog.py filelog save Inicial conteo de ronda r.iso8601('2021-03-03T14:37:25.261498+00:00')
2021-03-03 11:37:29,258 INFO  47147 /home/david/.virtualenvs/eryocollector/lib/python3.8/site-packages/basic_logtools/filelog.py filelog.py filelog save Inicial conteo de ronda r.iso8601('2021-03-03T14:37:27.268890+00:00')
2021-03-03 11:37:31,264 INFO  47147 /home/david/.virtualenvs/eryocollector/lib/python3.8/site-packages/basic_logtools/filelog.py filelog.py filelog save Inicial conteo de ronda r.iso8601('2021-03-03T14:37:29.258635+00:00')
2021-03-03 11:37:33,281 INFO  47147 /home/david/.virtualenvs/eryocollector/lib/python3.8/site-packages/basic_logtools/filelog.py filelog.py filelog save Inicial conteo de ronda r.iso8601('2021-03-03T14:37:31.265113+00:00')
2021-03-03 11:37:35,282 INFO  47147 /home/david/.virtualenvs/eryocollector/lib/python3.8/site-packages/basic_logtools/filelog.py filelog.py filelog save Inicial conteo de ronda r.iso8601('2021-03-03T14:37:33.281490+00:00')
2021-03-03 11:37:37,270 INFO  47147 /home/david/.virtualenvs/eryocollector/lib/python3.8/site-packages/basic_logtools/filelog.py filelog.py filelog save Inicial conteo de ronda r.iso8601('2021-03-03T14:37:35.283502+00:00')
2021-03-03 11:37:39,279 INFO  47147 /home/david/.virtualenvs/eryocollector/lib/python3.8/site-packages/basic_logtools/filelog.py filelog.py filelog save Inicial conteo de ronda r.iso8601('2021-03-03T14:37:37.271330+00:00')
2021-03-03 11:37:39,288 INFO  47147 /home/david/.virtualenvs/eryocollector/lib/python3.8/site-packages/basic_logtools/filelog.py filelog.py filelog save Inicial conteo de ronda r.iso8601('2021-03-03T14:37:39.280317+00:00')
2021-03-03 11:37:41,293 INFO  47147 /home/david/.virtualenvs/eryocollector/lib/python3.8/site-packages/basic_logtools/filelog.py filelog.py filelog save Inicial conteo de ronda r.iso8601('2021-03-03T14:37:39.289128+00:00')
2021-03-03 11:37:43,304 INFO  47147 /home/david/.virtualenvs/eryocollector/lib/python3.8/site-packages/basic_logtools/filelog.py filelog.py filelog save Inicial conteo de ronda r.iso8601('2021-03-03T14:37:41.293769+00:00')
