2021-02-24 16:56:19,402 INFO  37549 /home/david/.virtualenvs/eryocollector/lib/python3.8/site-packages/basic_logtools/filelog.py filelog.py filelog save Inicial conteo de ronda r.iso8601('2021-02-24T19:56:17.397489+00:00')
2021-02-24 16:56:21,404 INFO  37549 /home/david/.virtualenvs/eryocollector/lib/python3.8/site-packages/basic_logtools/filelog.py filelog.py filelog save Inicial conteo de ronda r.iso8601('2021-02-24T19:56:19.406727+00:00')
2021-02-24 16:56:23,410 INFO  37549 /home/david/.virtualenvs/eryocollector/lib/python3.8/site-packages/basic_logtools/filelog.py filelog.py filelog save Inicial conteo de ronda r.iso8601('2021-02-24T19:56:21.405176+00:00')
2021-02-24 16:56:25,412 INFO  37549 /home/david/.virtualenvs/eryocollector/lib/python3.8/site-packages/basic_logtools/filelog.py filelog.py filelog save Inicial conteo de ronda r.iso8601('2021-02-24T19:56:23.412144+00:00')
2021-02-24 16:56:27,420 INFO  37549 /home/david/.virtualenvs/eryocollector/lib/python3.8/site-packages/basic_logtools/filelog.py filelog.py filelog save Inicial conteo de ronda r.iso8601('2021-02-24T19:56:25.414277+00:00')
2021-02-24 16:56:29,427 INFO  37549 /home/david/.virtualenvs/eryocollector/lib/python3.8/site-packages/basic_logtools/filelog.py filelog.py filelog save Inicial conteo de ronda r.iso8601('2021-02-24T19:56:27.421423+00:00')
2021-02-24 16:56:31,428 INFO  37549 /home/david/.virtualenvs/eryocollector/lib/python3.8/site-packages/basic_logtools/filelog.py filelog.py filelog save Inicial conteo de ronda r.iso8601('2021-02-24T19:56:29.428432+00:00')
2021-02-24 16:56:33,433 INFO  37549 /home/david/.virtualenvs/eryocollector/lib/python3.8/site-packages/basic_logtools/filelog.py filelog.py filelog save Inicial conteo de ronda r.iso8601('2021-02-24T19:56:31.429476+00:00')
2021-02-24 16:56:35,438 INFO  37549 /home/david/.virtualenvs/eryocollector/lib/python3.8/site-packages/basic_logtools/filelog.py filelog.py filelog save Inicial conteo de ronda r.iso8601('2021-02-24T19:56:33.434926+00:00')
2021-02-24 16:56:37,444 INFO  37549 /home/david/.virtualenvs/eryocollector/lib/python3.8/site-packages/basic_logtools/filelog.py filelog.py filelog save Inicial conteo de ronda r.iso8601('2021-02-24T19:56:35.439418+00:00')
2021-02-24 16:56:39,446 INFO  37549 /home/david/.virtualenvs/eryocollector/lib/python3.8/site-packages/basic_logtools/filelog.py filelog.py filelog save Inicial conteo de ronda r.iso8601('2021-02-24T19:56:37.444674+00:00')
2021-02-24 16:56:41,450 INFO  37549 /home/david/.virtualenvs/eryocollector/lib/python3.8/site-packages/basic_logtools/filelog.py filelog.py filelog save Inicial conteo de ronda r.iso8601('2021-02-24T19:56:39.447245+00:00')
2021-02-24 16:56:43,459 INFO  37549 /home/david/.virtualenvs/eryocollector/lib/python3.8/site-packages/basic_logtools/filelog.py filelog.py filelog save Inicial conteo de ronda r.iso8601('2021-02-24T19:56:41.451768+00:00')
2021-02-24 16:56:45,464 INFO  37549 /home/david/.virtualenvs/eryocollector/lib/python3.8/site-packages/basic_logtools/filelog.py filelog.py filelog save Inicial conteo de ronda r.iso8601('2021-02-24T19:56:43.460385+00:00')
2021-02-24 16:56:47,467 INFO  37549 /home/david/.virtualenvs/eryocollector/lib/python3.8/site-packages/basic_logtools/filelog.py filelog.py filelog save Inicial conteo de ronda r.iso8601('2021-02-24T19:56:45.465903+00:00')
2021-02-24 16:56:49,472 INFO  37549 /home/david/.virtualenvs/eryocollector/lib/python3.8/site-packages/basic_logtools/filelog.py filelog.py filelog save Inicial conteo de ronda r.iso8601('2021-02-24T19:56:47.468644+00:00')
2021-02-24 16:56:51,479 INFO  37549 /home/david/.virtualenvs/eryocollector/lib/python3.8/site-packages/basic_logtools/filelog.py filelog.py filelog save Inicial conteo de ronda r.iso8601('2021-02-24T19:56:49.473769+00:00')
2021-02-24 16:56:53,482 INFO  37549 /home/david/.virtualenvs/eryocollector/lib/python3.8/site-packages/basic_logtools/filelog.py filelog.py filelog save Inicial conteo de ronda r.iso8601('2021-02-24T19:56:51.480755+00:00')
2021-02-24 16:56:55,487 INFO  37549 /home/david/.virtualenvs/eryocollector/lib/python3.8/site-packages/basic_logtools/filelog.py filelog.py filelog save Inicial conteo de ronda r.iso8601('2021-02-24T19:56:53.483321+00:00')
2021-02-24 16:56:57,493 INFO  37549 /home/david/.virtualenvs/eryocollector/lib/python3.8/site-packages/basic_logtools/filelog.py filelog.py filelog save Inicial conteo de ronda r.iso8601('2021-02-24T19:56:55.489049+00:00')
2021-02-24 16:56:59,499 INFO  37549 /home/david/.virtualenvs/eryocollector/lib/python3.8/site-packages/basic_logtools/filelog.py filelog.py filelog save Inicial conteo de ronda r.iso8601('2021-02-24T19:56:57.494878+00:00')
2021-02-24 16:57:01,499 INFO  37549 /home/david/.virtualenvs/eryocollector/lib/python3.8/site-packages/basic_logtools/filelog.py filelog.py filelog save Inicial conteo de ronda r.iso8601('2021-02-24T19:56:59.500644+00:00')
2021-02-24 16:57:03,504 INFO  37549 /home/david/.virtualenvs/eryocollector/lib/python3.8/site-packages/basic_logtools/filelog.py filelog.py filelog save Inicial conteo de ronda r.iso8601('2021-02-24T19:57:01.500965+00:00')
2021-02-24 16:57:05,507 INFO  37549 /home/david/.virtualenvs/eryocollector/lib/python3.8/site-packages/basic_logtools/filelog.py filelog.py filelog save Inicial conteo de ronda r.iso8601('2021-02-24T19:57:03.505142+00:00')
2021-02-24 16:57:07,516 INFO  37549 /home/david/.virtualenvs/eryocollector/lib/python3.8/site-packages/basic_logtools/filelog.py filelog.py filelog save Inicial conteo de ronda r.iso8601('2021-02-24T19:57:05.508700+00:00')
2021-02-24 16:57:09,523 INFO  37549 /home/david/.virtualenvs/eryocollector/lib/python3.8/site-packages/basic_logtools/filelog.py filelog.py filelog save Inicial conteo de ronda r.iso8601('2021-02-24T19:57:07.517426+00:00')
2021-02-24 16:57:11,524 INFO  37549 /home/david/.virtualenvs/eryocollector/lib/python3.8/site-packages/basic_logtools/filelog.py filelog.py filelog save Inicial conteo de ronda r.iso8601('2021-02-24T19:57:09.524994+00:00')
2021-02-24 16:57:13,529 INFO  37549 /home/david/.virtualenvs/eryocollector/lib/python3.8/site-packages/basic_logtools/filelog.py filelog.py filelog save Inicial conteo de ronda r.iso8601('2021-02-24T19:57:11.525391+00:00')
2021-02-24 16:57:15,536 INFO  37549 /home/david/.virtualenvs/eryocollector/lib/python3.8/site-packages/basic_logtools/filelog.py filelog.py filelog save Inicial conteo de ronda r.iso8601('2021-02-24T19:57:13.530036+00:00')
2021-02-24 16:57:17,543 INFO  37549 /home/david/.virtualenvs/eryocollector/lib/python3.8/site-packages/basic_logtools/filelog.py filelog.py filelog save Inicial conteo de ronda r.iso8601('2021-02-24T19:57:15.537162+00:00')
2021-02-24 16:57:19,544 INFO  37549 /home/david/.virtualenvs/eryocollector/lib/python3.8/site-packages/basic_logtools/filelog.py filelog.py filelog save Inicial conteo de ronda r.iso8601('2021-02-24T19:57:17.544872+00:00')
2021-02-24 16:57:21,548 INFO  37549 /home/david/.virtualenvs/eryocollector/lib/python3.8/site-packages/basic_logtools/filelog.py filelog.py filelog save Inicial conteo de ronda r.iso8601('2021-02-24T19:57:19.545589+00:00')
2021-02-24 16:57:23,553 INFO  37549 /home/david/.virtualenvs/eryocollector/lib/python3.8/site-packages/basic_logtools/filelog.py filelog.py filelog save Inicial conteo de ronda r.iso8601('2021-02-24T19:57:21.549412+00:00')
2021-02-24 16:57:25,556 INFO  37549 /home/david/.virtualenvs/eryocollector/lib/python3.8/site-packages/basic_logtools/filelog.py filelog.py filelog save Inicial conteo de ronda r.iso8601('2021-02-24T19:57:23.555012+00:00')
2021-02-24 16:57:27,563 INFO  37549 /home/david/.virtualenvs/eryocollector/lib/python3.8/site-packages/basic_logtools/filelog.py filelog.py filelog save Inicial conteo de ronda r.iso8601('2021-02-24T19:57:25.556989+00:00')
2021-02-24 16:57:29,574 INFO  37549 /home/david/.virtualenvs/eryocollector/lib/python3.8/site-packages/basic_logtools/filelog.py filelog.py filelog save Inicial conteo de ronda r.iso8601('2021-02-24T19:57:27.564983+00:00')
2021-02-24 16:57:31,572 INFO  37549 /home/david/.virtualenvs/eryocollector/lib/python3.8/site-packages/basic_logtools/filelog.py filelog.py filelog save Inicial conteo de ronda r.iso8601('2021-02-24T19:57:29.575510+00:00')
2021-02-24 16:57:33,576 INFO  37549 /home/david/.virtualenvs/eryocollector/lib/python3.8/site-packages/basic_logtools/filelog.py filelog.py filelog save Inicial conteo de ronda r.iso8601('2021-02-24T19:57:31.573238+00:00')
2021-02-24 16:57:35,584 INFO  37549 /home/david/.virtualenvs/eryocollector/lib/python3.8/site-packages/basic_logtools/filelog.py filelog.py filelog save Inicial conteo de ronda r.iso8601('2021-02-24T19:57:33.577725+00:00')
2021-02-24 16:57:37,588 INFO  37549 /home/david/.virtualenvs/eryocollector/lib/python3.8/site-packages/basic_logtools/filelog.py filelog.py filelog save Inicial conteo de ronda r.iso8601('2021-02-24T19:57:35.585178+00:00')
2021-02-24 16:57:39,592 INFO  37549 /home/david/.virtualenvs/eryocollector/lib/python3.8/site-packages/basic_logtools/filelog.py filelog.py filelog save Inicial conteo de ronda r.iso8601('2021-02-24T19:57:37.589192+00:00')
2021-02-24 16:57:41,599 INFO  37549 /home/david/.virtualenvs/eryocollector/lib/python3.8/site-packages/basic_logtools/filelog.py filelog.py filelog save Inicial conteo de ronda r.iso8601('2021-02-24T19:57:39.593294+00:00')
2021-02-24 16:57:43,601 INFO  37549 /home/david/.virtualenvs/eryocollector/lib/python3.8/site-packages/basic_logtools/filelog.py filelog.py filelog save Inicial conteo de ronda r.iso8601('2021-02-24T19:57:41.600548+00:00')
2021-02-24 16:57:45,603 INFO  37549 /home/david/.virtualenvs/eryocollector/lib/python3.8/site-packages/basic_logtools/filelog.py filelog.py filelog save Inicial conteo de ronda r.iso8601('2021-02-24T19:57:43.601424+00:00')
2021-02-24 16:57:47,612 INFO  37549 /home/david/.virtualenvs/eryocollector/lib/python3.8/site-packages/basic_logtools/filelog.py filelog.py filelog save Inicial conteo de ronda r.iso8601('2021-02-24T19:57:45.603760+00:00')
