2021-03-03 11:32:30,523 INFO  47147 /home/david/.virtualenvs/eryocollector/lib/python3.8/site-packages/basic_logtools/filelog.py filelog.py filelog save Inicial conteo de ronda r.iso8601('2021-03-03T14:32:28.529577+00:00')
2021-03-03 11:32:32,551 INFO  47147 /home/david/.virtualenvs/eryocollector/lib/python3.8/site-packages/basic_logtools/filelog.py filelog.py filelog save Inicial conteo de ronda r.iso8601('2021-03-03T14:32:30.524643+00:00')
2021-03-03 11:32:34,544 INFO  47147 /home/david/.virtualenvs/eryocollector/lib/python3.8/site-packages/basic_logtools/filelog.py filelog.py filelog save Inicial conteo de ronda r.iso8601('2021-03-03T14:32:32.552646+00:00')
2021-03-03 11:32:36,539 INFO  47147 /home/david/.virtualenvs/eryocollector/lib/python3.8/site-packages/basic_logtools/filelog.py filelog.py filelog save Inicial conteo de ronda r.iso8601('2021-03-03T14:32:34.545581+00:00')
2021-03-03 11:32:38,559 INFO  47147 /home/david/.virtualenvs/eryocollector/lib/python3.8/site-packages/basic_logtools/filelog.py filelog.py filelog save Inicial conteo de ronda r.iso8601('2021-03-03T14:32:36.539533+00:00')
2021-03-03 11:32:40,576 INFO  47147 /home/david/.virtualenvs/eryocollector/lib/python3.8/site-packages/basic_logtools/filelog.py filelog.py filelog save Inicial conteo de ronda r.iso8601('2021-03-03T14:32:38.561076+00:00')
2021-03-03 11:32:42,569 INFO  47147 /home/david/.virtualenvs/eryocollector/lib/python3.8/site-packages/basic_logtools/filelog.py filelog.py filelog save Inicial conteo de ronda r.iso8601('2021-03-03T14:32:40.577885+00:00')
2021-03-03 11:32:44,566 INFO  47147 /home/david/.virtualenvs/eryocollector/lib/python3.8/site-packages/basic_logtools/filelog.py filelog.py filelog save Inicial conteo de ronda r.iso8601('2021-03-03T14:32:42.571133+00:00')
2021-03-03 11:32:46,578 INFO  47147 /home/david/.virtualenvs/eryocollector/lib/python3.8/site-packages/basic_logtools/filelog.py filelog.py filelog save Inicial conteo de ronda r.iso8601('2021-03-03T14:32:44.567566+00:00')
2021-03-03 11:32:46,591 INFO  47147 /home/david/.virtualenvs/eryocollector/lib/python3.8/site-packages/basic_logtools/filelog.py filelog.py filelog save Inicial conteo de ronda r.iso8601('2021-03-03T14:32:46.579148+00:00')
2021-03-03 11:32:48,596 INFO  47147 /home/david/.virtualenvs/eryocollector/lib/python3.8/site-packages/basic_logtools/filelog.py filelog.py filelog save Inicial conteo de ronda r.iso8601('2021-03-03T14:32:46.592100+00:00')
2021-03-03 11:32:50,604 INFO  47147 /home/david/.virtualenvs/eryocollector/lib/python3.8/site-packages/basic_logtools/filelog.py filelog.py filelog save Inicial conteo de ronda r.iso8601('2021-03-03T14:32:48.596703+00:00')
2021-03-03 11:32:52,611 INFO  47147 /home/david/.virtualenvs/eryocollector/lib/python3.8/site-packages/basic_logtools/filelog.py filelog.py filelog save Inicial conteo de ronda r.iso8601('2021-03-03T14:32:50.605761+00:00')
2021-03-03 11:32:54,621 INFO  47147 /home/david/.virtualenvs/eryocollector/lib/python3.8/site-packages/basic_logtools/filelog.py filelog.py filelog save Inicial conteo de ronda r.iso8601('2021-03-03T14:32:52.612606+00:00')
2021-03-03 11:32:56,630 INFO  47147 /home/david/.virtualenvs/eryocollector/lib/python3.8/site-packages/basic_logtools/filelog.py filelog.py filelog save Inicial conteo de ronda r.iso8601('2021-03-03T14:32:54.622361+00:00')
2021-03-03 11:32:58,634 INFO  47147 /home/david/.virtualenvs/eryocollector/lib/python3.8/site-packages/basic_logtools/filelog.py filelog.py filelog save Inicial conteo de ronda r.iso8601('2021-03-03T14:32:56.632014+00:00')
2021-03-03 11:33:00,632 INFO  47147 /home/david/.virtualenvs/eryocollector/lib/python3.8/site-packages/basic_logtools/filelog.py filelog.py filelog save Inicial conteo de ronda r.iso8601('2021-03-03T14:32:58.635374+00:00')
2021-03-03 11:33:02,653 INFO  47147 /home/david/.virtualenvs/eryocollector/lib/python3.8/site-packages/basic_logtools/filelog.py filelog.py filelog save Inicial conteo de ronda r.iso8601('2021-03-03T14:33:00.633129+00:00')
2021-03-03 11:33:04,648 INFO  47147 /home/david/.virtualenvs/eryocollector/lib/python3.8/site-packages/basic_logtools/filelog.py filelog.py filelog save Inicial conteo de ronda r.iso8601('2021-03-03T14:33:02.655317+00:00')
2021-03-03 11:33:06,652 INFO  47147 /home/david/.virtualenvs/eryocollector/lib/python3.8/site-packages/basic_logtools/filelog.py filelog.py filelog save Inicial conteo de ronda r.iso8601('2021-03-03T14:33:04.648609+00:00')
2021-03-03 11:33:08,643 INFO  47147 /home/david/.virtualenvs/eryocollector/lib/python3.8/site-packages/basic_logtools/filelog.py filelog.py filelog save Inicial conteo de ronda r.iso8601('2021-03-03T14:33:06.652522+00:00')
2021-03-03 11:33:08,660 INFO  47147 /home/david/.virtualenvs/eryocollector/lib/python3.8/site-packages/basic_logtools/filelog.py filelog.py filelog save Inicial conteo de ronda r.iso8601('2021-03-03T14:33:08.643415+00:00')
2021-03-03 11:33:10,662 INFO  47147 /home/david/.virtualenvs/eryocollector/lib/python3.8/site-packages/basic_logtools/filelog.py filelog.py filelog save Inicial conteo de ronda r.iso8601('2021-03-03T14:33:08.661041+00:00')
2021-03-03 11:33:12,662 INFO  47147 /home/david/.virtualenvs/eryocollector/lib/python3.8/site-packages/basic_logtools/filelog.py filelog.py filelog save Inicial conteo de ronda r.iso8601('2021-03-03T14:33:10.662475+00:00')
2021-03-03 11:33:14,656 INFO  47147 /home/david/.virtualenvs/eryocollector/lib/python3.8/site-packages/basic_logtools/filelog.py filelog.py filelog save Inicial conteo de ronda r.iso8601('2021-03-03T14:33:12.662506+00:00')
2021-03-03 11:33:14,665 INFO  47147 /home/david/.virtualenvs/eryocollector/lib/python3.8/site-packages/basic_logtools/filelog.py filelog.py filelog save Inicial conteo de ronda r.iso8601('2021-03-03T14:33:14.656367+00:00')
2021-03-03 11:33:16,671 INFO  47147 /home/david/.virtualenvs/eryocollector/lib/python3.8/site-packages/basic_logtools/filelog.py filelog.py filelog save Inicial conteo de ronda r.iso8601('2021-03-03T14:33:14.666115+00:00')
2021-03-03 11:33:18,671 INFO  47147 /home/david/.virtualenvs/eryocollector/lib/python3.8/site-packages/basic_logtools/filelog.py filelog.py filelog save Inicial conteo de ronda r.iso8601('2021-03-03T14:33:16.671838+00:00')
2021-03-03 11:33:20,669 INFO  47147 /home/david/.virtualenvs/eryocollector/lib/python3.8/site-packages/basic_logtools/filelog.py filelog.py filelog save Inicial conteo de ronda r.iso8601('2021-03-03T14:33:18.671405+00:00')
2021-03-03 11:33:22,674 INFO  47147 /home/david/.virtualenvs/eryocollector/lib/python3.8/site-packages/basic_logtools/filelog.py filelog.py filelog save Inicial conteo de ronda r.iso8601('2021-03-03T14:33:20.669897+00:00')
2021-03-03 11:33:24,681 INFO  47147 /home/david/.virtualenvs/eryocollector/lib/python3.8/site-packages/basic_logtools/filelog.py filelog.py filelog save Inicial conteo de ronda r.iso8601('2021-03-03T14:33:22.675107+00:00')
2021-03-03 11:33:26,689 INFO  47147 /home/david/.virtualenvs/eryocollector/lib/python3.8/site-packages/basic_logtools/filelog.py filelog.py filelog save Inicial conteo de ronda r.iso8601('2021-03-03T14:33:24.681887+00:00')
2021-03-03 11:33:28,684 INFO  47147 /home/david/.virtualenvs/eryocollector/lib/python3.8/site-packages/basic_logtools/filelog.py filelog.py filelog save Inicial conteo de ronda r.iso8601('2021-03-03T14:33:26.689599+00:00')
2021-03-03 11:33:30,687 INFO  47147 /home/david/.virtualenvs/eryocollector/lib/python3.8/site-packages/basic_logtools/filelog.py filelog.py filelog save Inicial conteo de ronda r.iso8601('2021-03-03T14:33:28.685097+00:00')
2021-03-03 11:33:32,694 INFO  47147 /home/david/.virtualenvs/eryocollector/lib/python3.8/site-packages/basic_logtools/filelog.py filelog.py filelog save Inicial conteo de ronda r.iso8601('2021-03-03T14:33:30.687755+00:00')
2021-03-03 11:33:34,696 INFO  47147 /home/david/.virtualenvs/eryocollector/lib/python3.8/site-packages/basic_logtools/filelog.py filelog.py filelog save Inicial conteo de ronda r.iso8601('2021-03-03T14:33:32.694479+00:00')
2021-03-03 11:33:36,696 INFO  47147 /home/david/.virtualenvs/eryocollector/lib/python3.8/site-packages/basic_logtools/filelog.py filelog.py filelog save Inicial conteo de ronda r.iso8601('2021-03-03T14:33:34.697199+00:00')
2021-03-03 11:33:38,697 INFO  47147 /home/david/.virtualenvs/eryocollector/lib/python3.8/site-packages/basic_logtools/filelog.py filelog.py filelog save Inicial conteo de ronda r.iso8601('2021-03-03T14:33:36.696885+00:00')
2021-03-03 11:33:40,706 INFO  47147 /home/david/.virtualenvs/eryocollector/lib/python3.8/site-packages/basic_logtools/filelog.py filelog.py filelog save Inicial conteo de ronda r.iso8601('2021-03-03T14:33:38.697520+00:00')
2021-03-03 11:33:42,707 INFO  47147 /home/david/.virtualenvs/eryocollector/lib/python3.8/site-packages/basic_logtools/filelog.py filelog.py filelog save Inicial conteo de ronda r.iso8601('2021-03-03T14:33:40.706472+00:00')
2021-03-03 11:33:44,718 INFO  47147 /home/david/.virtualenvs/eryocollector/lib/python3.8/site-packages/basic_logtools/filelog.py filelog.py filelog save Inicial conteo de ronda r.iso8601('2021-03-03T14:33:42.707401+00:00')
2021-03-03 11:33:46,707 INFO  47147 /home/david/.virtualenvs/eryocollector/lib/python3.8/site-packages/basic_logtools/filelog.py filelog.py filelog save Inicial conteo de ronda r.iso8601('2021-03-03T14:33:44.718394+00:00')
2021-03-03 11:33:48,723 INFO  47147 /home/david/.virtualenvs/eryocollector/lib/python3.8/site-packages/basic_logtools/filelog.py filelog.py filelog save Inicial conteo de ronda r.iso8601('2021-03-03T14:33:46.708003+00:00')
2021-03-03 11:33:50,717 INFO  47147 /home/david/.virtualenvs/eryocollector/lib/python3.8/site-packages/basic_logtools/filelog.py filelog.py filelog save Inicial conteo de ronda r.iso8601('2021-03-03T14:33:48.723808+00:00')
2021-03-03 11:33:52,725 INFO  47147 /home/david/.virtualenvs/eryocollector/lib/python3.8/site-packages/basic_logtools/filelog.py filelog.py filelog save Inicial conteo de ronda r.iso8601('2021-03-03T14:33:50.718267+00:00')
