2021-03-03 11:33:54,719 INFO  47147 /home/david/.virtualenvs/eryocollector/lib/python3.8/site-packages/basic_logtools/filelog.py filelog.py filelog save Inicial conteo de ronda r.iso8601('2021-03-03T14:33:52.725935+00:00')
2021-03-03 11:33:54,728 INFO  47147 /home/david/.virtualenvs/eryocollector/lib/python3.8/site-packages/basic_logtools/filelog.py filelog.py filelog save Inicial conteo de ronda r.iso8601('2021-03-03T14:33:54.720250+00:00')
2021-03-03 11:33:56,740 INFO  47147 /home/david/.virtualenvs/eryocollector/lib/python3.8/site-packages/basic_logtools/filelog.py filelog.py filelog save Inicial conteo de ronda r.iso8601('2021-03-03T14:33:54.728726+00:00')
2021-03-03 11:33:58,734 INFO  47147 /home/david/.virtualenvs/eryocollector/lib/python3.8/site-packages/basic_logtools/filelog.py filelog.py filelog save Inicial conteo de ronda r.iso8601('2021-03-03T14:33:56.741748+00:00')
2021-03-03 11:34:00,730 INFO  47147 /home/david/.virtualenvs/eryocollector/lib/python3.8/site-packages/basic_logtools/filelog.py filelog.py filelog save Inicial conteo de ronda r.iso8601('2021-03-03T14:33:58.735219+00:00')
2021-03-03 11:34:02,747 INFO  47147 /home/david/.virtualenvs/eryocollector/lib/python3.8/site-packages/basic_logtools/filelog.py filelog.py filelog save Inicial conteo de ronda r.iso8601('2021-03-03T14:34:00.730380+00:00')
2021-03-03 11:34:04,750 INFO  47147 /home/david/.virtualenvs/eryocollector/lib/python3.8/site-packages/basic_logtools/filelog.py filelog.py filelog save Inicial conteo de ronda r.iso8601('2021-03-03T14:34:02.748208+00:00')
2021-03-03 11:34:06,749 INFO  47147 /home/david/.virtualenvs/eryocollector/lib/python3.8/site-packages/basic_logtools/filelog.py filelog.py filelog save Inicial conteo de ronda r.iso8601('2021-03-03T14:34:04.750514+00:00')
2021-03-03 11:34:08,750 INFO  47147 /home/david/.virtualenvs/eryocollector/lib/python3.8/site-packages/basic_logtools/filelog.py filelog.py filelog save Inicial conteo de ronda r.iso8601('2021-03-03T14:34:06.749438+00:00')
2021-03-03 11:34:10,758 INFO  47147 /home/david/.virtualenvs/eryocollector/lib/python3.8/site-packages/basic_logtools/filelog.py filelog.py filelog save Inicial conteo de ronda r.iso8601('2021-03-03T14:34:08.750627+00:00')
2021-03-03 11:34:12,760 INFO  47147 /home/david/.virtualenvs/eryocollector/lib/python3.8/site-packages/basic_logtools/filelog.py filelog.py filelog save Inicial conteo de ronda r.iso8601('2021-03-03T14:34:10.758869+00:00')
2021-03-03 11:34:14,760 INFO  47147 /home/david/.virtualenvs/eryocollector/lib/python3.8/site-packages/basic_logtools/filelog.py filelog.py filelog save Inicial conteo de ronda r.iso8601('2021-03-03T14:34:12.760876+00:00')
2021-03-03 11:34:16,762 INFO  47147 /home/david/.virtualenvs/eryocollector/lib/python3.8/site-packages/basic_logtools/filelog.py filelog.py filelog save Inicial conteo de ronda r.iso8601('2021-03-03T14:34:14.760551+00:00')
2021-03-03 11:34:18,781 INFO  47147 /home/david/.virtualenvs/eryocollector/lib/python3.8/site-packages/basic_logtools/filelog.py filelog.py filelog save Inicial conteo de ronda r.iso8601('2021-03-03T14:34:16.762745+00:00')
2021-03-03 11:34:20,782 INFO  47147 /home/david/.virtualenvs/eryocollector/lib/python3.8/site-packages/basic_logtools/filelog.py filelog.py filelog save Inicial conteo de ronda r.iso8601('2021-03-03T14:34:18.783473+00:00')
2021-03-03 11:34:22,781 INFO  47147 /home/david/.virtualenvs/eryocollector/lib/python3.8/site-packages/basic_logtools/filelog.py filelog.py filelog save Inicial conteo de ronda r.iso8601('2021-03-03T14:34:20.783076+00:00')
2021-03-03 11:34:24,783 INFO  47147 /home/david/.virtualenvs/eryocollector/lib/python3.8/site-packages/basic_logtools/filelog.py filelog.py filelog save Inicial conteo de ronda r.iso8601('2021-03-03T14:34:22.781430+00:00')
2021-03-03 11:34:24,790 INFO  47147 /home/david/.virtualenvs/eryocollector/lib/python3.8/site-packages/basic_logtools/filelog.py filelog.py filelog save Inicial conteo de ronda r.iso8601('2021-03-03T14:34:24.783857+00:00')
2021-03-03 11:34:26,797 INFO  47147 /home/david/.virtualenvs/eryocollector/lib/python3.8/site-packages/basic_logtools/filelog.py filelog.py filelog save Inicial conteo de ronda r.iso8601('2021-03-03T14:34:24.790790+00:00')
2021-03-03 11:34:28,793 INFO  47147 /home/david/.virtualenvs/eryocollector/lib/python3.8/site-packages/basic_logtools/filelog.py filelog.py filelog save Inicial conteo de ronda r.iso8601('2021-03-03T14:34:26.797653+00:00')
2021-03-03 11:34:30,795 INFO  47147 /home/david/.virtualenvs/eryocollector/lib/python3.8/site-packages/basic_logtools/filelog.py filelog.py filelog save Inicial conteo de ronda r.iso8601('2021-03-03T14:34:28.794352+00:00')
2021-03-03 11:34:32,808 INFO  47147 /home/david/.virtualenvs/eryocollector/lib/python3.8/site-packages/basic_logtools/filelog.py filelog.py filelog save Inicial conteo de ronda r.iso8601('2021-03-03T14:34:30.795896+00:00')
2021-03-03 11:34:34,833 INFO  47147 /home/david/.virtualenvs/eryocollector/lib/python3.8/site-packages/basic_logtools/filelog.py filelog.py filelog save Inicial conteo de ronda r.iso8601('2021-03-03T14:34:32.809291+00:00')
2021-03-03 11:34:36,819 INFO  47147 /home/david/.virtualenvs/eryocollector/lib/python3.8/site-packages/basic_logtools/filelog.py filelog.py filelog save Inicial conteo de ronda r.iso8601('2021-03-03T14:34:34.835117+00:00')
2021-03-03 11:34:38,817 INFO  47147 /home/david/.virtualenvs/eryocollector/lib/python3.8/site-packages/basic_logtools/filelog.py filelog.py filelog save Inicial conteo de ronda r.iso8601('2021-03-03T14:34:36.820192+00:00')
2021-03-03 11:34:40,826 INFO  47147 /home/david/.virtualenvs/eryocollector/lib/python3.8/site-packages/basic_logtools/filelog.py filelog.py filelog save Inicial conteo de ronda r.iso8601('2021-03-03T14:34:38.818332+00:00')
2021-03-03 11:34:40,842 INFO  47147 /home/david/.virtualenvs/eryocollector/lib/python3.8/site-packages/basic_logtools/filelog.py filelog.py filelog save Inicial conteo de ronda r.iso8601('2021-03-03T14:34:40.827066+00:00')
2021-03-03 11:34:42,830 INFO  47147 /home/david/.virtualenvs/eryocollector/lib/python3.8/site-packages/basic_logtools/filelog.py filelog.py filelog save Inicial conteo de ronda r.iso8601('2021-03-03T14:34:40.843197+00:00')
2021-03-03 11:34:44,827 INFO  47147 /home/david/.virtualenvs/eryocollector/lib/python3.8/site-packages/basic_logtools/filelog.py filelog.py filelog save Inicial conteo de ronda r.iso8601('2021-03-03T14:34:42.830927+00:00')
2021-03-03 11:34:44,836 INFO  47147 /home/david/.virtualenvs/eryocollector/lib/python3.8/site-packages/basic_logtools/filelog.py filelog.py filelog save Inicial conteo de ronda r.iso8601('2021-03-03T14:34:44.827317+00:00')
2021-03-03 11:34:44,848 INFO  47147 /home/david/.virtualenvs/eryocollector/lib/python3.8/site-packages/basic_logtools/filelog.py filelog.py filelog save Inicial conteo de ronda r.iso8601('2021-03-03T14:34:44.836322+00:00')
2021-03-03 11:34:46,838 INFO  47147 /home/david/.virtualenvs/eryocollector/lib/python3.8/site-packages/basic_logtools/filelog.py filelog.py filelog save Inicial conteo de ronda r.iso8601('2021-03-03T14:34:44.849186+00:00')
2021-03-03 11:34:48,834 INFO  47147 /home/david/.virtualenvs/eryocollector/lib/python3.8/site-packages/basic_logtools/filelog.py filelog.py filelog save Inicial conteo de ronda r.iso8601('2021-03-03T14:34:46.839219+00:00')
2021-03-03 11:34:48,843 INFO  47147 /home/david/.virtualenvs/eryocollector/lib/python3.8/site-packages/basic_logtools/filelog.py filelog.py filelog save Inicial conteo de ronda r.iso8601('2021-03-03T14:34:48.834840+00:00')
2021-03-03 11:34:48,858 INFO  47147 /home/david/.virtualenvs/eryocollector/lib/python3.8/site-packages/basic_logtools/filelog.py filelog.py filelog save Inicial conteo de ronda r.iso8601('2021-03-03T14:34:48.843601+00:00')
2021-03-03 11:34:50,843 INFO  47147 /home/david/.virtualenvs/eryocollector/lib/python3.8/site-packages/basic_logtools/filelog.py filelog.py filelog save Inicial conteo de ronda r.iso8601('2021-03-03T14:34:48.859160+00:00')
2021-03-03 11:34:52,845 INFO  47147 /home/david/.virtualenvs/eryocollector/lib/python3.8/site-packages/basic_logtools/filelog.py filelog.py filelog save Inicial conteo de ronda r.iso8601('2021-03-03T14:34:50.844224+00:00')
2021-03-03 11:34:54,862 INFO  47147 /home/david/.virtualenvs/eryocollector/lib/python3.8/site-packages/basic_logtools/filelog.py filelog.py filelog save Inicial conteo de ronda r.iso8601('2021-03-03T14:34:52.846065+00:00')
2021-03-03 11:34:56,872 INFO  47147 /home/david/.virtualenvs/eryocollector/lib/python3.8/site-packages/basic_logtools/filelog.py filelog.py filelog save Inicial conteo de ronda r.iso8601('2021-03-03T14:34:54.863259+00:00')
2021-03-03 11:34:58,874 INFO  47147 /home/david/.virtualenvs/eryocollector/lib/python3.8/site-packages/basic_logtools/filelog.py filelog.py filelog save Inicial conteo de ronda r.iso8601('2021-03-03T14:34:56.872743+00:00')
2021-03-03 11:35:00,868 INFO  47147 /home/david/.virtualenvs/eryocollector/lib/python3.8/site-packages/basic_logtools/filelog.py filelog.py filelog save Inicial conteo de ronda r.iso8601('2021-03-03T14:34:58.876048+00:00')
2021-03-03 11:35:02,875 INFO  47147 /home/david/.virtualenvs/eryocollector/lib/python3.8/site-packages/basic_logtools/filelog.py filelog.py filelog save Inicial conteo de ronda r.iso8601('2021-03-03T14:35:00.869497+00:00')
2021-03-03 11:35:04,885 INFO  47147 /home/david/.virtualenvs/eryocollector/lib/python3.8/site-packages/basic_logtools/filelog.py filelog.py filelog save Inicial conteo de ronda r.iso8601('2021-03-03T14:35:02.876056+00:00')
2021-03-03 11:35:06,897 INFO  47147 /home/david/.virtualenvs/eryocollector/lib/python3.8/site-packages/basic_logtools/filelog.py filelog.py filelog save Inicial conteo de ronda r.iso8601('2021-03-03T14:35:04.885650+00:00')
2021-03-03 11:35:08,901 INFO  47147 /home/david/.virtualenvs/eryocollector/lib/python3.8/site-packages/basic_logtools/filelog.py filelog.py filelog save Inicial conteo de ronda r.iso8601('2021-03-03T14:35:06.898706+00:00')
