2021-02-24 16:50:20,527 INFO  37549 /home/david/.virtualenvs/eryocollector/lib/python3.8/site-packages/basic_logtools/filelog.py filelog.py filelog save Inicial conteo de ronda r.iso8601('2021-02-24T19:50:18.526553+00:00')
2021-02-24 16:50:22,530 INFO  37549 /home/david/.virtualenvs/eryocollector/lib/python3.8/site-packages/basic_logtools/filelog.py filelog.py filelog save Inicial conteo de ronda r.iso8601('2021-02-24T19:50:20.533161+00:00')
2021-02-24 16:50:24,533 INFO  37549 /home/david/.virtualenvs/eryocollector/lib/python3.8/site-packages/basic_logtools/filelog.py filelog.py filelog save Inicial conteo de ronda r.iso8601('2021-02-24T19:50:22.530967+00:00')
2021-02-24 16:50:26,539 INFO  37549 /home/david/.virtualenvs/eryocollector/lib/python3.8/site-packages/basic_logtools/filelog.py filelog.py filelog save Inicial conteo de ronda r.iso8601('2021-02-24T19:50:24.534189+00:00')
2021-02-24 16:50:28,546 INFO  37549 /home/david/.virtualenvs/eryocollector/lib/python3.8/site-packages/basic_logtools/filelog.py filelog.py filelog save Inicial conteo de ronda r.iso8601('2021-02-24T19:50:26.540925+00:00')
2021-02-24 16:50:30,551 INFO  37549 /home/david/.virtualenvs/eryocollector/lib/python3.8/site-packages/basic_logtools/filelog.py filelog.py filelog save Inicial conteo de ronda r.iso8601('2021-02-24T19:50:28.547884+00:00')
2021-02-24 16:50:32,550 INFO  37549 /home/david/.virtualenvs/eryocollector/lib/python3.8/site-packages/basic_logtools/filelog.py filelog.py filelog save Inicial conteo de ronda r.iso8601('2021-02-24T19:50:30.553044+00:00')
2021-02-24 16:50:34,565 INFO  37549 /home/david/.virtualenvs/eryocollector/lib/python3.8/site-packages/basic_logtools/filelog.py filelog.py filelog save Inicial conteo de ronda r.iso8601('2021-02-24T19:50:32.550774+00:00')
2021-02-24 16:50:36,567 INFO  37549 /home/david/.virtualenvs/eryocollector/lib/python3.8/site-packages/basic_logtools/filelog.py filelog.py filelog save Inicial conteo de ronda r.iso8601('2021-02-24T19:50:34.566466+00:00')
2021-02-24 16:50:38,574 INFO  37549 /home/david/.virtualenvs/eryocollector/lib/python3.8/site-packages/basic_logtools/filelog.py filelog.py filelog save Inicial conteo de ronda r.iso8601('2021-02-24T19:50:36.568052+00:00')
2021-02-24 16:50:40,571 INFO  37549 /home/david/.virtualenvs/eryocollector/lib/python3.8/site-packages/basic_logtools/filelog.py filelog.py filelog save Inicial conteo de ronda r.iso8601('2021-02-24T19:50:38.575795+00:00')
2021-02-24 16:50:42,579 INFO  37549 /home/david/.virtualenvs/eryocollector/lib/python3.8/site-packages/basic_logtools/filelog.py filelog.py filelog save Inicial conteo de ronda r.iso8601('2021-02-24T19:50:40.572338+00:00')
2021-02-24 16:50:44,578 INFO  37549 /home/david/.virtualenvs/eryocollector/lib/python3.8/site-packages/basic_logtools/filelog.py filelog.py filelog save Inicial conteo de ronda r.iso8601('2021-02-24T19:50:42.580556+00:00')
2021-02-24 16:50:46,588 INFO  37549 /home/david/.virtualenvs/eryocollector/lib/python3.8/site-packages/basic_logtools/filelog.py filelog.py filelog save Inicial conteo de ronda r.iso8601('2021-02-24T19:50:44.579083+00:00')
2021-02-24 16:50:48,591 INFO  37549 /home/david/.virtualenvs/eryocollector/lib/python3.8/site-packages/basic_logtools/filelog.py filelog.py filelog save Inicial conteo de ronda r.iso8601('2021-02-24T19:50:46.589076+00:00')
2021-02-24 16:50:50,596 INFO  37549 /home/david/.virtualenvs/eryocollector/lib/python3.8/site-packages/basic_logtools/filelog.py filelog.py filelog save Inicial conteo de ronda r.iso8601('2021-02-24T19:50:48.592367+00:00')
2021-02-24 16:50:52,596 INFO  37549 /home/david/.virtualenvs/eryocollector/lib/python3.8/site-packages/basic_logtools/filelog.py filelog.py filelog save Inicial conteo de ronda r.iso8601('2021-02-24T19:50:50.597023+00:00')
2021-02-24 16:50:54,604 INFO  37549 /home/david/.virtualenvs/eryocollector/lib/python3.8/site-packages/basic_logtools/filelog.py filelog.py filelog save Inicial conteo de ronda r.iso8601('2021-02-24T19:50:52.597835+00:00')
2021-02-24 16:50:56,609 INFO  37549 /home/david/.virtualenvs/eryocollector/lib/python3.8/site-packages/basic_logtools/filelog.py filelog.py filelog save Inicial conteo de ronda r.iso8601('2021-02-24T19:50:54.605271+00:00')
2021-02-24 16:50:58,616 INFO  37549 /home/david/.virtualenvs/eryocollector/lib/python3.8/site-packages/basic_logtools/filelog.py filelog.py filelog save Inicial conteo de ronda r.iso8601('2021-02-24T19:50:56.610520+00:00')
2021-02-24 16:51:00,618 INFO  37549 /home/david/.virtualenvs/eryocollector/lib/python3.8/site-packages/basic_logtools/filelog.py filelog.py filelog save Inicial conteo de ronda r.iso8601('2021-02-24T19:50:58.617810+00:00')
2021-02-24 16:51:02,620 INFO  37549 /home/david/.virtualenvs/eryocollector/lib/python3.8/site-packages/basic_logtools/filelog.py filelog.py filelog save Inicial conteo de ronda r.iso8601('2021-02-24T19:51:00.619373+00:00')
2021-02-24 16:51:04,628 INFO  37549 /home/david/.virtualenvs/eryocollector/lib/python3.8/site-packages/basic_logtools/filelog.py filelog.py filelog save Inicial conteo de ronda r.iso8601('2021-02-24T19:51:02.621037+00:00')
2021-02-24 16:51:06,631 INFO  37549 /home/david/.virtualenvs/eryocollector/lib/python3.8/site-packages/basic_logtools/filelog.py filelog.py filelog save Inicial conteo de ronda r.iso8601('2021-02-24T19:51:04.629287+00:00')
2021-02-24 16:51:08,639 INFO  37549 /home/david/.virtualenvs/eryocollector/lib/python3.8/site-packages/basic_logtools/filelog.py filelog.py filelog save Inicial conteo de ronda r.iso8601('2021-02-24T19:51:06.632881+00:00')
2021-02-24 16:51:10,640 INFO  37549 /home/david/.virtualenvs/eryocollector/lib/python3.8/site-packages/basic_logtools/filelog.py filelog.py filelog save Inicial conteo de ronda r.iso8601('2021-02-24T19:51:08.640604+00:00')
2021-02-24 16:51:12,650 INFO  37549 /home/david/.virtualenvs/eryocollector/lib/python3.8/site-packages/basic_logtools/filelog.py filelog.py filelog save Inicial conteo de ronda r.iso8601('2021-02-24T19:51:10.641248+00:00')
2021-02-24 16:51:14,653 INFO  37549 /home/david/.virtualenvs/eryocollector/lib/python3.8/site-packages/basic_logtools/filelog.py filelog.py filelog save Inicial conteo de ronda r.iso8601('2021-02-24T19:51:12.651287+00:00')
2021-02-24 16:51:16,659 INFO  37549 /home/david/.virtualenvs/eryocollector/lib/python3.8/site-packages/basic_logtools/filelog.py filelog.py filelog save Inicial conteo de ronda r.iso8601('2021-02-24T19:51:14.654606+00:00')
2021-02-24 16:51:18,660 INFO  37549 /home/david/.virtualenvs/eryocollector/lib/python3.8/site-packages/basic_logtools/filelog.py filelog.py filelog save Inicial conteo de ronda r.iso8601('2021-02-24T19:51:16.660416+00:00')
2021-02-24 16:51:20,665 INFO  37549 /home/david/.virtualenvs/eryocollector/lib/python3.8/site-packages/basic_logtools/filelog.py filelog.py filelog save Inicial conteo de ronda r.iso8601('2021-02-24T19:51:18.661674+00:00')
2021-02-24 16:51:22,668 INFO  37549 /home/david/.virtualenvs/eryocollector/lib/python3.8/site-packages/basic_logtools/filelog.py filelog.py filelog save Inicial conteo de ronda r.iso8601('2021-02-24T19:51:20.666781+00:00')
2021-02-24 16:51:24,674 INFO  37549 /home/david/.virtualenvs/eryocollector/lib/python3.8/site-packages/basic_logtools/filelog.py filelog.py filelog save Inicial conteo de ronda r.iso8601('2021-02-24T19:51:22.669888+00:00')
2021-02-24 16:51:26,685 INFO  37549 /home/david/.virtualenvs/eryocollector/lib/python3.8/site-packages/basic_logtools/filelog.py filelog.py filelog save Inicial conteo de ronda r.iso8601('2021-02-24T19:51:24.675301+00:00')
2021-02-24 16:51:28,683 INFO  37549 /home/david/.virtualenvs/eryocollector/lib/python3.8/site-packages/basic_logtools/filelog.py filelog.py filelog save Inicial conteo de ronda r.iso8601('2021-02-24T19:51:26.686286+00:00')
2021-02-24 16:51:30,689 INFO  37549 /home/david/.virtualenvs/eryocollector/lib/python3.8/site-packages/basic_logtools/filelog.py filelog.py filelog save Inicial conteo de ronda r.iso8601('2021-02-24T19:51:28.684618+00:00')
2021-02-24 16:51:32,696 INFO  37549 /home/david/.virtualenvs/eryocollector/lib/python3.8/site-packages/basic_logtools/filelog.py filelog.py filelog save Inicial conteo de ronda r.iso8601('2021-02-24T19:51:30.690132+00:00')
2021-02-24 16:51:34,700 INFO  37549 /home/david/.virtualenvs/eryocollector/lib/python3.8/site-packages/basic_logtools/filelog.py filelog.py filelog save Inicial conteo de ronda r.iso8601('2021-02-24T19:51:32.697992+00:00')
2021-02-24 16:51:36,706 INFO  37549 /home/david/.virtualenvs/eryocollector/lib/python3.8/site-packages/basic_logtools/filelog.py filelog.py filelog save Inicial conteo de ronda r.iso8601('2021-02-24T19:51:34.701517+00:00')
2021-02-24 16:51:38,711 INFO  37549 /home/david/.virtualenvs/eryocollector/lib/python3.8/site-packages/basic_logtools/filelog.py filelog.py filelog save Inicial conteo de ronda r.iso8601('2021-02-24T19:51:36.707339+00:00')
2021-02-24 16:51:40,714 INFO  37549 /home/david/.virtualenvs/eryocollector/lib/python3.8/site-packages/basic_logtools/filelog.py filelog.py filelog save Inicial conteo de ronda r.iso8601('2021-02-24T19:51:38.712150+00:00')
2021-02-24 16:51:42,719 INFO  37549 /home/david/.virtualenvs/eryocollector/lib/python3.8/site-packages/basic_logtools/filelog.py filelog.py filelog save Inicial conteo de ronda r.iso8601('2021-02-24T19:51:40.715760+00:00')
2021-02-24 16:51:44,726 INFO  37549 /home/david/.virtualenvs/eryocollector/lib/python3.8/site-packages/basic_logtools/filelog.py filelog.py filelog save Inicial conteo de ronda r.iso8601('2021-02-24T19:51:42.720449+00:00')
2021-02-24 16:51:46,728 INFO  37549 /home/david/.virtualenvs/eryocollector/lib/python3.8/site-packages/basic_logtools/filelog.py filelog.py filelog save Inicial conteo de ronda r.iso8601('2021-02-24T19:51:44.727221+00:00')
2021-02-24 16:51:48,736 INFO  37549 /home/david/.virtualenvs/eryocollector/lib/python3.8/site-packages/basic_logtools/filelog.py filelog.py filelog save Inicial conteo de ronda r.iso8601('2021-02-24T19:51:46.729108+00:00')
