2021-02-23 19:23:20,148 INFO  75046 /home/david/.virtualenvs/eryocollector/lib/python3.8/site-packages/basic_logtools/filelog.py filelog.py filelog save Inicial conteo de ronda r.iso8601('2021-02-23T22:23:20.142651+00:00')
2021-02-23 19:23:20,152 INFO  75046 /home/david/.virtualenvs/eryocollector/lib/python3.8/site-packages/basic_logtools/filelog.py filelog.py filelog save Inicial conteo de ronda r.iso8601('2021-02-23T22:23:20.142968+00:00')
2021-02-23 19:23:20,153 INFO  75046 /home/david/.virtualenvs/eryocollector/lib/python3.8/site-packages/basic_logtools/filelog.py filelog.py filelog save Inicial conteo de ronda r.iso8601('2021-02-23T22:23:20.143500+00:00')
2021-02-23 19:23:20,153 INFO  75046 /home/david/.virtualenvs/eryocollector/lib/python3.8/site-packages/basic_logtools/filelog.py filelog.py filelog save Inicial conteo de ronda r.iso8601('2021-02-23T22:23:20.144197+00:00')
2021-02-23 19:23:20,153 INFO  75046 /home/david/.virtualenvs/eryocollector/lib/python3.8/site-packages/basic_logtools/filelog.py filelog.py filelog save Inicial conteo de ronda r.iso8601('2021-02-23T22:23:20.144859+00:00')
2021-02-23 19:23:20,154 INFO  75046 /home/david/.virtualenvs/eryocollector/lib/python3.8/site-packages/basic_logtools/filelog.py filelog.py filelog save Inicial conteo de ronda r.iso8601('2021-02-23T22:23:20.145623+00:00')
2021-02-23 19:23:20,155 INFO  75046 /home/david/.virtualenvs/eryocollector/lib/python3.8/site-packages/basic_logtools/filelog.py filelog.py filelog save Inicial conteo de ronda r.iso8601('2021-02-23T22:23:20.146196+00:00')
2021-02-23 19:23:20,310 INFO  75046 /home/david/.virtualenvs/eryocollector/lib/python3.8/site-packages/basic_logtools/filelog.py filelog.py filelog save Inicial conteo de ronda r.iso8601('2021-02-23T22:23:20.307452+00:00')
2021-02-23 19:23:20,311 INFO  75046 /home/david/.virtualenvs/eryocollector/lib/python3.8/site-packages/basic_logtools/filelog.py filelog.py filelog save Inicial conteo de ronda r.iso8601('2021-02-23T22:23:20.307778+00:00')
2021-02-23 19:23:20,373 INFO  75046 /home/david/.virtualenvs/eryocollector/lib/python3.8/site-packages/basic_logtools/filelog.py filelog.py filelog save Inicial conteo de ronda r.iso8601('2021-02-23T22:23:20.367983+00:00')
2021-02-23 19:23:20,373 INFO  75046 /home/david/.virtualenvs/eryocollector/lib/python3.8/site-packages/basic_logtools/filelog.py filelog.py filelog save Inicial conteo de ronda r.iso8601('2021-02-23T22:23:20.368452+00:00')
2021-02-23 19:23:20,373 INFO  75046 /home/david/.virtualenvs/eryocollector/lib/python3.8/site-packages/basic_logtools/filelog.py filelog.py filelog save Inicial conteo de ronda r.iso8601('2021-02-23T22:23:20.368895+00:00')
2021-02-23 19:23:20,374 INFO  75046 /home/david/.virtualenvs/eryocollector/lib/python3.8/site-packages/basic_logtools/filelog.py filelog.py filelog save Inicial conteo de ronda r.iso8601('2021-02-23T22:23:20.369349+00:00')
2021-02-23 19:23:20,650 INFO  75046 /home/david/.virtualenvs/eryocollector/lib/python3.8/site-packages/basic_logtools/filelog.py filelog.py filelog save Inicial conteo de ronda r.iso8601('2021-02-23T22:23:20.647238+00:00')
2021-02-23 19:23:20,650 INFO  75046 /home/david/.virtualenvs/eryocollector/lib/python3.8/site-packages/basic_logtools/filelog.py filelog.py filelog save Inicial conteo de ronda r.iso8601('2021-02-23T22:23:20.647809+00:00')
2021-02-23 19:23:20,692 INFO  75046 /home/david/.virtualenvs/eryocollector/lib/python3.8/site-packages/basic_logtools/filelog.py filelog.py filelog save Inicial conteo de ronda r.iso8601('2021-02-23T22:23:20.686269+00:00')
2021-02-23 19:23:20,692 INFO  75046 /home/david/.virtualenvs/eryocollector/lib/python3.8/site-packages/basic_logtools/filelog.py filelog.py filelog save Inicial conteo de ronda r.iso8601('2021-02-23T22:23:20.685942+00:00')
2021-02-23 19:23:20,694 INFO  75046 /home/david/.virtualenvs/eryocollector/lib/python3.8/site-packages/basic_logtools/filelog.py filelog.py filelog save Inicial conteo de ronda r.iso8601('2021-02-23T22:23:20.686996+00:00')
2021-02-23 19:23:20,695 INFO  75046 /home/david/.virtualenvs/eryocollector/lib/python3.8/site-packages/basic_logtools/filelog.py filelog.py filelog save Inicial conteo de ronda r.iso8601('2021-02-23T22:23:20.687522+00:00')
2021-02-23 19:23:20,700 INFO  75046 /home/david/.virtualenvs/eryocollector/lib/python3.8/site-packages/basic_logtools/filelog.py filelog.py filelog save Inicial conteo de ronda r.iso8601('2021-02-23T22:23:20.687914+00:00')
2021-02-23 19:23:20,700 INFO  75046 /home/david/.virtualenvs/eryocollector/lib/python3.8/site-packages/basic_logtools/filelog.py filelog.py filelog save Inicial conteo de ronda r.iso8601('2021-02-23T22:23:20.688353+00:00')
2021-02-23 19:23:20,702 INFO  75046 /home/david/.virtualenvs/eryocollector/lib/python3.8/site-packages/basic_logtools/filelog.py filelog.py filelog save Inicial conteo de ronda r.iso8601('2021-02-23T22:23:20.688979+00:00')
2021-02-23 19:23:20,702 INFO  75046 /home/david/.virtualenvs/eryocollector/lib/python3.8/site-packages/basic_logtools/filelog.py filelog.py filelog save Inicial conteo de ronda r.iso8601('2021-02-23T22:23:20.689347+00:00')
2021-02-23 19:23:20,705 INFO  75046 /home/david/.virtualenvs/eryocollector/lib/python3.8/site-packages/basic_logtools/filelog.py filelog.py filelog save Inicial conteo de ronda r.iso8601('2021-02-23T22:23:20.690817+00:00')
2021-02-23 19:23:20,706 INFO  75046 /home/david/.virtualenvs/eryocollector/lib/python3.8/site-packages/basic_logtools/filelog.py filelog.py filelog save Inicial conteo de ronda r.iso8601('2021-02-23T22:23:20.691493+00:00')
2021-02-23 19:23:20,706 INFO  75046 /home/david/.virtualenvs/eryocollector/lib/python3.8/site-packages/basic_logtools/filelog.py filelog.py filelog save Inicial conteo de ronda r.iso8601('2021-02-23T22:23:20.690148+00:00')
2021-02-23 19:23:20,706 INFO  75046 /home/david/.virtualenvs/eryocollector/lib/python3.8/site-packages/basic_logtools/filelog.py filelog.py filelog save Inicial conteo de ronda r.iso8601('2021-02-23T22:23:20.692286+00:00')
2021-02-23 19:23:20,709 INFO  75046 /home/david/.virtualenvs/eryocollector/lib/python3.8/site-packages/basic_logtools/filelog.py filelog.py filelog save Inicial conteo de ronda r.iso8601('2021-02-23T22:23:20.693111+00:00')
2021-02-23 19:23:20,710 INFO  75046 /home/david/.virtualenvs/eryocollector/lib/python3.8/site-packages/basic_logtools/filelog.py filelog.py filelog save Inicial conteo de ronda r.iso8601('2021-02-23T22:23:20.694367+00:00')
2021-02-23 19:23:20,710 INFO  75046 /home/david/.virtualenvs/eryocollector/lib/python3.8/site-packages/basic_logtools/filelog.py filelog.py filelog save Inicial conteo de ronda r.iso8601('2021-02-23T22:23:20.694867+00:00')
2021-02-23 19:23:20,711 INFO  75046 /home/david/.virtualenvs/eryocollector/lib/python3.8/site-packages/basic_logtools/filelog.py filelog.py filelog save Inicial conteo de ronda r.iso8601('2021-02-23T22:23:20.695798+00:00')
2021-02-23 19:23:20,713 INFO  75046 /home/david/.virtualenvs/eryocollector/lib/python3.8/site-packages/basic_logtools/filelog.py filelog.py filelog save Inicial conteo de ronda r.iso8601('2021-02-23T22:23:20.698027+00:00')
2021-02-23 19:23:20,713 INFO  75046 /home/david/.virtualenvs/eryocollector/lib/python3.8/site-packages/basic_logtools/filelog.py filelog.py filelog save Inicial conteo de ronda r.iso8601('2021-02-23T22:23:20.697128+00:00')
2021-02-23 19:23:20,713 INFO  75046 /home/david/.virtualenvs/eryocollector/lib/python3.8/site-packages/basic_logtools/filelog.py filelog.py filelog save Inicial conteo de ronda r.iso8601('2021-02-23T22:23:20.698678+00:00')
2021-02-23 19:23:21,185 INFO  75046 /home/david/.virtualenvs/eryocollector/lib/python3.8/site-packages/basic_logtools/filelog.py filelog.py filelog save Inicial conteo de ronda r.iso8601('2021-02-23T22:23:21.182174+00:00')
2021-02-23 19:23:21,185 INFO  75046 /home/david/.virtualenvs/eryocollector/lib/python3.8/site-packages/basic_logtools/filelog.py filelog.py filelog save Inicial conteo de ronda r.iso8601('2021-02-23T22:23:21.182477+00:00')
2021-02-23 19:23:21,286 INFO  75046 /home/david/.virtualenvs/eryocollector/lib/python3.8/site-packages/basic_logtools/filelog.py filelog.py filelog save Inicial conteo de ronda r.iso8601('2021-02-23T22:23:21.278899+00:00')
2021-02-23 19:23:21,286 INFO  75046 /home/david/.virtualenvs/eryocollector/lib/python3.8/site-packages/basic_logtools/filelog.py filelog.py filelog save Inicial conteo de ronda r.iso8601('2021-02-23T22:23:21.281076+00:00')
2021-02-23 19:23:21,287 INFO  75046 /home/david/.virtualenvs/eryocollector/lib/python3.8/site-packages/basic_logtools/filelog.py filelog.py filelog save Inicial conteo de ronda r.iso8601('2021-02-23T22:23:21.279564+00:00')
2021-02-23 19:23:21,287 INFO  75046 /home/david/.virtualenvs/eryocollector/lib/python3.8/site-packages/basic_logtools/filelog.py filelog.py filelog save Inicial conteo de ronda r.iso8601('2021-02-23T22:23:21.281534+00:00')
2021-02-23 19:23:21,289 INFO  75046 /home/david/.virtualenvs/eryocollector/lib/python3.8/site-packages/basic_logtools/filelog.py filelog.py filelog save Inicial conteo de ronda r.iso8601('2021-02-23T22:23:21.282006+00:00')
2021-02-23 19:23:21,290 INFO  75046 /home/david/.virtualenvs/eryocollector/lib/python3.8/site-packages/basic_logtools/filelog.py filelog.py filelog save Inicial conteo de ronda r.iso8601('2021-02-23T22:23:21.282427+00:00')
2021-02-23 19:23:21,290 INFO  75046 /home/david/.virtualenvs/eryocollector/lib/python3.8/site-packages/basic_logtools/filelog.py filelog.py filelog save Inicial conteo de ronda r.iso8601('2021-02-23T22:23:21.282863+00:00')
2021-02-23 19:23:21,290 INFO  75046 /home/david/.virtualenvs/eryocollector/lib/python3.8/site-packages/basic_logtools/filelog.py filelog.py filelog save Inicial conteo de ronda r.iso8601('2021-02-23T22:23:21.283570+00:00')
2021-02-23 19:23:21,292 INFO  75046 /home/david/.virtualenvs/eryocollector/lib/python3.8/site-packages/basic_logtools/filelog.py filelog.py filelog save Inicial conteo de ronda r.iso8601('2021-02-23T22:23:21.284019+00:00')
