2021-03-03 11:35:10,903 INFO  47147 /home/david/.virtualenvs/eryocollector/lib/python3.8/site-packages/basic_logtools/filelog.py filelog.py filelog save Inicial conteo de ronda r.iso8601('2021-03-03T14:35:08.903614+00:00')
2021-03-03 11:35:12,898 INFO  47147 /home/david/.virtualenvs/eryocollector/lib/python3.8/site-packages/basic_logtools/filelog.py filelog.py filelog save Inicial conteo de ronda r.iso8601('2021-03-03T14:35:10.907061+00:00')
2021-03-03 11:35:12,907 INFO  47147 /home/david/.virtualenvs/eryocollector/lib/python3.8/site-packages/basic_logtools/filelog.py filelog.py filelog save Inicial conteo de ronda r.iso8601('2021-03-03T14:35:12.898883+00:00')
2021-03-03 11:35:14,932 INFO  47147 /home/david/.virtualenvs/eryocollector/lib/python3.8/site-packages/basic_logtools/filelog.py filelog.py filelog save Inicial conteo de ronda r.iso8601('2021-03-03T14:35:12.908210+00:00')
2021-03-03 11:35:16,934 INFO  47147 /home/david/.virtualenvs/eryocollector/lib/python3.8/site-packages/basic_logtools/filelog.py filelog.py filelog save Inicial conteo de ronda r.iso8601('2021-03-03T14:35:14.933988+00:00')
2021-03-03 11:35:18,924 INFO  47147 /home/david/.virtualenvs/eryocollector/lib/python3.8/site-packages/basic_logtools/filelog.py filelog.py filelog save Inicial conteo de ronda r.iso8601('2021-03-03T14:35:16.935884+00:00')
2021-03-03 11:35:20,926 INFO  47147 /home/david/.virtualenvs/eryocollector/lib/python3.8/site-packages/basic_logtools/filelog.py filelog.py filelog save Inicial conteo de ronda r.iso8601('2021-03-03T14:35:18.925517+00:00')
2021-03-03 11:35:20,951 INFO  47147 /home/david/.virtualenvs/eryocollector/lib/python3.8/site-packages/basic_logtools/filelog.py filelog.py filelog save Inicial conteo de ronda r.iso8601('2021-03-03T14:35:20.927549+00:00')
2021-03-03 11:35:22,957 INFO  47147 /home/david/.virtualenvs/eryocollector/lib/python3.8/site-packages/basic_logtools/filelog.py filelog.py filelog save Inicial conteo de ronda r.iso8601('2021-03-03T14:35:20.952527+00:00')
2021-03-03 11:35:24,944 INFO  47147 /home/david/.virtualenvs/eryocollector/lib/python3.8/site-packages/basic_logtools/filelog.py filelog.py filelog save Inicial conteo de ronda r.iso8601('2021-03-03T14:35:22.959236+00:00')
2021-03-03 11:35:26,957 INFO  47147 /home/david/.virtualenvs/eryocollector/lib/python3.8/site-packages/basic_logtools/filelog.py filelog.py filelog save Inicial conteo de ronda r.iso8601('2021-03-03T14:35:24.946517+00:00')
2021-03-03 11:35:28,960 INFO  47147 /home/david/.virtualenvs/eryocollector/lib/python3.8/site-packages/basic_logtools/filelog.py filelog.py filelog save Inicial conteo de ronda r.iso8601('2021-03-03T14:35:26.958985+00:00')
2021-03-03 11:35:30,985 INFO  47147 /home/david/.virtualenvs/eryocollector/lib/python3.8/site-packages/basic_logtools/filelog.py filelog.py filelog save Inicial conteo de ronda r.iso8601('2021-03-03T14:35:28.960793+00:00')
2021-03-03 11:35:32,967 INFO  47147 /home/david/.virtualenvs/eryocollector/lib/python3.8/site-packages/basic_logtools/filelog.py filelog.py filelog save Inicial conteo de ronda r.iso8601('2021-03-03T14:35:30.986546+00:00')
2021-03-03 11:35:34,972 INFO  47147 /home/david/.virtualenvs/eryocollector/lib/python3.8/site-packages/basic_logtools/filelog.py filelog.py filelog save Inicial conteo de ronda r.iso8601('2021-03-03T14:35:32.967469+00:00')
2021-03-03 11:35:36,990 INFO  47147 /home/david/.virtualenvs/eryocollector/lib/python3.8/site-packages/basic_logtools/filelog.py filelog.py filelog save Inicial conteo de ronda r.iso8601('2021-03-03T14:35:34.972417+00:00')
2021-03-03 11:35:38,994 INFO  47147 /home/david/.virtualenvs/eryocollector/lib/python3.8/site-packages/basic_logtools/filelog.py filelog.py filelog save Inicial conteo de ronda r.iso8601('2021-03-03T14:35:36.992236+00:00')
2021-03-03 11:35:40,977 INFO  47147 /home/david/.virtualenvs/eryocollector/lib/python3.8/site-packages/basic_logtools/filelog.py filelog.py filelog save Inicial conteo de ronda r.iso8601('2021-03-03T14:35:38.995078+00:00')
2021-03-03 11:35:42,982 INFO  47147 /home/david/.virtualenvs/eryocollector/lib/python3.8/site-packages/basic_logtools/filelog.py filelog.py filelog save Inicial conteo de ronda r.iso8601('2021-03-03T14:35:40.977290+00:00')
2021-03-03 11:35:42,996 INFO  47147 /home/david/.virtualenvs/eryocollector/lib/python3.8/site-packages/basic_logtools/filelog.py filelog.py filelog save Inicial conteo de ronda r.iso8601('2021-03-03T14:35:42.983332+00:00')
2021-03-03 11:35:45,002 INFO  47147 /home/david/.virtualenvs/eryocollector/lib/python3.8/site-packages/basic_logtools/filelog.py filelog.py filelog save Inicial conteo de ronda r.iso8601('2021-03-03T14:35:42.996959+00:00')
2021-03-03 11:35:46,994 INFO  47147 /home/david/.virtualenvs/eryocollector/lib/python3.8/site-packages/basic_logtools/filelog.py filelog.py filelog save Inicial conteo de ronda r.iso8601('2021-03-03T14:35:45.003137+00:00')
2021-03-03 11:35:48,999 INFO  47147 /home/david/.virtualenvs/eryocollector/lib/python3.8/site-packages/basic_logtools/filelog.py filelog.py filelog save Inicial conteo de ronda r.iso8601('2021-03-03T14:35:46.995888+00:00')
2021-03-03 11:35:51,002 INFO  47147 /home/david/.virtualenvs/eryocollector/lib/python3.8/site-packages/basic_logtools/filelog.py filelog.py filelog save Inicial conteo de ronda r.iso8601('2021-03-03T14:35:49.000183+00:00')
2021-03-03 11:35:51,018 INFO  47147 /home/david/.virtualenvs/eryocollector/lib/python3.8/site-packages/basic_logtools/filelog.py filelog.py filelog save Inicial conteo de ronda r.iso8601('2021-03-03T14:35:51.002924+00:00')
2021-03-03 11:35:53,016 INFO  47147 /home/david/.virtualenvs/eryocollector/lib/python3.8/site-packages/basic_logtools/filelog.py filelog.py filelog save Inicial conteo de ronda r.iso8601('2021-03-03T14:35:51.018429+00:00')
2021-03-03 11:35:55,008 INFO  47147 /home/david/.virtualenvs/eryocollector/lib/python3.8/site-packages/basic_logtools/filelog.py filelog.py filelog save Inicial conteo de ronda r.iso8601('2021-03-03T14:35:53.016724+00:00')
2021-03-03 11:35:57,010 INFO  47147 /home/david/.virtualenvs/eryocollector/lib/python3.8/site-packages/basic_logtools/filelog.py filelog.py filelog save Inicial conteo de ronda r.iso8601('2021-03-03T14:35:55.008810+00:00')
2021-03-03 11:35:57,026 INFO  47147 /home/david/.virtualenvs/eryocollector/lib/python3.8/site-packages/basic_logtools/filelog.py filelog.py filelog save Inicial conteo de ronda r.iso8601('2021-03-03T14:35:57.011232+00:00')
2021-03-03 11:35:59,031 INFO  47147 /home/david/.virtualenvs/eryocollector/lib/python3.8/site-packages/basic_logtools/filelog.py filelog.py filelog save Inicial conteo de ronda r.iso8601('2021-03-03T14:35:57.027123+00:00')
2021-03-03 11:36:01,020 INFO  47147 /home/david/.virtualenvs/eryocollector/lib/python3.8/site-packages/basic_logtools/filelog.py filelog.py filelog save Inicial conteo de ronda r.iso8601('2021-03-03T14:35:59.032291+00:00')
2021-03-03 11:36:03,017 INFO  47147 /home/david/.virtualenvs/eryocollector/lib/python3.8/site-packages/basic_logtools/filelog.py filelog.py filelog save Inicial conteo de ronda r.iso8601('2021-03-03T14:36:01.020485+00:00')
2021-03-03 11:36:03,032 INFO  47147 /home/david/.virtualenvs/eryocollector/lib/python3.8/site-packages/basic_logtools/filelog.py filelog.py filelog save Inicial conteo de ronda r.iso8601('2021-03-03T14:36:03.017780+00:00')
2021-03-03 11:36:05,040 INFO  47147 /home/david/.virtualenvs/eryocollector/lib/python3.8/site-packages/basic_logtools/filelog.py filelog.py filelog save Inicial conteo de ronda r.iso8601('2021-03-03T14:36:03.032494+00:00')
2021-03-03 11:36:07,030 INFO  47147 /home/david/.virtualenvs/eryocollector/lib/python3.8/site-packages/basic_logtools/filelog.py filelog.py filelog save Inicial conteo de ronda r.iso8601('2021-03-03T14:36:05.041329+00:00')
2021-03-03 11:36:09,039 INFO  47147 /home/david/.virtualenvs/eryocollector/lib/python3.8/site-packages/basic_logtools/filelog.py filelog.py filelog save Inicial conteo de ronda r.iso8601('2021-03-03T14:36:07.030857+00:00')
2021-03-03 11:36:11,048 INFO  47147 /home/david/.virtualenvs/eryocollector/lib/python3.8/site-packages/basic_logtools/filelog.py filelog.py filelog save Inicial conteo de ronda r.iso8601('2021-03-03T14:36:09.040089+00:00')
2021-03-03 11:36:13,048 INFO  47147 /home/david/.virtualenvs/eryocollector/lib/python3.8/site-packages/basic_logtools/filelog.py filelog.py filelog save Inicial conteo de ronda r.iso8601('2021-03-03T14:36:11.049257+00:00')
2021-03-03 11:36:15,053 INFO  47147 /home/david/.virtualenvs/eryocollector/lib/python3.8/site-packages/basic_logtools/filelog.py filelog.py filelog save Inicial conteo de ronda r.iso8601('2021-03-03T14:36:13.048823+00:00')
2021-03-03 11:36:17,050 INFO  47147 /home/david/.virtualenvs/eryocollector/lib/python3.8/site-packages/basic_logtools/filelog.py filelog.py filelog save Inicial conteo de ronda r.iso8601('2021-03-03T14:36:15.053405+00:00')
2021-03-03 11:36:19,058 INFO  47147 /home/david/.virtualenvs/eryocollector/lib/python3.8/site-packages/basic_logtools/filelog.py filelog.py filelog save Inicial conteo de ronda r.iso8601('2021-03-03T14:36:17.050517+00:00')
2021-03-03 11:36:21,060 INFO  47147 /home/david/.virtualenvs/eryocollector/lib/python3.8/site-packages/basic_logtools/filelog.py filelog.py filelog save Inicial conteo de ronda r.iso8601('2021-03-03T14:36:19.058757+00:00')
2021-03-03 11:36:23,069 INFO  47147 /home/david/.virtualenvs/eryocollector/lib/python3.8/site-packages/basic_logtools/filelog.py filelog.py filelog save Inicial conteo de ronda r.iso8601('2021-03-03T14:36:21.060415+00:00')
2021-03-03 11:36:25,075 INFO  47147 /home/david/.virtualenvs/eryocollector/lib/python3.8/site-packages/basic_logtools/filelog.py filelog.py filelog save Inicial conteo de ronda r.iso8601('2021-03-03T14:36:23.070465+00:00')
2021-03-03 11:36:27,087 INFO  47147 /home/david/.virtualenvs/eryocollector/lib/python3.8/site-packages/basic_logtools/filelog.py filelog.py filelog save Inicial conteo de ronda r.iso8601('2021-03-03T14:36:25.076511+00:00')
