2021-02-23 19:23:13,919 INFO  75046 /home/david/.virtualenvs/eryocollector/lib/python3.8/site-packages/basic_logtools/filelog.py filelog.py filelog save Inicial conteo de ronda r.iso8601('2021-02-23T22:23:13.910253+00:00')
2021-02-23 19:23:13,923 INFO  75046 /home/david/.virtualenvs/eryocollector/lib/python3.8/site-packages/basic_logtools/filelog.py filelog.py filelog save Inicial conteo de ronda r.iso8601('2021-02-23T22:23:13.910583+00:00')
2021-02-23 19:23:13,927 INFO  75046 /home/david/.virtualenvs/eryocollector/lib/python3.8/site-packages/basic_logtools/filelog.py filelog.py filelog save Inicial conteo de ronda r.iso8601('2021-02-23T22:23:13.911960+00:00')
2021-02-23 19:23:13,927 INFO  75046 /home/david/.virtualenvs/eryocollector/lib/python3.8/site-packages/basic_logtools/filelog.py filelog.py filelog save Inicial conteo de ronda r.iso8601('2021-02-23T22:23:13.912699+00:00')
2021-02-23 19:23:13,928 INFO  75046 /home/david/.virtualenvs/eryocollector/lib/python3.8/site-packages/basic_logtools/filelog.py filelog.py filelog save Inicial conteo de ronda r.iso8601('2021-02-23T22:23:13.911247+00:00')
2021-02-23 19:23:13,928 INFO  75046 /home/david/.virtualenvs/eryocollector/lib/python3.8/site-packages/basic_logtools/filelog.py filelog.py filelog save Inicial conteo de ronda r.iso8601('2021-02-23T22:23:13.913521+00:00')
2021-02-23 19:23:13,932 INFO  75046 /home/david/.virtualenvs/eryocollector/lib/python3.8/site-packages/basic_logtools/filelog.py filelog.py filelog save Inicial conteo de ronda r.iso8601('2021-02-23T22:23:13.916520+00:00')
2021-02-23 19:23:13,932 INFO  75046 /home/david/.virtualenvs/eryocollector/lib/python3.8/site-packages/basic_logtools/filelog.py filelog.py filelog save Inicial conteo de ronda r.iso8601('2021-02-23T22:23:13.917180+00:00')
2021-02-23 19:23:13,933 INFO  75046 /home/david/.virtualenvs/eryocollector/lib/python3.8/site-packages/basic_logtools/filelog.py filelog.py filelog save Inicial conteo de ronda r.iso8601('2021-02-23T22:23:13.917877+00:00')
2021-02-23 19:23:13,933 INFO  75046 /home/david/.virtualenvs/eryocollector/lib/python3.8/site-packages/basic_logtools/filelog.py filelog.py filelog save Inicial conteo de ronda r.iso8601('2021-02-23T22:23:13.915753+00:00')
2021-02-23 19:23:13,936 INFO  75046 /home/david/.virtualenvs/eryocollector/lib/python3.8/site-packages/basic_logtools/filelog.py filelog.py filelog save Inicial conteo de ronda r.iso8601('2021-02-23T22:23:13.921174+00:00')
2021-02-23 19:23:13,936 INFO  75046 /home/david/.virtualenvs/eryocollector/lib/python3.8/site-packages/basic_logtools/filelog.py filelog.py filelog save Inicial conteo de ronda r.iso8601('2021-02-23T22:23:13.922476+00:00')
2021-02-23 19:23:13,937 INFO  75046 /home/david/.virtualenvs/eryocollector/lib/python3.8/site-packages/basic_logtools/filelog.py filelog.py filelog save Inicial conteo de ronda r.iso8601('2021-02-23T22:23:13.923341+00:00')
2021-02-23 19:23:13,937 INFO  75046 /home/david/.virtualenvs/eryocollector/lib/python3.8/site-packages/basic_logtools/filelog.py filelog.py filelog save Inicial conteo de ronda r.iso8601('2021-02-23T22:23:13.918569+00:00')
2021-02-23 19:23:14,274 INFO  75046 /home/david/.virtualenvs/eryocollector/lib/python3.8/site-packages/basic_logtools/filelog.py filelog.py filelog save Inicial conteo de ronda r.iso8601('2021-02-23T22:23:14.269400+00:00')
2021-02-23 19:23:14,274 INFO  75046 /home/david/.virtualenvs/eryocollector/lib/python3.8/site-packages/basic_logtools/filelog.py filelog.py filelog save Inicial conteo de ronda r.iso8601('2021-02-23T22:23:14.269986+00:00')
2021-02-23 19:23:14,298 INFO  75046 /home/david/.virtualenvs/eryocollector/lib/python3.8/site-packages/basic_logtools/filelog.py filelog.py filelog save Inicial conteo de ronda r.iso8601('2021-02-23T22:23:14.290589+00:00')
2021-02-23 19:23:14,298 INFO  75046 /home/david/.virtualenvs/eryocollector/lib/python3.8/site-packages/basic_logtools/filelog.py filelog.py filelog save Inicial conteo de ronda r.iso8601('2021-02-23T22:23:14.291186+00:00')
2021-02-23 19:23:14,299 INFO  75046 /home/david/.virtualenvs/eryocollector/lib/python3.8/site-packages/basic_logtools/filelog.py filelog.py filelog save Inicial conteo de ronda r.iso8601('2021-02-23T22:23:14.291638+00:00')
2021-02-23 19:23:14,300 INFO  75046 /home/david/.virtualenvs/eryocollector/lib/python3.8/site-packages/basic_logtools/filelog.py filelog.py filelog save Inicial conteo de ronda r.iso8601('2021-02-23T22:23:14.292176+00:00')
2021-02-23 19:23:14,302 INFO  75046 /home/david/.virtualenvs/eryocollector/lib/python3.8/site-packages/basic_logtools/filelog.py filelog.py filelog save Inicial conteo de ronda r.iso8601('2021-02-23T22:23:14.292557+00:00')
2021-02-23 19:23:14,303 INFO  75046 /home/david/.virtualenvs/eryocollector/lib/python3.8/site-packages/basic_logtools/filelog.py filelog.py filelog save Inicial conteo de ronda r.iso8601('2021-02-23T22:23:14.293059+00:00')
2021-02-23 19:23:14,303 INFO  75046 /home/david/.virtualenvs/eryocollector/lib/python3.8/site-packages/basic_logtools/filelog.py filelog.py filelog save Inicial conteo de ronda r.iso8601('2021-02-23T22:23:14.293709+00:00')
2021-02-23 19:23:14,669 INFO  75046 /home/david/.virtualenvs/eryocollector/lib/python3.8/site-packages/basic_logtools/filelog.py filelog.py filelog save Inicial conteo de ronda r.iso8601('2021-02-23T22:23:14.664521+00:00')
2021-02-23 19:23:14,669 INFO  75046 /home/david/.virtualenvs/eryocollector/lib/python3.8/site-packages/basic_logtools/filelog.py filelog.py filelog save Inicial conteo de ronda r.iso8601('2021-02-23T22:23:14.665018+00:00')
2021-02-23 19:23:14,703 INFO  75046 /home/david/.virtualenvs/eryocollector/lib/python3.8/site-packages/basic_logtools/filelog.py filelog.py filelog save Inicial conteo de ronda r.iso8601('2021-02-23T22:23:14.695574+00:00')
2021-02-23 19:23:14,704 INFO  75046 /home/david/.virtualenvs/eryocollector/lib/python3.8/site-packages/basic_logtools/filelog.py filelog.py filelog save Inicial conteo de ronda r.iso8601('2021-02-23T22:23:14.695872+00:00')
2021-02-23 19:23:14,704 INFO  75046 /home/david/.virtualenvs/eryocollector/lib/python3.8/site-packages/basic_logtools/filelog.py filelog.py filelog save Inicial conteo de ronda r.iso8601('2021-02-23T22:23:14.696740+00:00')
2021-02-23 19:23:14,705 INFO  75046 /home/david/.virtualenvs/eryocollector/lib/python3.8/site-packages/basic_logtools/filelog.py filelog.py filelog save Inicial conteo de ronda r.iso8601('2021-02-23T22:23:14.697209+00:00')
2021-02-23 19:23:14,711 INFO  75046 /home/david/.virtualenvs/eryocollector/lib/python3.8/site-packages/basic_logtools/filelog.py filelog.py filelog save Inicial conteo de ronda r.iso8601('2021-02-23T22:23:14.697708+00:00')
2021-02-23 19:23:14,712 INFO  75046 /home/david/.virtualenvs/eryocollector/lib/python3.8/site-packages/basic_logtools/filelog.py filelog.py filelog save Inicial conteo de ronda r.iso8601('2021-02-23T22:23:14.700017+00:00')
2021-02-23 19:23:14,712 INFO  75046 /home/david/.virtualenvs/eryocollector/lib/python3.8/site-packages/basic_logtools/filelog.py filelog.py filelog save Inicial conteo de ronda r.iso8601('2021-02-23T22:23:14.698329+00:00')
2021-02-23 19:23:14,713 INFO  75046 /home/david/.virtualenvs/eryocollector/lib/python3.8/site-packages/basic_logtools/filelog.py filelog.py filelog save Inicial conteo de ronda r.iso8601('2021-02-23T22:23:14.700666+00:00')
2021-02-23 19:23:14,715 INFO  75046 /home/david/.virtualenvs/eryocollector/lib/python3.8/site-packages/basic_logtools/filelog.py filelog.py filelog save Inicial conteo de ronda r.iso8601('2021-02-23T22:23:14.701489+00:00')
2021-02-23 19:23:14,716 INFO  75046 /home/david/.virtualenvs/eryocollector/lib/python3.8/site-packages/basic_logtools/filelog.py filelog.py filelog save Inicial conteo de ronda r.iso8601('2021-02-23T22:23:14.703053+00:00')
2021-02-23 19:23:14,716 INFO  75046 /home/david/.virtualenvs/eryocollector/lib/python3.8/site-packages/basic_logtools/filelog.py filelog.py filelog save Inicial conteo de ronda r.iso8601('2021-02-23T22:23:14.702208+00:00')
2021-02-23 19:23:14,718 INFO  75046 /home/david/.virtualenvs/eryocollector/lib/python3.8/site-packages/basic_logtools/filelog.py filelog.py filelog save Inicial conteo de ronda r.iso8601('2021-02-23T22:23:14.703717+00:00')
2021-02-23 19:23:14,720 INFO  75046 /home/david/.virtualenvs/eryocollector/lib/python3.8/site-packages/basic_logtools/filelog.py filelog.py filelog save Inicial conteo de ronda r.iso8601('2021-02-23T22:23:14.704368+00:00')
2021-02-23 19:23:14,722 INFO  75046 /home/david/.virtualenvs/eryocollector/lib/python3.8/site-packages/basic_logtools/filelog.py filelog.py filelog save Inicial conteo de ronda r.iso8601('2021-02-23T22:23:14.705416+00:00')
2021-02-23 19:23:14,722 INFO  75046 /home/david/.virtualenvs/eryocollector/lib/python3.8/site-packages/basic_logtools/filelog.py filelog.py filelog save Inicial conteo de ronda r.iso8601('2021-02-23T22:23:14.706700+00:00')
2021-02-23 19:23:14,723 INFO  75046 /home/david/.virtualenvs/eryocollector/lib/python3.8/site-packages/basic_logtools/filelog.py filelog.py filelog save Inicial conteo de ronda r.iso8601('2021-02-23T22:23:14.707795+00:00')
2021-02-23 19:23:14,724 INFO  75046 /home/david/.virtualenvs/eryocollector/lib/python3.8/site-packages/basic_logtools/filelog.py filelog.py filelog save Inicial conteo de ronda r.iso8601('2021-02-23T22:23:14.708622+00:00')
2021-02-23 19:23:14,725 INFO  75046 /home/david/.virtualenvs/eryocollector/lib/python3.8/site-packages/basic_logtools/filelog.py filelog.py filelog save Inicial conteo de ronda r.iso8601('2021-02-23T22:23:14.709211+00:00')
2021-02-23 19:23:15,092 INFO  75046 /home/david/.virtualenvs/eryocollector/lib/python3.8/site-packages/basic_logtools/filelog.py filelog.py filelog save Inicial conteo de ronda r.iso8601('2021-02-23T22:23:15.088945+00:00')
2021-02-23 19:23:15,092 INFO  75046 /home/david/.virtualenvs/eryocollector/lib/python3.8/site-packages/basic_logtools/filelog.py filelog.py filelog save Inicial conteo de ronda r.iso8601('2021-02-23T22:23:15.089275+00:00')
