2021-02-24 16:38:40,817 INFO  37549 /home/david/.virtualenvs/eryocollector/lib/python3.8/site-packages/basic_logtools/filelog.py filelog.py filelog save Inicial conteo de ronda r.iso8601('2021-02-24T19:38:38.812048+00:00')
2021-02-24 16:38:42,819 INFO  37549 /home/david/.virtualenvs/eryocollector/lib/python3.8/site-packages/basic_logtools/filelog.py filelog.py filelog save Inicial conteo de ronda r.iso8601('2021-02-24T19:38:40.824021+00:00')
2021-02-24 16:38:44,824 INFO  37549 /home/david/.virtualenvs/eryocollector/lib/python3.8/site-packages/basic_logtools/filelog.py filelog.py filelog save Inicial conteo de ronda r.iso8601('2021-02-24T19:38:42.820390+00:00')
2021-02-24 16:38:46,834 INFO  37549 /home/david/.virtualenvs/eryocollector/lib/python3.8/site-packages/basic_logtools/filelog.py filelog.py filelog save Inicial conteo de ronda r.iso8601('2021-02-24T19:38:44.825305+00:00')
2021-02-24 16:38:48,843 INFO  37549 /home/david/.virtualenvs/eryocollector/lib/python3.8/site-packages/basic_logtools/filelog.py filelog.py filelog save Inicial conteo de ronda r.iso8601('2021-02-24T19:38:46.835586+00:00')
2021-02-24 16:38:50,838 INFO  37549 /home/david/.virtualenvs/eryocollector/lib/python3.8/site-packages/basic_logtools/filelog.py filelog.py filelog save Inicial conteo de ronda r.iso8601('2021-02-24T19:38:48.844238+00:00')
2021-02-24 16:38:52,843 INFO  37549 /home/david/.virtualenvs/eryocollector/lib/python3.8/site-packages/basic_logtools/filelog.py filelog.py filelog save Inicial conteo de ronda r.iso8601('2021-02-24T19:38:50.839728+00:00')
2021-02-24 16:38:54,849 INFO  37549 /home/david/.virtualenvs/eryocollector/lib/python3.8/site-packages/basic_logtools/filelog.py filelog.py filelog save Inicial conteo de ronda r.iso8601('2021-02-24T19:38:52.844539+00:00')
2021-02-24 16:38:56,860 INFO  37549 /home/david/.virtualenvs/eryocollector/lib/python3.8/site-packages/basic_logtools/filelog.py filelog.py filelog save Inicial conteo de ronda r.iso8601('2021-02-24T19:38:54.850035+00:00')
2021-02-24 16:38:58,856 INFO  37549 /home/david/.virtualenvs/eryocollector/lib/python3.8/site-packages/basic_logtools/filelog.py filelog.py filelog save Inicial conteo de ronda r.iso8601('2021-02-24T19:38:56.861404+00:00')
2021-02-24 16:39:00,860 INFO  37549 /home/david/.virtualenvs/eryocollector/lib/python3.8/site-packages/basic_logtools/filelog.py filelog.py filelog save Inicial conteo de ronda r.iso8601('2021-02-24T19:38:58.857197+00:00')
2021-02-24 16:39:02,867 INFO  37549 /home/david/.virtualenvs/eryocollector/lib/python3.8/site-packages/basic_logtools/filelog.py filelog.py filelog save Inicial conteo de ronda r.iso8601('2021-02-24T19:39:00.861440+00:00')
2021-02-24 16:39:04,875 INFO  37549 /home/david/.virtualenvs/eryocollector/lib/python3.8/site-packages/basic_logtools/filelog.py filelog.py filelog save Inicial conteo de ronda r.iso8601('2021-02-24T19:39:02.868438+00:00')
2021-02-24 16:39:06,872 INFO  37549 /home/david/.virtualenvs/eryocollector/lib/python3.8/site-packages/basic_logtools/filelog.py filelog.py filelog save Inicial conteo de ronda r.iso8601('2021-02-24T19:39:04.876360+00:00')
2021-02-24 16:39:08,875 INFO  37549 /home/david/.virtualenvs/eryocollector/lib/python3.8/site-packages/basic_logtools/filelog.py filelog.py filelog save Inicial conteo de ronda r.iso8601('2021-02-24T19:39:06.873303+00:00')
2021-02-24 16:39:10,884 INFO  37549 /home/david/.virtualenvs/eryocollector/lib/python3.8/site-packages/basic_logtools/filelog.py filelog.py filelog save Inicial conteo de ronda r.iso8601('2021-02-24T19:39:08.876130+00:00')
2021-02-24 16:39:12,894 INFO  37549 /home/david/.virtualenvs/eryocollector/lib/python3.8/site-packages/basic_logtools/filelog.py filelog.py filelog save Inicial conteo de ronda r.iso8601('2021-02-24T19:39:10.886005+00:00')
2021-02-24 16:39:14,890 INFO  37549 /home/david/.virtualenvs/eryocollector/lib/python3.8/site-packages/basic_logtools/filelog.py filelog.py filelog save Inicial conteo de ronda r.iso8601('2021-02-24T19:39:12.896027+00:00')
2021-02-24 16:39:16,896 INFO  37549 /home/david/.virtualenvs/eryocollector/lib/python3.8/site-packages/basic_logtools/filelog.py filelog.py filelog save Inicial conteo de ronda r.iso8601('2021-02-24T19:39:14.891366+00:00')
2021-02-24 16:39:18,904 INFO  37549 /home/david/.virtualenvs/eryocollector/lib/python3.8/site-packages/basic_logtools/filelog.py filelog.py filelog save Inicial conteo de ronda r.iso8601('2021-02-24T19:39:16.897071+00:00')
2021-02-24 16:39:20,911 INFO  37549 /home/david/.virtualenvs/eryocollector/lib/python3.8/site-packages/basic_logtools/filelog.py filelog.py filelog save Inicial conteo de ronda r.iso8601('2021-02-24T19:39:18.905100+00:00')
2021-02-24 16:39:22,912 INFO  37549 /home/david/.virtualenvs/eryocollector/lib/python3.8/site-packages/basic_logtools/filelog.py filelog.py filelog save Inicial conteo de ronda r.iso8601('2021-02-24T19:39:20.912048+00:00')
2021-02-24 16:39:24,920 INFO  37549 /home/david/.virtualenvs/eryocollector/lib/python3.8/site-packages/basic_logtools/filelog.py filelog.py filelog save Inicial conteo de ronda r.iso8601('2021-02-24T19:39:22.913225+00:00')
2021-02-24 16:39:26,922 INFO  37549 /home/david/.virtualenvs/eryocollector/lib/python3.8/site-packages/basic_logtools/filelog.py filelog.py filelog save Inicial conteo de ronda r.iso8601('2021-02-24T19:39:24.921898+00:00')
2021-02-24 16:39:28,928 INFO  37549 /home/david/.virtualenvs/eryocollector/lib/python3.8/site-packages/basic_logtools/filelog.py filelog.py filelog save Inicial conteo de ronda r.iso8601('2021-02-24T19:39:26.923354+00:00')
2021-02-24 16:39:30,934 INFO  37549 /home/david/.virtualenvs/eryocollector/lib/python3.8/site-packages/basic_logtools/filelog.py filelog.py filelog save Inicial conteo de ronda r.iso8601('2021-02-24T19:39:28.929286+00:00')
2021-02-24 16:39:32,941 INFO  37549 /home/david/.virtualenvs/eryocollector/lib/python3.8/site-packages/basic_logtools/filelog.py filelog.py filelog save Inicial conteo de ronda r.iso8601('2021-02-24T19:39:30.935132+00:00')
2021-02-24 16:39:34,944 INFO  37549 /home/david/.virtualenvs/eryocollector/lib/python3.8/site-packages/basic_logtools/filelog.py filelog.py filelog save Inicial conteo de ronda r.iso8601('2021-02-24T19:39:32.942606+00:00')
2021-02-24 16:39:36,951 INFO  37549 /home/david/.virtualenvs/eryocollector/lib/python3.8/site-packages/basic_logtools/filelog.py filelog.py filelog save Inicial conteo de ronda r.iso8601('2021-02-24T19:39:34.945257+00:00')
2021-02-24 16:39:38,958 INFO  37549 /home/david/.virtualenvs/eryocollector/lib/python3.8/site-packages/basic_logtools/filelog.py filelog.py filelog save Inicial conteo de ronda r.iso8601('2021-02-24T19:39:36.952855+00:00')
2021-02-24 16:39:40,959 INFO  37549 /home/david/.virtualenvs/eryocollector/lib/python3.8/site-packages/basic_logtools/filelog.py filelog.py filelog save Inicial conteo de ronda r.iso8601('2021-02-24T19:39:38.959070+00:00')
2021-02-24 16:39:42,963 INFO  37549 /home/david/.virtualenvs/eryocollector/lib/python3.8/site-packages/basic_logtools/filelog.py filelog.py filelog save Inicial conteo de ronda r.iso8601('2021-02-24T19:39:40.960158+00:00')
2021-02-24 16:39:44,970 INFO  37549 /home/david/.virtualenvs/eryocollector/lib/python3.8/site-packages/basic_logtools/filelog.py filelog.py filelog save Inicial conteo de ronda r.iso8601('2021-02-24T19:39:42.964907+00:00')
2021-02-24 16:39:46,975 INFO  37549 /home/david/.virtualenvs/eryocollector/lib/python3.8/site-packages/basic_logtools/filelog.py filelog.py filelog save Inicial conteo de ronda r.iso8601('2021-02-24T19:39:44.971793+00:00')
2021-02-24 16:39:48,979 INFO  37549 /home/david/.virtualenvs/eryocollector/lib/python3.8/site-packages/basic_logtools/filelog.py filelog.py filelog save Inicial conteo de ronda r.iso8601('2021-02-24T19:39:46.976461+00:00')
2021-02-24 16:39:50,987 INFO  37549 /home/david/.virtualenvs/eryocollector/lib/python3.8/site-packages/basic_logtools/filelog.py filelog.py filelog save Inicial conteo de ronda r.iso8601('2021-02-24T19:39:48.980472+00:00')
2021-02-24 16:39:52,991 INFO  37549 /home/david/.virtualenvs/eryocollector/lib/python3.8/site-packages/basic_logtools/filelog.py filelog.py filelog save Inicial conteo de ronda r.iso8601('2021-02-24T19:39:50.988145+00:00')
2021-02-24 16:39:54,995 INFO  37549 /home/david/.virtualenvs/eryocollector/lib/python3.8/site-packages/basic_logtools/filelog.py filelog.py filelog save Inicial conteo de ronda r.iso8601('2021-02-24T19:39:52.992508+00:00')
2021-02-24 16:39:56,996 INFO  37549 /home/david/.virtualenvs/eryocollector/lib/python3.8/site-packages/basic_logtools/filelog.py filelog.py filelog save Inicial conteo de ronda r.iso8601('2021-02-24T19:39:54.996055+00:00')
2021-02-24 16:39:59,004 INFO  37549 /home/david/.virtualenvs/eryocollector/lib/python3.8/site-packages/basic_logtools/filelog.py filelog.py filelog save Inicial conteo de ronda r.iso8601('2021-02-24T19:39:56.997947+00:00')
2021-02-24 16:40:01,008 INFO  37549 /home/david/.virtualenvs/eryocollector/lib/python3.8/site-packages/basic_logtools/filelog.py filelog.py filelog save Inicial conteo de ronda r.iso8601('2021-02-24T19:39:59.005112+00:00')
2021-02-24 16:40:03,013 INFO  37549 /home/david/.virtualenvs/eryocollector/lib/python3.8/site-packages/basic_logtools/filelog.py filelog.py filelog save Inicial conteo de ronda r.iso8601('2021-02-24T19:40:01.009914+00:00')
2021-02-24 16:40:05,023 INFO  37549 /home/david/.virtualenvs/eryocollector/lib/python3.8/site-packages/basic_logtools/filelog.py filelog.py filelog save Inicial conteo de ronda r.iso8601('2021-02-24T19:40:03.014385+00:00')
2021-02-24 16:40:07,022 INFO  37549 /home/david/.virtualenvs/eryocollector/lib/python3.8/site-packages/basic_logtools/filelog.py filelog.py filelog save Inicial conteo de ronda r.iso8601('2021-02-24T19:40:05.025054+00:00')
2021-02-24 16:40:09,030 INFO  37549 /home/david/.virtualenvs/eryocollector/lib/python3.8/site-packages/basic_logtools/filelog.py filelog.py filelog save Inicial conteo de ronda r.iso8601('2021-02-24T19:40:07.024104+00:00')
