2021-02-23 19:23:02,694 INFO  75046 /home/david/.virtualenvs/eryocollector/lib/python3.8/site-packages/basic_logtools/filelog.py filelog.py filelog save Inicial conteo de ronda r.iso8601('2021-02-23T22:23:02.687550+00:00')
2021-02-23 19:23:02,696 INFO  75046 /home/david/.virtualenvs/eryocollector/lib/python3.8/site-packages/basic_logtools/filelog.py filelog.py filelog save Inicial conteo de ronda r.iso8601('2021-02-23T22:23:02.688024+00:00')
2021-02-23 19:23:02,697 INFO  75046 /home/david/.virtualenvs/eryocollector/lib/python3.8/site-packages/basic_logtools/filelog.py filelog.py filelog save Inicial conteo de ronda r.iso8601('2021-02-23T22:23:02.688476+00:00')
2021-02-23 19:23:02,697 INFO  75046 /home/david/.virtualenvs/eryocollector/lib/python3.8/site-packages/basic_logtools/filelog.py filelog.py filelog save Inicial conteo de ronda r.iso8601('2021-02-23T22:23:02.688935+00:00')
2021-02-23 19:23:02,702 INFO  75046 /home/david/.virtualenvs/eryocollector/lib/python3.8/site-packages/basic_logtools/filelog.py filelog.py filelog save Inicial conteo de ronda r.iso8601('2021-02-23T22:23:02.689343+00:00')
2021-02-23 19:23:02,703 INFO  75046 /home/david/.virtualenvs/eryocollector/lib/python3.8/site-packages/basic_logtools/filelog.py filelog.py filelog save Inicial conteo de ronda r.iso8601('2021-02-23T22:23:02.689806+00:00')
2021-02-23 19:23:02,704 INFO  75046 /home/david/.virtualenvs/eryocollector/lib/python3.8/site-packages/basic_logtools/filelog.py filelog.py filelog save Inicial conteo de ronda r.iso8601('2021-02-23T22:23:02.690451+00:00')
2021-02-23 19:23:02,704 INFO  75046 /home/david/.virtualenvs/eryocollector/lib/python3.8/site-packages/basic_logtools/filelog.py filelog.py filelog save Inicial conteo de ronda r.iso8601('2021-02-23T22:23:02.691020+00:00')
2021-02-23 19:23:02,706 INFO  75046 /home/david/.virtualenvs/eryocollector/lib/python3.8/site-packages/basic_logtools/filelog.py filelog.py filelog save Inicial conteo de ronda r.iso8601('2021-02-23T22:23:02.693056+00:00')
2021-02-23 19:23:02,706 INFO  75046 /home/david/.virtualenvs/eryocollector/lib/python3.8/site-packages/basic_logtools/filelog.py filelog.py filelog save Inicial conteo de ronda r.iso8601('2021-02-23T22:23:02.693650+00:00')
2021-02-23 19:23:02,708 INFO  75046 /home/david/.virtualenvs/eryocollector/lib/python3.8/site-packages/basic_logtools/filelog.py filelog.py filelog save Inicial conteo de ronda r.iso8601('2021-02-23T22:23:02.695969+00:00')
2021-02-23 19:23:02,708 INFO  75046 /home/david/.virtualenvs/eryocollector/lib/python3.8/site-packages/basic_logtools/filelog.py filelog.py filelog save Inicial conteo de ronda r.iso8601('2021-02-23T22:23:02.694179+00:00')
2021-02-23 19:23:02,711 INFO  75046 /home/david/.virtualenvs/eryocollector/lib/python3.8/site-packages/basic_logtools/filelog.py filelog.py filelog save Inicial conteo de ronda r.iso8601('2021-02-23T22:23:02.697389+00:00')
2021-02-23 19:23:02,711 INFO  75046 /home/david/.virtualenvs/eryocollector/lib/python3.8/site-packages/basic_logtools/filelog.py filelog.py filelog save Inicial conteo de ronda r.iso8601('2021-02-23T22:23:02.696629+00:00')
2021-02-23 19:23:02,712 INFO  75046 /home/david/.virtualenvs/eryocollector/lib/python3.8/site-packages/basic_logtools/filelog.py filelog.py filelog save Inicial conteo de ronda r.iso8601('2021-02-23T22:23:02.698460+00:00')
2021-02-23 19:23:02,712 INFO  75046 /home/david/.virtualenvs/eryocollector/lib/python3.8/site-packages/basic_logtools/filelog.py filelog.py filelog save Inicial conteo de ronda r.iso8601('2021-02-23T22:23:02.699594+00:00')
2021-02-23 19:23:02,715 INFO  75046 /home/david/.virtualenvs/eryocollector/lib/python3.8/site-packages/basic_logtools/filelog.py filelog.py filelog save Inicial conteo de ronda r.iso8601('2021-02-23T22:23:02.700509+00:00')
2021-02-23 19:23:03,059 INFO  75046 /home/david/.virtualenvs/eryocollector/lib/python3.8/site-packages/basic_logtools/filelog.py filelog.py filelog save Inicial conteo de ronda r.iso8601('2021-02-23T22:23:03.053898+00:00')
2021-02-23 19:23:03,060 INFO  75046 /home/david/.virtualenvs/eryocollector/lib/python3.8/site-packages/basic_logtools/filelog.py filelog.py filelog save Inicial conteo de ronda r.iso8601('2021-02-23T22:23:03.054214+00:00')
2021-02-23 19:23:03,060 INFO  75046 /home/david/.virtualenvs/eryocollector/lib/python3.8/site-packages/basic_logtools/filelog.py filelog.py filelog save Inicial conteo de ronda r.iso8601('2021-02-23T22:23:03.054943+00:00')
2021-02-23 19:23:03,061 INFO  75046 /home/david/.virtualenvs/eryocollector/lib/python3.8/site-packages/basic_logtools/filelog.py filelog.py filelog save Inicial conteo de ronda r.iso8601('2021-02-23T22:23:03.055319+00:00')
2021-02-23 19:23:03,064 INFO  75046 /home/david/.virtualenvs/eryocollector/lib/python3.8/site-packages/basic_logtools/filelog.py filelog.py filelog save Inicial conteo de ronda r.iso8601('2021-02-23T22:23:03.055972+00:00')
2021-02-23 19:23:03,064 INFO  75046 /home/david/.virtualenvs/eryocollector/lib/python3.8/site-packages/basic_logtools/filelog.py filelog.py filelog save Inicial conteo de ronda r.iso8601('2021-02-23T22:23:03.056415+00:00')
2021-02-23 19:23:03,064 INFO  75046 /home/david/.virtualenvs/eryocollector/lib/python3.8/site-packages/basic_logtools/filelog.py filelog.py filelog save Inicial conteo de ronda r.iso8601('2021-02-23T22:23:03.056943+00:00')
2021-02-23 19:23:03,065 INFO  75046 /home/david/.virtualenvs/eryocollector/lib/python3.8/site-packages/basic_logtools/filelog.py filelog.py filelog save Inicial conteo de ronda r.iso8601('2021-02-23T22:23:03.057544+00:00')
2021-02-23 19:23:03,066 INFO  75046 /home/david/.virtualenvs/eryocollector/lib/python3.8/site-packages/basic_logtools/filelog.py filelog.py filelog save Inicial conteo de ronda r.iso8601('2021-02-23T22:23:03.058500+00:00')
2021-02-23 19:23:03,081 INFO  75046 /home/david/.virtualenvs/eryocollector/lib/python3.8/site-packages/basic_logtools/filelog.py filelog.py filelog save Inicial conteo de ronda r.iso8601('2021-02-23T22:23:03.075954+00:00')
2021-02-23 19:23:03,082 INFO  75046 /home/david/.virtualenvs/eryocollector/lib/python3.8/site-packages/basic_logtools/filelog.py filelog.py filelog save Inicial conteo de ronda r.iso8601('2021-02-23T22:23:03.076213+00:00')
2021-02-23 19:23:03,082 INFO  75046 /home/david/.virtualenvs/eryocollector/lib/python3.8/site-packages/basic_logtools/filelog.py filelog.py filelog save Inicial conteo de ronda r.iso8601('2021-02-23T22:23:03.076655+00:00')
2021-02-23 19:23:03,082 INFO  75046 /home/david/.virtualenvs/eryocollector/lib/python3.8/site-packages/basic_logtools/filelog.py filelog.py filelog save Inicial conteo de ronda r.iso8601('2021-02-23T22:23:03.077277+00:00')
2021-02-23 19:23:03,084 INFO  75046 /home/david/.virtualenvs/eryocollector/lib/python3.8/site-packages/basic_logtools/filelog.py filelog.py filelog save Inicial conteo de ronda r.iso8601('2021-02-23T22:23:03.077560+00:00')
2021-02-23 19:23:03,456 INFO  75046 /home/david/.virtualenvs/eryocollector/lib/python3.8/site-packages/basic_logtools/filelog.py filelog.py filelog save Inicial conteo de ronda r.iso8601('2021-02-23T22:23:03.452422+00:00')
2021-02-23 19:23:03,457 INFO  75046 /home/david/.virtualenvs/eryocollector/lib/python3.8/site-packages/basic_logtools/filelog.py filelog.py filelog save Inicial conteo de ronda r.iso8601('2021-02-23T22:23:03.452987+00:00')
2021-02-23 19:23:03,458 INFO  75046 /home/david/.virtualenvs/eryocollector/lib/python3.8/site-packages/basic_logtools/filelog.py filelog.py filelog save Inicial conteo de ronda r.iso8601('2021-02-23T22:23:03.453248+00:00')
2021-02-23 19:23:03,458 INFO  75046 /home/david/.virtualenvs/eryocollector/lib/python3.8/site-packages/basic_logtools/filelog.py filelog.py filelog save Inicial conteo de ronda r.iso8601('2021-02-23T22:23:03.453712+00:00')
2021-02-23 19:23:03,460 INFO  75046 /home/david/.virtualenvs/eryocollector/lib/python3.8/site-packages/basic_logtools/filelog.py filelog.py filelog save Inicial conteo de ronda r.iso8601('2021-02-23T22:23:03.454362+00:00')
2021-02-23 19:23:03,478 INFO  75046 /home/david/.virtualenvs/eryocollector/lib/python3.8/site-packages/basic_logtools/filelog.py filelog.py filelog save Inicial conteo de ronda r.iso8601('2021-02-23T22:23:03.476251+00:00')
2021-02-23 19:23:04,136 INFO  75046 /home/david/.virtualenvs/eryocollector/lib/python3.8/site-packages/basic_logtools/filelog.py filelog.py filelog save Inicial conteo de ronda r.iso8601('2021-02-23T22:23:04.130305+00:00')
2021-02-23 19:23:04,137 INFO  75046 /home/david/.virtualenvs/eryocollector/lib/python3.8/site-packages/basic_logtools/filelog.py filelog.py filelog save Inicial conteo de ronda r.iso8601('2021-02-23T22:23:04.130608+00:00')
2021-02-23 19:23:04,138 INFO  75046 /home/david/.virtualenvs/eryocollector/lib/python3.8/site-packages/basic_logtools/filelog.py filelog.py filelog save Inicial conteo de ronda r.iso8601('2021-02-23T22:23:04.131156+00:00')
2021-02-23 19:23:04,139 INFO  75046 /home/david/.virtualenvs/eryocollector/lib/python3.8/site-packages/basic_logtools/filelog.py filelog.py filelog save Inicial conteo de ronda r.iso8601('2021-02-23T22:23:04.131613+00:00')
2021-02-23 19:23:04,147 INFO  75046 /home/david/.virtualenvs/eryocollector/lib/python3.8/site-packages/basic_logtools/filelog.py filelog.py filelog save Inicial conteo de ronda r.iso8601('2021-02-23T22:23:04.132101+00:00')
2021-02-23 19:23:04,148 INFO  75046 /home/david/.virtualenvs/eryocollector/lib/python3.8/site-packages/basic_logtools/filelog.py filelog.py filelog save Inicial conteo de ronda r.iso8601('2021-02-23T22:23:04.132703+00:00')
2021-02-23 19:23:04,149 INFO  75046 /home/david/.virtualenvs/eryocollector/lib/python3.8/site-packages/basic_logtools/filelog.py filelog.py filelog save Inicial conteo de ronda r.iso8601('2021-02-23T22:23:04.133190+00:00')
2021-02-23 19:23:04,150 INFO  75046 /home/david/.virtualenvs/eryocollector/lib/python3.8/site-packages/basic_logtools/filelog.py filelog.py filelog save Inicial conteo de ronda r.iso8601('2021-02-23T22:23:04.133830+00:00')
