2021-02-23 19:23:08,836 INFO  75046 /home/david/.virtualenvs/eryocollector/lib/python3.8/site-packages/basic_logtools/filelog.py filelog.py filelog save Inicial conteo de ronda r.iso8601('2021-02-23T22:23:08.819731+00:00')
2021-02-23 19:23:08,838 INFO  75046 /home/david/.virtualenvs/eryocollector/lib/python3.8/site-packages/basic_logtools/filelog.py filelog.py filelog save Inicial conteo de ronda r.iso8601('2021-02-23T22:23:08.821283+00:00')
2021-02-23 19:23:08,838 INFO  75046 /home/david/.virtualenvs/eryocollector/lib/python3.8/site-packages/basic_logtools/filelog.py filelog.py filelog save Inicial conteo de ronda r.iso8601('2021-02-23T22:23:08.822008+00:00')
2021-02-23 19:23:08,841 INFO  75046 /home/david/.virtualenvs/eryocollector/lib/python3.8/site-packages/basic_logtools/filelog.py filelog.py filelog save Inicial conteo de ronda r.iso8601('2021-02-23T22:23:08.822977+00:00')
2021-02-23 19:23:08,842 INFO  75046 /home/david/.virtualenvs/eryocollector/lib/python3.8/site-packages/basic_logtools/filelog.py filelog.py filelog save Inicial conteo de ronda r.iso8601('2021-02-23T22:23:08.824738+00:00')
2021-02-23 19:23:08,842 INFO  75046 /home/david/.virtualenvs/eryocollector/lib/python3.8/site-packages/basic_logtools/filelog.py filelog.py filelog save Inicial conteo de ronda r.iso8601('2021-02-23T22:23:08.826715+00:00')
2021-02-23 19:23:08,843 INFO  75046 /home/david/.virtualenvs/eryocollector/lib/python3.8/site-packages/basic_logtools/filelog.py filelog.py filelog save Inicial conteo de ronda r.iso8601('2021-02-23T22:23:08.825817+00:00')
2021-02-23 19:23:08,844 INFO  75046 /home/david/.virtualenvs/eryocollector/lib/python3.8/site-packages/basic_logtools/filelog.py filelog.py filelog save Inicial conteo de ronda r.iso8601('2021-02-23T22:23:08.828022+00:00')
2021-02-23 19:23:09,067 INFO  75046 /home/david/.virtualenvs/eryocollector/lib/python3.8/site-packages/basic_logtools/filelog.py filelog.py filelog save Inicial conteo de ronda r.iso8601('2021-02-23T22:23:09.064306+00:00')
2021-02-23 19:23:09,067 INFO  75046 /home/david/.virtualenvs/eryocollector/lib/python3.8/site-packages/basic_logtools/filelog.py filelog.py filelog save Inicial conteo de ronda r.iso8601('2021-02-23T22:23:09.064656+00:00')
2021-02-23 19:23:09,107 INFO  75046 /home/david/.virtualenvs/eryocollector/lib/python3.8/site-packages/basic_logtools/filelog.py filelog.py filelog save Inicial conteo de ronda r.iso8601('2021-02-23T22:23:09.099923+00:00')
2021-02-23 19:23:09,108 INFO  75046 /home/david/.virtualenvs/eryocollector/lib/python3.8/site-packages/basic_logtools/filelog.py filelog.py filelog save Inicial conteo de ronda r.iso8601('2021-02-23T22:23:09.100517+00:00')
2021-02-23 19:23:09,108 INFO  75046 /home/david/.virtualenvs/eryocollector/lib/python3.8/site-packages/basic_logtools/filelog.py filelog.py filelog save Inicial conteo de ronda r.iso8601('2021-02-23T22:23:09.100857+00:00')
2021-02-23 19:23:09,109 INFO  75046 /home/david/.virtualenvs/eryocollector/lib/python3.8/site-packages/basic_logtools/filelog.py filelog.py filelog save Inicial conteo de ronda r.iso8601('2021-02-23T22:23:09.101555+00:00')
2021-02-23 19:23:09,111 INFO  75046 /home/david/.virtualenvs/eryocollector/lib/python3.8/site-packages/basic_logtools/filelog.py filelog.py filelog save Inicial conteo de ronda r.iso8601('2021-02-23T22:23:09.101947+00:00')
2021-02-23 19:23:09,113 INFO  75046 /home/david/.virtualenvs/eryocollector/lib/python3.8/site-packages/basic_logtools/filelog.py filelog.py filelog save Inicial conteo de ronda r.iso8601('2021-02-23T22:23:09.102414+00:00')
2021-02-23 19:23:09,113 INFO  75046 /home/david/.virtualenvs/eryocollector/lib/python3.8/site-packages/basic_logtools/filelog.py filelog.py filelog save Inicial conteo de ronda r.iso8601('2021-02-23T22:23:09.104212+00:00')
2021-02-23 19:23:09,114 INFO  75046 /home/david/.virtualenvs/eryocollector/lib/python3.8/site-packages/basic_logtools/filelog.py filelog.py filelog save Inicial conteo de ronda r.iso8601('2021-02-23T22:23:09.104831+00:00')
2021-02-23 19:23:09,117 INFO  75046 /home/david/.virtualenvs/eryocollector/lib/python3.8/site-packages/basic_logtools/filelog.py filelog.py filelog save Inicial conteo de ronda r.iso8601('2021-02-23T22:23:09.105721+00:00')
2021-02-23 19:23:09,117 INFO  75046 /home/david/.virtualenvs/eryocollector/lib/python3.8/site-packages/basic_logtools/filelog.py filelog.py filelog save Inicial conteo de ronda r.iso8601('2021-02-23T22:23:09.106225+00:00')
2021-02-23 19:23:09,118 INFO  75046 /home/david/.virtualenvs/eryocollector/lib/python3.8/site-packages/basic_logtools/filelog.py filelog.py filelog save Inicial conteo de ronda r.iso8601('2021-02-23T22:23:09.106756+00:00')
2021-02-23 19:23:09,118 INFO  75046 /home/david/.virtualenvs/eryocollector/lib/python3.8/site-packages/basic_logtools/filelog.py filelog.py filelog save Inicial conteo de ronda r.iso8601('2021-02-23T22:23:09.107249+00:00')
2021-02-23 19:23:09,457 INFO  75046 /home/david/.virtualenvs/eryocollector/lib/python3.8/site-packages/basic_logtools/filelog.py filelog.py filelog save Inicial conteo de ronda r.iso8601('2021-02-23T22:23:09.454234+00:00')
2021-02-23 19:23:09,458 INFO  75046 /home/david/.virtualenvs/eryocollector/lib/python3.8/site-packages/basic_logtools/filelog.py filelog.py filelog save Inicial conteo de ronda r.iso8601('2021-02-23T22:23:09.454554+00:00')
2021-02-23 19:23:09,481 INFO  75046 /home/david/.virtualenvs/eryocollector/lib/python3.8/site-packages/basic_logtools/filelog.py filelog.py filelog save Inicial conteo de ronda r.iso8601('2021-02-23T22:23:09.476384+00:00')
2021-02-23 19:23:09,482 INFO  75046 /home/david/.virtualenvs/eryocollector/lib/python3.8/site-packages/basic_logtools/filelog.py filelog.py filelog save Inicial conteo de ronda r.iso8601('2021-02-23T22:23:09.477092+00:00')
2021-02-23 19:23:09,482 INFO  75046 /home/david/.virtualenvs/eryocollector/lib/python3.8/site-packages/basic_logtools/filelog.py filelog.py filelog save Inicial conteo de ronda r.iso8601('2021-02-23T22:23:09.476839+00:00')
2021-02-23 19:23:09,482 INFO  75046 /home/david/.virtualenvs/eryocollector/lib/python3.8/site-packages/basic_logtools/filelog.py filelog.py filelog save Inicial conteo de ronda r.iso8601('2021-02-23T22:23:09.477644+00:00')
2021-02-23 19:23:09,961 INFO  75046 /home/david/.virtualenvs/eryocollector/lib/python3.8/site-packages/basic_logtools/filelog.py filelog.py filelog save Inicial conteo de ronda r.iso8601('2021-02-23T22:23:09.954740+00:00')
2021-02-23 19:23:09,962 INFO  75046 /home/david/.virtualenvs/eryocollector/lib/python3.8/site-packages/basic_logtools/filelog.py filelog.py filelog save Inicial conteo de ronda r.iso8601('2021-02-23T22:23:09.955382+00:00')
2021-02-23 19:23:09,962 INFO  75046 /home/david/.virtualenvs/eryocollector/lib/python3.8/site-packages/basic_logtools/filelog.py filelog.py filelog save Inicial conteo de ronda r.iso8601('2021-02-23T22:23:09.955665+00:00')
2021-02-23 19:23:09,964 INFO  75046 /home/david/.virtualenvs/eryocollector/lib/python3.8/site-packages/basic_logtools/filelog.py filelog.py filelog save Inicial conteo de ronda r.iso8601('2021-02-23T22:23:09.956166+00:00')
2021-02-23 19:23:09,971 INFO  75046 /home/david/.virtualenvs/eryocollector/lib/python3.8/site-packages/basic_logtools/filelog.py filelog.py filelog save Inicial conteo de ronda r.iso8601('2021-02-23T22:23:09.956698+00:00')
2021-02-23 19:23:09,971 INFO  75046 /home/david/.virtualenvs/eryocollector/lib/python3.8/site-packages/basic_logtools/filelog.py filelog.py filelog save Inicial conteo de ronda r.iso8601('2021-02-23T22:23:09.957388+00:00')
2021-02-23 19:23:09,973 INFO  75046 /home/david/.virtualenvs/eryocollector/lib/python3.8/site-packages/basic_logtools/filelog.py filelog.py filelog save Inicial conteo de ronda r.iso8601('2021-02-23T22:23:09.957954+00:00')
2021-02-23 19:23:09,973 INFO  75046 /home/david/.virtualenvs/eryocollector/lib/python3.8/site-packages/basic_logtools/filelog.py filelog.py filelog save Inicial conteo de ronda r.iso8601('2021-02-23T22:23:09.958641+00:00')
2021-02-23 19:23:09,977 INFO  75046 /home/david/.virtualenvs/eryocollector/lib/python3.8/site-packages/basic_logtools/filelog.py filelog.py filelog save Inicial conteo de ronda r.iso8601('2021-02-23T22:23:09.959408+00:00')
2021-02-23 19:23:09,977 INFO  75046 /home/david/.virtualenvs/eryocollector/lib/python3.8/site-packages/basic_logtools/filelog.py filelog.py filelog save Inicial conteo de ronda r.iso8601('2021-02-23T22:23:09.960798+00:00')
2021-02-23 19:23:09,977 INFO  75046 /home/david/.virtualenvs/eryocollector/lib/python3.8/site-packages/basic_logtools/filelog.py filelog.py filelog save Inicial conteo de ronda r.iso8601('2021-02-23T22:23:09.960001+00:00')
2021-02-23 19:23:09,978 INFO  75046 /home/david/.virtualenvs/eryocollector/lib/python3.8/site-packages/basic_logtools/filelog.py filelog.py filelog save Inicial conteo de ronda r.iso8601('2021-02-23T22:23:09.961319+00:00')
2021-02-23 19:23:09,981 INFO  75046 /home/david/.virtualenvs/eryocollector/lib/python3.8/site-packages/basic_logtools/filelog.py filelog.py filelog save Inicial conteo de ronda r.iso8601('2021-02-23T22:23:09.961932+00:00')
2021-02-23 19:23:09,982 INFO  75046 /home/david/.virtualenvs/eryocollector/lib/python3.8/site-packages/basic_logtools/filelog.py filelog.py filelog save Inicial conteo de ronda r.iso8601('2021-02-23T22:23:09.963125+00:00')
2021-02-23 19:23:09,982 INFO  75046 /home/david/.virtualenvs/eryocollector/lib/python3.8/site-packages/basic_logtools/filelog.py filelog.py filelog save Inicial conteo de ronda r.iso8601('2021-02-23T22:23:09.965042+00:00')
2021-02-23 19:23:09,983 INFO  75046 /home/david/.virtualenvs/eryocollector/lib/python3.8/site-packages/basic_logtools/filelog.py filelog.py filelog save Inicial conteo de ronda r.iso8601('2021-02-23T22:23:09.964223+00:00')
2021-02-23 19:23:09,985 INFO  75046 /home/david/.virtualenvs/eryocollector/lib/python3.8/site-packages/basic_logtools/filelog.py filelog.py filelog save Inicial conteo de ronda r.iso8601('2021-02-23T22:23:09.966031+00:00')
