2021-03-09 09:39:55,849 INFO  80276 /home/david/.virtualenvs/eryocollector/lib/python3.8/site-packages/basic_logtools/filelog.py filelog.py filelog save Inicial conteo de ronda r.iso8601('2021-03-09T12:39:54.394128+00:00')
2021-03-09 09:39:57,838 INFO  80276 /home/david/.virtualenvs/eryocollector/lib/python3.8/site-packages/basic_logtools/filelog.py filelog.py filelog save Inicial conteo de ronda r.iso8601('2021-03-09T12:39:55.850620+00:00')
2021-03-09 09:39:59,868 INFO  80276 /home/david/.virtualenvs/eryocollector/lib/python3.8/site-packages/basic_logtools/filelog.py filelog.py filelog save Inicial conteo de ronda r.iso8601('2021-03-09T12:39:57.839231+00:00')
2021-03-09 09:40:01,853 INFO  80276 /home/david/.virtualenvs/eryocollector/lib/python3.8/site-packages/basic_logtools/filelog.py filelog.py filelog save Inicial conteo de ronda r.iso8601('2021-03-09T12:39:59.868279+00:00')
2021-03-09 09:40:03,885 INFO  80276 /home/david/.virtualenvs/eryocollector/lib/python3.8/site-packages/basic_logtools/filelog.py filelog.py filelog save Inicial conteo de ronda r.iso8601('2021-03-09T12:40:01.854125+00:00')
2021-03-09 09:40:05,871 INFO  80276 /home/david/.virtualenvs/eryocollector/lib/python3.8/site-packages/basic_logtools/filelog.py filelog.py filelog save Inicial conteo de ronda r.iso8601('2021-03-09T12:40:03.886484+00:00')
2021-03-09 09:40:07,901 INFO  80276 /home/david/.virtualenvs/eryocollector/lib/python3.8/site-packages/basic_logtools/filelog.py filelog.py filelog save Inicial conteo de ronda r.iso8601('2021-03-09T12:40:05.873087+00:00')
2021-03-09 09:40:09,890 INFO  80276 /home/david/.virtualenvs/eryocollector/lib/python3.8/site-packages/basic_logtools/filelog.py filelog.py filelog save Inicial conteo de ronda r.iso8601('2021-03-09T12:40:07.902310+00:00')
2021-03-09 09:40:11,897 INFO  80276 /home/david/.virtualenvs/eryocollector/lib/python3.8/site-packages/basic_logtools/filelog.py filelog.py filelog save Inicial conteo de ronda r.iso8601('2021-03-09T12:40:09.891810+00:00')
2021-03-09 09:40:13,884 INFO  80276 /home/david/.virtualenvs/eryocollector/lib/python3.8/site-packages/basic_logtools/filelog.py filelog.py filelog save Inicial conteo de ronda r.iso8601('2021-03-09T12:40:11.897535+00:00')
2021-03-09 09:40:13,912 INFO  80276 /home/david/.virtualenvs/eryocollector/lib/python3.8/site-packages/basic_logtools/filelog.py filelog.py filelog save Inicial conteo de ronda r.iso8601('2021-03-09T12:40:13.884892+00:00')
2021-03-09 09:40:15,901 INFO  80276 /home/david/.virtualenvs/eryocollector/lib/python3.8/site-packages/basic_logtools/filelog.py filelog.py filelog save Inicial conteo de ronda r.iso8601('2021-03-09T12:40:13.912953+00:00')
2021-03-09 09:40:17,913 INFO  80276 /home/david/.virtualenvs/eryocollector/lib/python3.8/site-packages/basic_logtools/filelog.py filelog.py filelog save Inicial conteo de ronda r.iso8601('2021-03-09T12:40:15.901805+00:00')
2021-03-09 09:40:19,904 INFO  80276 /home/david/.virtualenvs/eryocollector/lib/python3.8/site-packages/basic_logtools/filelog.py filelog.py filelog save Inicial conteo de ronda r.iso8601('2021-03-09T12:40:17.914121+00:00')
2021-03-09 09:40:19,919 INFO  80276 /home/david/.virtualenvs/eryocollector/lib/python3.8/site-packages/basic_logtools/filelog.py filelog.py filelog save Inicial conteo de ronda r.iso8601('2021-03-09T12:40:19.905028+00:00')
2021-03-09 09:40:21,910 INFO  80276 /home/david/.virtualenvs/eryocollector/lib/python3.8/site-packages/basic_logtools/filelog.py filelog.py filelog save Inicial conteo de ronda r.iso8601('2021-03-09T12:40:19.920332+00:00')
2021-03-09 09:40:21,923 INFO  80276 /home/david/.virtualenvs/eryocollector/lib/python3.8/site-packages/basic_logtools/filelog.py filelog.py filelog save Inicial conteo de ronda r.iso8601('2021-03-09T12:40:21.910769+00:00')
2021-03-09 09:40:23,914 INFO  80276 /home/david/.virtualenvs/eryocollector/lib/python3.8/site-packages/basic_logtools/filelog.py filelog.py filelog save Inicial conteo de ronda r.iso8601('2021-03-09T12:40:21.923423+00:00')
2021-03-09 09:40:23,929 INFO  80276 /home/david/.virtualenvs/eryocollector/lib/python3.8/site-packages/basic_logtools/filelog.py filelog.py filelog save Inicial conteo de ronda r.iso8601('2021-03-09T12:40:23.914400+00:00')
2021-03-09 09:40:25,926 INFO  80276 /home/david/.virtualenvs/eryocollector/lib/python3.8/site-packages/basic_logtools/filelog.py filelog.py filelog save Inicial conteo de ronda r.iso8601('2021-03-09T12:40:23.929885+00:00')
2021-03-09 09:40:27,944 INFO  80276 /home/david/.virtualenvs/eryocollector/lib/python3.8/site-packages/basic_logtools/filelog.py filelog.py filelog save Inicial conteo de ronda r.iso8601('2021-03-09T12:40:25.927027+00:00')
2021-03-09 09:40:29,942 INFO  80276 /home/david/.virtualenvs/eryocollector/lib/python3.8/site-packages/basic_logtools/filelog.py filelog.py filelog save Inicial conteo de ronda r.iso8601('2021-03-09T12:40:27.945254+00:00')
2021-03-09 09:40:31,940 INFO  80276 /home/david/.virtualenvs/eryocollector/lib/python3.8/site-packages/basic_logtools/filelog.py filelog.py filelog save Inicial conteo de ronda r.iso8601('2021-03-09T12:40:29.943269+00:00')
2021-03-09 09:40:33,959 INFO  80276 /home/david/.virtualenvs/eryocollector/lib/python3.8/site-packages/basic_logtools/filelog.py filelog.py filelog save Inicial conteo de ronda r.iso8601('2021-03-09T12:40:31.941292+00:00')
2021-03-09 09:40:35,977 INFO  80276 /home/david/.virtualenvs/eryocollector/lib/python3.8/site-packages/basic_logtools/filelog.py filelog.py filelog save Inicial conteo de ronda r.iso8601('2021-03-09T12:40:33.960442+00:00')
2021-03-09 09:40:37,965 INFO  80276 /home/david/.virtualenvs/eryocollector/lib/python3.8/site-packages/basic_logtools/filelog.py filelog.py filelog save Inicial conteo de ronda r.iso8601('2021-03-09T12:40:35.978960+00:00')
2021-03-09 09:40:39,965 INFO  80276 /home/david/.virtualenvs/eryocollector/lib/python3.8/site-packages/basic_logtools/filelog.py filelog.py filelog save Inicial conteo de ronda r.iso8601('2021-03-09T12:40:37.965674+00:00')
2021-03-09 09:40:41,994 INFO  80276 /home/david/.virtualenvs/eryocollector/lib/python3.8/site-packages/basic_logtools/filelog.py filelog.py filelog save Inicial conteo de ronda r.iso8601('2021-03-09T12:40:39.966866+00:00')
2021-03-09 09:40:44,000 INFO  80276 /home/david/.virtualenvs/eryocollector/lib/python3.8/site-packages/basic_logtools/filelog.py filelog.py filelog save Inicial conteo de ronda r.iso8601('2021-03-09T12:40:41.995721+00:00')
2021-03-09 09:40:45,990 INFO  80276 /home/david/.virtualenvs/eryocollector/lib/python3.8/site-packages/basic_logtools/filelog.py filelog.py filelog save Inicial conteo de ronda r.iso8601('2021-03-09T12:40:44.000391+00:00')
2021-03-09 09:40:48,000 INFO  80276 /home/david/.virtualenvs/eryocollector/lib/python3.8/site-packages/basic_logtools/filelog.py filelog.py filelog save Inicial conteo de ronda r.iso8601('2021-03-09T12:40:45.991793+00:00')
2021-03-09 09:40:50,028 INFO  80276 /home/david/.virtualenvs/eryocollector/lib/python3.8/site-packages/basic_logtools/filelog.py filelog.py filelog save Inicial conteo de ronda r.iso8601('2021-03-09T12:40:48.002020+00:00')
2021-03-09 09:40:52,028 INFO  80276 /home/david/.virtualenvs/eryocollector/lib/python3.8/site-packages/basic_logtools/filelog.py filelog.py filelog save Inicial conteo de ronda r.iso8601('2021-03-09T12:40:50.029936+00:00')
2021-03-09 09:40:54,017 INFO  80276 /home/david/.virtualenvs/eryocollector/lib/python3.8/site-packages/basic_logtools/filelog.py filelog.py filelog save Inicial conteo de ronda r.iso8601('2021-03-09T12:40:52.029226+00:00')
2021-03-09 09:40:56,031 INFO  80276 /home/david/.virtualenvs/eryocollector/lib/python3.8/site-packages/basic_logtools/filelog.py filelog.py filelog save Inicial conteo de ronda r.iso8601('2021-03-09T12:40:54.017415+00:00')
2021-03-09 09:40:58,041 INFO  80276 /home/david/.virtualenvs/eryocollector/lib/python3.8/site-packages/basic_logtools/filelog.py filelog.py filelog save Inicial conteo de ronda r.iso8601('2021-03-09T12:40:56.032958+00:00')
2021-03-09 09:41:00,049 INFO  80276 /home/david/.virtualenvs/eryocollector/lib/python3.8/site-packages/basic_logtools/filelog.py filelog.py filelog save Inicial conteo de ronda r.iso8601('2021-03-09T12:40:58.041495+00:00')
2021-03-09 09:41:02,033 INFO  80276 /home/david/.virtualenvs/eryocollector/lib/python3.8/site-packages/basic_logtools/filelog.py filelog.py filelog save Inicial conteo de ronda r.iso8601('2021-03-09T12:41:00.050501+00:00')
2021-03-09 09:41:04,045 INFO  80276 /home/david/.virtualenvs/eryocollector/lib/python3.8/site-packages/basic_logtools/filelog.py filelog.py filelog save Inicial conteo de ronda r.iso8601('2021-03-09T12:41:02.034097+00:00')
2021-03-09 09:41:06,063 INFO  80276 /home/david/.virtualenvs/eryocollector/lib/python3.8/site-packages/basic_logtools/filelog.py filelog.py filelog save Inicial conteo de ronda r.iso8601('2021-03-09T12:41:04.046493+00:00')
2021-03-09 09:41:08,075 INFO  80276 /home/david/.virtualenvs/eryocollector/lib/python3.8/site-packages/basic_logtools/filelog.py filelog.py filelog save Inicial conteo de ronda r.iso8601('2021-03-09T12:41:06.065030+00:00')
2021-03-09 09:41:10,066 INFO  80276 /home/david/.virtualenvs/eryocollector/lib/python3.8/site-packages/basic_logtools/filelog.py filelog.py filelog save Inicial conteo de ronda r.iso8601('2021-03-09T12:41:08.076957+00:00')
2021-03-09 09:41:12,081 INFO  80276 /home/david/.virtualenvs/eryocollector/lib/python3.8/site-packages/basic_logtools/filelog.py filelog.py filelog save Inicial conteo de ronda r.iso8601('2021-03-09T12:41:10.067465+00:00')
2021-03-09 09:41:14,098 INFO  80276 /home/david/.virtualenvs/eryocollector/lib/python3.8/site-packages/basic_logtools/filelog.py filelog.py filelog save Inicial conteo de ronda r.iso8601('2021-03-09T12:41:12.082225+00:00')
2021-03-09 09:41:16,099 INFO  80276 /home/david/.virtualenvs/eryocollector/lib/python3.8/site-packages/basic_logtools/filelog.py filelog.py filelog save Inicial conteo de ronda r.iso8601('2021-03-09T12:41:14.100075+00:00')
