2021-02-24 16:47:24,092 INFO  37549 /home/david/.virtualenvs/eryocollector/lib/python3.8/site-packages/basic_logtools/filelog.py filelog.py filelog save Inicial conteo de ronda r.iso8601('2021-02-24T19:47:22.093520+00:00')
2021-02-24 16:47:26,095 INFO  37549 /home/david/.virtualenvs/eryocollector/lib/python3.8/site-packages/basic_logtools/filelog.py filelog.py filelog save Inicial conteo de ronda r.iso8601('2021-02-24T19:47:24.099145+00:00')
2021-02-24 16:47:28,099 INFO  37549 /home/david/.virtualenvs/eryocollector/lib/python3.8/site-packages/basic_logtools/filelog.py filelog.py filelog save Inicial conteo de ronda r.iso8601('2021-02-24T19:47:26.096633+00:00')
2021-02-24 16:47:28,110 INFO  37549 /home/david/.virtualenvs/eryocollector/lib/python3.8/site-packages/basic_logtools/filelog.py filelog.py filelog save Inicial conteo de ronda r.iso8601('2021-02-24T19:47:28.100196+00:00')
2021-02-24 16:47:30,111 INFO  37549 /home/david/.virtualenvs/eryocollector/lib/python3.8/site-packages/basic_logtools/filelog.py filelog.py filelog save Inicial conteo de ronda r.iso8601('2021-02-24T19:47:28.111160+00:00')
2021-02-24 16:47:32,112 INFO  37549 /home/david/.virtualenvs/eryocollector/lib/python3.8/site-packages/basic_logtools/filelog.py filelog.py filelog save Inicial conteo de ronda r.iso8601('2021-02-24T19:47:30.112047+00:00')
2021-02-24 16:47:34,120 INFO  37549 /home/david/.virtualenvs/eryocollector/lib/python3.8/site-packages/basic_logtools/filelog.py filelog.py filelog save Inicial conteo de ronda r.iso8601('2021-02-24T19:47:32.113788+00:00')
2021-02-24 16:47:36,128 INFO  37549 /home/david/.virtualenvs/eryocollector/lib/python3.8/site-packages/basic_logtools/filelog.py filelog.py filelog save Inicial conteo de ronda r.iso8601('2021-02-24T19:47:34.121616+00:00')
2021-02-24 16:47:38,129 INFO  37549 /home/david/.virtualenvs/eryocollector/lib/python3.8/site-packages/basic_logtools/filelog.py filelog.py filelog save Inicial conteo de ronda r.iso8601('2021-02-24T19:47:36.129808+00:00')
2021-02-24 16:47:40,136 INFO  37549 /home/david/.virtualenvs/eryocollector/lib/python3.8/site-packages/basic_logtools/filelog.py filelog.py filelog save Inicial conteo de ronda r.iso8601('2021-02-24T19:47:38.129302+00:00')
2021-02-24 16:47:42,139 INFO  37549 /home/david/.virtualenvs/eryocollector/lib/python3.8/site-packages/basic_logtools/filelog.py filelog.py filelog save Inicial conteo de ronda r.iso8601('2021-02-24T19:47:40.137174+00:00')
2021-02-24 16:47:44,145 INFO  37549 /home/david/.virtualenvs/eryocollector/lib/python3.8/site-packages/basic_logtools/filelog.py filelog.py filelog save Inicial conteo de ronda r.iso8601('2021-02-24T19:47:42.140987+00:00')
2021-02-24 16:47:46,151 INFO  37549 /home/david/.virtualenvs/eryocollector/lib/python3.8/site-packages/basic_logtools/filelog.py filelog.py filelog save Inicial conteo de ronda r.iso8601('2021-02-24T19:47:44.146862+00:00')
2021-02-24 16:47:48,155 INFO  37549 /home/david/.virtualenvs/eryocollector/lib/python3.8/site-packages/basic_logtools/filelog.py filelog.py filelog save Inicial conteo de ronda r.iso8601('2021-02-24T19:47:46.152164+00:00')
2021-02-24 16:47:50,156 INFO  37549 /home/david/.virtualenvs/eryocollector/lib/python3.8/site-packages/basic_logtools/filelog.py filelog.py filelog save Inicial conteo de ronda r.iso8601('2021-02-24T19:47:48.156208+00:00')
2021-02-24 16:47:52,167 INFO  37549 /home/david/.virtualenvs/eryocollector/lib/python3.8/site-packages/basic_logtools/filelog.py filelog.py filelog save Inicial conteo de ronda r.iso8601('2021-02-24T19:47:50.157174+00:00')
2021-02-24 16:47:54,171 INFO  37549 /home/david/.virtualenvs/eryocollector/lib/python3.8/site-packages/basic_logtools/filelog.py filelog.py filelog save Inicial conteo de ronda r.iso8601('2021-02-24T19:47:52.168607+00:00')
2021-02-24 16:47:56,172 INFO  37549 /home/david/.virtualenvs/eryocollector/lib/python3.8/site-packages/basic_logtools/filelog.py filelog.py filelog save Inicial conteo de ronda r.iso8601('2021-02-24T19:47:54.172371+00:00')
2021-02-24 16:47:58,176 INFO  37549 /home/david/.virtualenvs/eryocollector/lib/python3.8/site-packages/basic_logtools/filelog.py filelog.py filelog save Inicial conteo de ronda r.iso8601('2021-02-24T19:47:56.173292+00:00')
2021-02-24 16:48:00,180 INFO  37549 /home/david/.virtualenvs/eryocollector/lib/python3.8/site-packages/basic_logtools/filelog.py filelog.py filelog save Inicial conteo de ronda r.iso8601('2021-02-24T19:47:58.177708+00:00')
2021-02-24 16:48:02,190 INFO  37549 /home/david/.virtualenvs/eryocollector/lib/python3.8/site-packages/basic_logtools/filelog.py filelog.py filelog save Inicial conteo de ronda r.iso8601('2021-02-24T19:48:00.180363+00:00')
2021-02-24 16:48:04,192 INFO  37549 /home/david/.virtualenvs/eryocollector/lib/python3.8/site-packages/basic_logtools/filelog.py filelog.py filelog save Inicial conteo de ronda r.iso8601('2021-02-24T19:48:02.192193+00:00')
2021-02-24 16:48:06,200 INFO  37549 /home/david/.virtualenvs/eryocollector/lib/python3.8/site-packages/basic_logtools/filelog.py filelog.py filelog save Inicial conteo de ronda r.iso8601('2021-02-24T19:48:04.193452+00:00')
2021-02-24 16:48:08,202 INFO  37549 /home/david/.virtualenvs/eryocollector/lib/python3.8/site-packages/basic_logtools/filelog.py filelog.py filelog save Inicial conteo de ronda r.iso8601('2021-02-24T19:48:06.201561+00:00')
2021-02-24 16:48:10,207 INFO  37549 /home/david/.virtualenvs/eryocollector/lib/python3.8/site-packages/basic_logtools/filelog.py filelog.py filelog save Inicial conteo de ronda r.iso8601('2021-02-24T19:48:08.203315+00:00')
2021-02-24 16:48:12,212 INFO  37549 /home/david/.virtualenvs/eryocollector/lib/python3.8/site-packages/basic_logtools/filelog.py filelog.py filelog save Inicial conteo de ronda r.iso8601('2021-02-24T19:48:10.208525+00:00')
2021-02-24 16:48:14,212 INFO  37549 /home/david/.virtualenvs/eryocollector/lib/python3.8/site-packages/basic_logtools/filelog.py filelog.py filelog save Inicial conteo de ronda r.iso8601('2021-02-24T19:48:12.213854+00:00')
2021-02-24 16:48:16,220 INFO  37549 /home/david/.virtualenvs/eryocollector/lib/python3.8/site-packages/basic_logtools/filelog.py filelog.py filelog save Inicial conteo de ronda r.iso8601('2021-02-24T19:48:14.212849+00:00')
2021-02-24 16:48:18,223 INFO  37549 /home/david/.virtualenvs/eryocollector/lib/python3.8/site-packages/basic_logtools/filelog.py filelog.py filelog save Inicial conteo de ronda r.iso8601('2021-02-24T19:48:16.221456+00:00')
2021-02-24 16:48:20,228 INFO  37549 /home/david/.virtualenvs/eryocollector/lib/python3.8/site-packages/basic_logtools/filelog.py filelog.py filelog save Inicial conteo de ronda r.iso8601('2021-02-24T19:48:18.224783+00:00')
2021-02-24 16:48:22,233 INFO  37549 /home/david/.virtualenvs/eryocollector/lib/python3.8/site-packages/basic_logtools/filelog.py filelog.py filelog save Inicial conteo de ronda r.iso8601('2021-02-24T19:48:20.229161+00:00')
2021-02-24 16:48:24,237 INFO  37549 /home/david/.virtualenvs/eryocollector/lib/python3.8/site-packages/basic_logtools/filelog.py filelog.py filelog save Inicial conteo de ronda r.iso8601('2021-02-24T19:48:22.234451+00:00')
2021-02-24 16:48:26,249 INFO  37549 /home/david/.virtualenvs/eryocollector/lib/python3.8/site-packages/basic_logtools/filelog.py filelog.py filelog save Inicial conteo de ronda r.iso8601('2021-02-24T19:48:24.238153+00:00')
2021-02-24 16:48:28,250 INFO  37549 /home/david/.virtualenvs/eryocollector/lib/python3.8/site-packages/basic_logtools/filelog.py filelog.py filelog save Inicial conteo de ronda r.iso8601('2021-02-24T19:48:26.250139+00:00')
2021-02-24 16:48:30,252 INFO  37549 /home/david/.virtualenvs/eryocollector/lib/python3.8/site-packages/basic_logtools/filelog.py filelog.py filelog save Inicial conteo de ronda r.iso8601('2021-02-24T19:48:28.252338+00:00')
2021-02-24 16:48:32,256 INFO  37549 /home/david/.virtualenvs/eryocollector/lib/python3.8/site-packages/basic_logtools/filelog.py filelog.py filelog save Inicial conteo de ronda r.iso8601('2021-02-24T19:48:30.253633+00:00')
2021-02-24 16:48:34,258 INFO  37549 /home/david/.virtualenvs/eryocollector/lib/python3.8/site-packages/basic_logtools/filelog.py filelog.py filelog save Inicial conteo de ronda r.iso8601('2021-02-24T19:48:32.257411+00:00')
2021-02-24 16:48:36,263 INFO  37549 /home/david/.virtualenvs/eryocollector/lib/python3.8/site-packages/basic_logtools/filelog.py filelog.py filelog save Inicial conteo de ronda r.iso8601('2021-02-24T19:48:34.258803+00:00')
2021-02-24 16:48:38,274 INFO  37549 /home/david/.virtualenvs/eryocollector/lib/python3.8/site-packages/basic_logtools/filelog.py filelog.py filelog save Inicial conteo de ronda r.iso8601('2021-02-24T19:48:36.264184+00:00')
2021-02-24 16:48:40,276 INFO  37549 /home/david/.virtualenvs/eryocollector/lib/python3.8/site-packages/basic_logtools/filelog.py filelog.py filelog save Inicial conteo de ronda r.iso8601('2021-02-24T19:48:38.275745+00:00')
2021-02-24 16:48:42,280 INFO  37549 /home/david/.virtualenvs/eryocollector/lib/python3.8/site-packages/basic_logtools/filelog.py filelog.py filelog save Inicial conteo de ronda r.iso8601('2021-02-24T19:48:40.278148+00:00')
2021-02-24 16:48:44,286 INFO  37549 /home/david/.virtualenvs/eryocollector/lib/python3.8/site-packages/basic_logtools/filelog.py filelog.py filelog save Inicial conteo de ronda r.iso8601('2021-02-24T19:48:42.281308+00:00')
2021-02-24 16:48:46,292 INFO  37549 /home/david/.virtualenvs/eryocollector/lib/python3.8/site-packages/basic_logtools/filelog.py filelog.py filelog save Inicial conteo de ronda r.iso8601('2021-02-24T19:48:44.287042+00:00')
2021-02-24 16:48:48,296 INFO  37549 /home/david/.virtualenvs/eryocollector/lib/python3.8/site-packages/basic_logtools/filelog.py filelog.py filelog save Inicial conteo de ronda r.iso8601('2021-02-24T19:48:46.293229+00:00')
2021-02-24 16:48:50,300 INFO  37549 /home/david/.virtualenvs/eryocollector/lib/python3.8/site-packages/basic_logtools/filelog.py filelog.py filelog save Inicial conteo de ronda r.iso8601('2021-02-24T19:48:48.297142+00:00')
